%YAML 1.1
%TAG !u! tag:unity3d.com,2011:
--- !u!114 &11400000
MonoBehaviour:
  m_ObjectHideFlags: 0
  m_PrefabParentObject: {fileID: 0}
  m_PrefabInternal: {fileID: 0}
  m_GameObject: {fileID: 0}
  m_Enabled: 1
  m_EditorHideFlags: 0
  m_Script: {fileID: 11500000, guid: 4e7d6467e7b2dd44cb88b47e1f578a18, type: 3}
  m_Name: WorkstationsList
  m_EditorClassIdentifier: 
  array:
  - {fileID: 131908, guid: 7d225c8894304174b8a36aba48dace55, type: 2}
  - {fileID: 168918, guid: a9cac64c5f91a3d4e91be95182371430, type: 2}
  - {fileID: 166764, guid: a5a026b8fba9d7c4cbb8cb4ed3397fbb, type: 2}
  - {fileID: 166450, guid: e6137213361f23b45af9cfcbfc042ad6, type: 2}
  - {fileID: 137382, guid: 28e2b497875abcd46b732ce6fc9c0361, type: 2}
  - {fileID: 161268, guid: fbbbe846c177b4c4ebc6391ce2b2c68d, type: 2}
  - {fileID: 184716, guid: b2789a98ff901f34482dc0d23da72b76, type: 2}
  - {fileID: 151302, guid: 5b1e22c046c35ca4ebdf66178553150f, type: 2}
  - {fileID: 130500, guid: 1a5f17f9772fb8c45b4b9ff6e1fb525a, type: 2}
  - {fileID: 196648, guid: 963f100a3a8f71645b33da9d6a18b2fb, type: 2}
  - {fileID: 128174, guid: 5f4792f4b64d8964392ef3c20ceebf7a, type: 2}
  - {fileID: 182490, guid: 93f63121794fcbd49ad9c5e37b15fd89, type: 2}
  - {fileID: 194336, guid: b1ae227f10f04cd44af0f4365b8883e5, type: 2}
  - {fileID: 161198, guid: 2dcb1e8ffcaaba345b36a7239d3734b3, type: 2}
  - {fileID: 190760, guid: f4773509d78d8844e993dce3dbc90976, type: 2}
  - {fileID: 102360, guid: f8d06cf54b83d294c9eae4be47959bf2, type: 2}
  - {fileID: 156466, guid: 503752565c093a747b839c4804751ccf, type: 2}
  - {fileID: 185458, guid: 813cbe8270860ce4e87485d14a66e5b5, type: 2}
  - {fileID: 183012, guid: d7c0cdc18eeb6764abf9d82e2972c3c0, type: 2}
  - {fileID: 132576, guid: 653fcfbe8987e6d459eab426060d66ad, type: 2}
  - {fileID: 174692, guid: 612b074a6df8dc3458b28f41cb795c78, type: 2}
  - {fileID: 124632, guid: 4bd45e1bc3495ef43a86513212510656, type: 2}
  - {fileID: 133010, guid: 337ebf2e1f7915c4cb8180a95478076e, type: 2}
  - {fileID: 183244, guid: 833ba7b9ab4df8a4d804a19dd2a001a9, type: 2}
  - {fileID: 103884, guid: 7f87d32128c082d4cb3e4645f45808db, type: 2}
  - {fileID: 124110, guid: 9bcf58ad3ca36bf4f8b88241d90b1055, type: 2}
  - {fileID: 108554, guid: d6c0def5460acdb4f80e219aa478a24f, type: 2}
  - {fileID: 164320, guid: 681dcf7c01a3bb047a3463593e73d106, type: 2}
  - {fileID: 111502, guid: a7df3963c7fa6f84881292239345825c, type: 2}
  - {fileID: 151772, guid: 42863bcf9b770af48baef1829dd777d2, type: 2}
  - {fileID: 126374, guid: 8fd21394be7bb6446a30c4833bd2c733, type: 2}
  - {fileID: 130496, guid: c9da9672af3b3ae4bb6d6acaaa58d2cc, type: 2}
  - {fileID: 165082, guid: 948bc40ee52721544bcfdf09e7f79dc3, type: 2}
  - {fileID: 103856, guid: 66de5ff91cb113e4d8143c0163ead69f, type: 2}
  - {fileID: 161072, guid: 4245831a17be73240933b779eca10306, type: 2}
  - {fileID: 114398, guid: e533a4274bee9874ca2a5cc758c237e8, type: 2}
  - {fileID: 144732, guid: 2045be2016df6ce4490c1c0669a81c42, type: 2}
  - {fileID: 104162, guid: 8ec314f31ef1e9d4b96bdfe978e4d4fe, type: 2}
  - {fileID: 190246, guid: b43a77addf0b5d5418f3d4964d8b404f, type: 2}
  - {fileID: 163110, guid: 3857006de479a07418518be19b7f50c4, type: 2}
  - {fileID: 121926, guid: 819bc2779883d7141b4ca5259b306adb, type: 2}
  - {fileID: 183802, guid: d7c8f52969d733d4982a2b2085cbe858, type: 2}
  - {fileID: 151378, guid: 53cf451022622db4b90a78916d7b5783, type: 2}
  - {fileID: 122578, guid: 943001c6bad00654ea51136fcfdfa131, type: 2}
  - {fileID: 140012, guid: bc95326e78eaf2b4e96e5b36cbe5342b, type: 2}
  - {fileID: 175622, guid: 78872ba3fec733041b12e24d36931d0f, type: 2}
  - {fileID: 126054, guid: 98198a5819f9ab446909c78ec170aab0, type: 2}
  - {fileID: 143364, guid: 46f465311f524d04182e5009fbe5b9db, type: 2}
  - {fileID: 104162, guid: ef50d6557c546aa4cbf971149204a6e5, type: 2}
  - {fileID: 148168, guid: ec11b2497d5bfac429663f3edeb3a38b, type: 2}
  - {fileID: 1000014233424782, guid: 9489c75c4d466e344bb36b1e84a07480, type: 2}
