%YAML 1.1
%TAG !u! tag:unity3d.com,2011:
--- !u!114 &11400000
MonoBehaviour:
  m_ObjectHideFlags: 0
  m_PrefabParentObject: {fileID: 0}
  m_PrefabInternal: {fileID: 0}
  m_GameObject: {fileID: 0}
  m_Enabled: 1
  m_EditorHideFlags: 0
  m_Script: {fileID: 42938266, guid: de72a6d2da64d114d95e3c5a01cfaec5, type: 3}
  m_Name: PlayMakerGlobals
  m_EditorClassIdentifier: 
  variables:
    floatVariables: []
    intVariables: []
    boolVariables: []
    stringVariables: []
    vector2Variables: []
    vector3Variables: []
    colorVariables: []
    rectVariables: []
    quaternionVariables: []
    gameObjectVariables:
    - useVariable: 1
      name: ballVar
      tooltip: 
      showInInspector: 0
      networkSync: 0
      value: {fileID: 0}
    objectVariables: []
    materialVariables: []
    textureVariables: []
    arrayVariables: []
    enumVariables: []
    categories:
    - 
    variableCategoryIDs: 00000000
  events: []
