%YAML 1.1
%TAG !u! tag:unity3d.com,2011:
--- !u!1 &174412
GameObject:
  m_ObjectHideFlags: 0
  m_PrefabParentObject: {fileID: 0}
  m_PrefabInternal: {fileID: 100100000}
  serializedVersion: 4
  m_Component:
  - 4: {fileID: 469894}
  - 114: {fileID: 11421472}
  m_Layer: 0
  m_Name: WallFloorTextures
  m_TagString: Untagged
  m_Icon: {fileID: 0}
  m_NavMeshLayer: 0
  m_StaticEditorFlags: 0
  m_IsActive: 1
--- !u!4 &469894
Transform:
  m_ObjectHideFlags: 1
  m_PrefabParentObject: {fileID: 0}
  m_PrefabInternal: {fileID: 100100000}
  m_GameObject: {fileID: 174412}
  m_LocalRotation: {x: 0, y: 0, z: 0, w: 1}
  m_LocalPosition: {x: 637.5, y: 294, z: 0}
  m_LocalScale: {x: 1, y: 1, z: 1}
  m_LocalEulerAnglesHint: {x: 0, y: 0, z: 0}
  m_Children: []
  m_Father: {fileID: 0}
  m_RootOrder: 0
--- !u!114 &11421472
MonoBehaviour:
  m_ObjectHideFlags: 1
  m_PrefabParentObject: {fileID: 0}
  m_PrefabInternal: {fileID: 100100000}
  m_GameObject: {fileID: 174412}
  m_Enabled: 1
  m_EditorHideFlags: 0
  m_Script: {fileID: 11500000, guid: de66c609d0c0046018aa0c9cba381380, type: 3}
  m_Name: 
  m_EditorClassIdentifier: 
  FloorOnly: {fileID: 21300000, guid: a4f6158a97fa2438ba3c559add750268, type: 3}
  WallOnly: {fileID: 21300000, guid: 50ed2820618c7461e8c28237dd1f3167, type: 3}
  FoorWallSet: {fileID: 21300000, guid: f39cedd68fc2e49199c97646bcece1b4, type: 3}
  array:
  - wall: {fileID: 21300000, guid: 8678ef827621e49489decf3431d2bf6c, type: 3}
    floor: {fileID: 21300000, guid: 806dfd36ce2184df4917b2c875dc2a92, type: 3}
  - wall: {fileID: 0}
    floor: {fileID: 21300000, guid: a58f577327c394d7589654f6632593c3, type: 3}
  - wall: {fileID: 21300000, guid: 63ffa148c10d047ba9298116b79d13a6, type: 3}
    floor: {fileID: 0}
  - wall: {fileID: 21300000, guid: b7d883a20d10d4da592d694407bd98bd, type: 3}
    floor: {fileID: 21300000, guid: d69932f4f3d024b0c8f5339ec3ebccfa, type: 3}
  - wall: {fileID: 0}
    floor: {fileID: 21300000, guid: 009a939a0f71d46eeaafa8d777576c8f, type: 3}
  - wall: {fileID: 21300000, guid: 973195c6826564101ae5094e040d38ec, type: 3}
    floor: {fileID: 0}
  - wall: {fileID: 21300000, guid: 135712f041057486f92cf941d7b646e6, type: 3}
    floor: {fileID: 21300000, guid: d0c61fb3e75154d9a8a55e11411f00e1, type: 3}
  - wall: {fileID: 0}
    floor: {fileID: 21300000, guid: 064e17ffc8bd948c28d89c43d52b05c8, type: 3}
  - wall: {fileID: 21300000, guid: c56d46ef15eee4779b0089a3fc93fd67, type: 3}
    floor: {fileID: 0}
  - wall: {fileID: 21300000, guid: d26a4685c6f634e7aa6177b012ea9858, type: 3}
    floor: {fileID: 21300000, guid: d5d33931b6f5f49bfa3a16e820928e6c, type: 3}
  - wall: {fileID: 0}
    floor: {fileID: 21300000, guid: 5e782b902a12c4680a445c38ee290666, type: 3}
  - wall: {fileID: 21300000, guid: af0d3c3eab85e453980eb271faeb4614, type: 3}
    floor: {fileID: 0}
  - wall: {fileID: 21300000, guid: b4a543197dde8443d85f5d9a5e3141e6, type: 3}
    floor: {fileID: 21300000, guid: eff24c788210844cba3b66440cf81407, type: 3}
  - wall: {fileID: 21300000, guid: 39e07094701d949a9b251af9bf16e990, type: 3}
    floor: {fileID: 21300000, guid: 753b01dc90c984011a167ddc487e6537, type: 3}
  - wall: {fileID: 0}
    floor: {fileID: 21300000, guid: cb80bdac6240d4bc09c9f1ab414dda23, type: 3}
  - wall: {fileID: 21300000, guid: 36943f27d681f4d33b9301d0732760df, type: 3}
    floor: {fileID: 0}
  - wall: {fileID: 21300000, guid: 58cb316b8e40d4b2796802e8f7949a6b, type: 3}
    floor: {fileID: 21300000, guid: 7d04b838ce9084bbf9931a42fea0102b, type: 3}
  - wall: {fileID: 0}
    floor: {fileID: 21300000, guid: ab81e831243e64057be4e9b1b841b455, type: 3}
  - wall: {fileID: 21300000, guid: 140753804b57244f7afcfe076bf55981, type: 3}
    floor: {fileID: 0}
  - wall: {fileID: 21300000, guid: 8cf8987074f8d4762acb041667fccd4c, type: 3}
    floor: {fileID: 21300000, guid: cfef02eab711e4d24a00bdea334e2d66, type: 3}
  - wall: {fileID: 0}
    floor: {fileID: 21300000, guid: 19bf16cfeba8a46ddbee0093de1927ae, type: 3}
  - wall: {fileID: 21300000, guid: 82346d5aa8b8a4f42abf9adfff8f421d, type: 3}
    floor: {fileID: 0}
  - wall: {fileID: 21300000, guid: 1b469cbf749b54036b1df812ae2825b4, type: 3}
    floor: {fileID: 21300000, guid: 8486e597f8b084a018ecc38d94aa73e1, type: 3}
  - wall: {fileID: 0}
    floor: {fileID: 0}
  - wall: {fileID: 0}
    floor: {fileID: 0}
  - wall: {fileID: 0}
    floor: {fileID: 0}
  - wall: {fileID: 0}
    floor: {fileID: 0}
  - wall: {fileID: 21300000, guid: 4ab31ea7017804cc1ae37ceb34ede429, type: 3}
    floor: {fileID: 21300000, guid: dd28698dc0ecd4d21a22ce442b213052, type: 3}
  - wall: {fileID: 21300000, guid: 6eff1bb38ff1ead4b944062c3a3c294f, type: 3}
    floor: {fileID: 0}
  - wall: {fileID: 21300000, guid: 028e8a5b5e2797d4680f594b3d1adc97, type: 3}
    floor: {fileID: 21300000, guid: 1525a8bc955b83a4ea1dba0dea8e94d1, type: 3}
  - wall: {fileID: 21300000, guid: af98121d4e7356441985b12d8c82d665, type: 3}
    floor: {fileID: 0}
  - wall: {fileID: 21300000, guid: fb86f7fcc617dde48b3822464a6082e8, type: 3}
    floor: {fileID: 0}
  - wall: {fileID: 21300000, guid: 9fc1efdf469bba741ba7d3754a12e83e, type: 3}
    floor: {fileID: 0}
  - wall: {fileID: 0}
    floor: {fileID: 21300000, guid: 21bea347bde2a4c488c381a9bc63a060, type: 3}
  - wall: {fileID: 0}
    floor: {fileID: 21300000, guid: 6a6f3fb408c81564dbe029a744b7bea7, type: 3}
  - wall: {fileID: 0}
    floor: {fileID: 21300000, guid: 1525a8bc955b83a4ea1dba0dea8e94d1, type: 3}
  - wall: {fileID: 0}
    floor: {fileID: 21300000, guid: 49ce117ed8e563543ad5d9e083ffab40, type: 3}
--- !u!1001 &100100000
Prefab:
  m_ObjectHideFlags: 1
  serializedVersion: 2
  m_Modification:
    m_TransformParent: {fileID: 0}
    m_Modifications: []
    m_RemovedComponents: []
  m_ParentPrefab: {fileID: 0}
  m_RootGameObject: {fileID: 174412}
  m_IsPrefabParent: 1
