%YAML 1.1
%TAG !u! tag:unity3d.com,2011:
--- !u!21 &2100000
Material:
  serializedVersion: 6
  m_ObjectHideFlags: 0
  m_PrefabParentObject: {fileID: 0}
  m_PrefabInternal: {fileID: 0}
  m_Name: Male Top 1 Undressed 0 - White
  m_Shader: {fileID: 4800000, guid: 32b4cf45ba7c0944fb48bfdc4ca0ec0d, type: 3}
  m_ShaderKeywords: _DETAIL_MULX2
  m_LightmapFlags: 5
  m_CustomRenderQueue: 2000
  stringTagMap: {}
  m_SavedProperties:
    serializedVersion: 2
    m_TexEnvs:
      data:
        first:
          name: _MainTex
        second:
          m_Texture: {fileID: 2800000, guid: 815a7c2154ff14742b9579621bef93f0, type: 3}
          m_Scale: {x: 1, y: 1}
          m_Offset: {x: 0, y: 0}
      data:
        first:
          name: _BumpMap
        second:
          m_Texture: {fileID: 0}
          m_Scale: {x: 1, y: 1}
          m_Offset: {x: 0, y: 0}
      data:
        first:
          name: _DetailNormalMap
        second:
          m_Texture: {fileID: 0}
          m_Scale: {x: 1, y: 1}
          m_Offset: {x: 0, y: 0}
      data:
        first:
          name: _ParallaxMap
        second:
          m_Texture: {fileID: 0}
          m_Scale: {x: 1, y: 1}
          m_Offset: {x: 0, y: 0}
      data:
        first:
          name: _OcclusionMap
        second:
          m_Texture: {fileID: 0}
          m_Scale: {x: 1, y: 1}
          m_Offset: {x: 0, y: 0}
      data:
        first:
          name: _EmissionMap
        second:
          m_Texture: {fileID: 0}
          m_Scale: {x: 1, y: 1}
          m_Offset: {x: 0, y: 0}
      data:
        first:
          name: _DetailMask
        second:
          m_Texture: {fileID: 0}
          m_Scale: {x: 1, y: 1}
          m_Offset: {x: 0, y: 0}
      data:
        first:
          name: _DetailAlbedoMap
        second:
          m_Texture: {fileID: 2800000, guid: 45d78c7d60eb67e42a134d24f01d6b9b, type: 3}
          m_Scale: {x: 1, y: 1}
          m_Offset: {x: 0, y: 0}
      data:
        first:
          name: _MetallicGlossMap
        second:
          m_Texture: {fileID: 0}
          m_Scale: {x: 1, y: 1}
          m_Offset: {x: 0, y: 0}
      data:
        first:
          name: _SpecGlossMap
        second:
          m_Texture: {fileID: 0}
          m_Scale: {x: 1, y: 1}
          m_Offset: {x: 0, y: 0}
      data:
        first:
          name: _LightMap
        second:
          m_Texture: {fileID: 2800000, guid: 216230513840e5b4fb84571619fd14c1, type: 3}
          m_Scale: {x: 1, y: 1}
          m_Offset: {x: 0, y: 0}
      data:
        first:
          name: _MASK
        second:
          m_Texture: {fileID: 2800000, guid: 216230513840e5b4fb84571619fd14c1, type: 3}
          m_Scale: {x: 1, y: 1}
          m_Offset: {x: 0, y: 0}
      data:
        first:
          name: _MainTex_R
        second:
          m_Texture: {fileID: 0}
          m_Scale: {x: 1, y: 1}
          m_Offset: {x: 0, y: 0}
      data:
        first:
          name: _MainTex_G
        second:
          m_Texture: {fileID: 0}
          m_Scale: {x: 1, y: 1}
          m_Offset: {x: 0, y: 0}
      data:
        first:
          name: _MainTex_B
        second:
          m_Texture: {fileID: 0}
          m_Scale: {x: 1, y: 1}
          m_Offset: {x: 0, y: 0}
      data:
        first:
          name: _MainTex_A
        second:
          m_Texture: {fileID: 0}
          m_Scale: {x: 1, y: 1}
          m_Offset: {x: 0, y: 0}
      data:
        first:
          name: _MainTex_BackGround
        second:
          m_Texture: {fileID: 2800000, guid: 815a7c2154ff14742b9579621bef93f0, type: 3}
          m_Scale: {x: 1, y: 1}
          m_Offset: {x: 0, y: 0}
      data:
        first:
          name: _BumbMap_R
        second:
          m_Texture: {fileID: 0}
          m_Scale: {x: 1, y: 1}
          m_Offset: {x: 0, y: 0}
      data:
        first:
          name: _BumbMap_G
        second:
          m_Texture: {fileID: 0}
          m_Scale: {x: 1, y: 1}
          m_Offset: {x: 0, y: 0}
      data:
        first:
          name: _BumbMap_B
        second:
          m_Texture: {fileID: 0}
          m_Scale: {x: 1, y: 1}
          m_Offset: {x: 0, y: 0}
      data:
        first:
          name: _BumbMap_A
        second:
          m_Texture: {fileID: 0}
          m_Scale: {x: 1, y: 1}
          m_Offset: {x: 0, y: 0}
      data:
        first:
          name: _BumbMap_BackGround
        second:
          m_Texture: {fileID: 2800000, guid: fee01006f66aa624f8aec31ef387a4cb, type: 3}
          m_Scale: {x: 1, y: 1}
          m_Offset: {x: 0, y: 0}
      data:
        first:
          name: _IllumTexture
        second:
          m_Texture: {fileID: 0}
          m_Scale: {x: 1, y: 1}
          m_Offset: {x: 0, y: 0}
      data:
        first:
          name: _DiffuseCloth
        second:
          m_Texture: {fileID: 0}
          m_Scale: {x: 1, y: 1}
          m_Offset: {x: 0, y: 0}
      data:
        first:
          name: _DiffuseBody
        second:
          m_Texture: {fileID: 2800000, guid: cbe68f61ec8b5fa45abae3cd185f8a43, type: 3}
          m_Scale: {x: 1, y: 1}
          m_Offset: {x: 0, y: 0}
    m_Floats:
      data:
        first:
          name: _SrcBlend
        second: 1
      data:
        first:
          name: _DstBlend
        second: 0
      data:
        first:
          name: _Cutoff
        second: 0.5
      data:
        first:
          name: _Parallax
        second: 0.02
      data:
        first:
          name: _ZWrite
        second: 1
      data:
        first:
          name: _Glossiness
        second: 0.051
      data:
        first:
          name: _BumpScale
        second: 1
      data:
        first:
          name: _OcclusionStrength
        second: 0
      data:
        first:
          name: _DetailNormalMapScale
        second: 1
      data:
        first:
          name: _UVSec
        second: 1
      data:
        first:
          name: _Mode
        second: 0
      data:
        first:
          name: _Metallic
        second: 0
      data:
        first:
          name: _R_Mask
        second: 0
      data:
        first:
          name: _G_Mask
        second: 0
      data:
        first:
          name: _B_Mask
        second: 0
      data:
        first:
          name: _A_Mask
        second: 0
      data:
        first:
          name: _MainTex_LayerdorSummed
        second: 0
      data:
        first:
          name: _BumMap_LayerdorSummed
        second: 0
      data:
        first:
          name: _Specular_LayerdorSummed
        second: 0
      data:
        first:
          name: _Spec_R
        second: 0
      data:
        first:
          name: _Spec_R_Power
        second: 0
      data:
        first:
          name: _Shininess_R
        second: 0.5
      data:
        first:
          name: _Spec_G
        second: 0
      data:
        first:
          name: _Spec_G_Power
        second: 0
      data:
        first:
          name: _Shininess_G
        second: 0.5
      data:
        first:
          name: _Spec_B
        second: 0
      data:
        first:
          name: _Spec_B_Power
        second: 0
      data:
        first:
          name: _Shininess_B
        second: 0.5
      data:
        first:
          name: _Spec_A
        second: 0
      data:
        first:
          name: _Spec_A_Power
        second: 0
      data:
        first:
          name: _Shininess_A
        second: 0.5
      data:
        first:
          name: _Spec_BackGround
        second: 0
      data:
        first:
          name: _Spec_BackGround_Power
        second: 0
      data:
        first:
          name: _Shininess_Background
        second: 0.5
      data:
        first:
          name: _IllumRPower
        second: 0
      data:
        first:
          name: _IllumGPower_copy
        second: 0
      data:
        first:
          name: _IllumBPower
        second: 0
      data:
        first:
          name: _IllumAPower
        second: 0
    m_Colors:
      data:
        first:
          name: _EmissionColor
        second: {r: 0, g: 0, b: 0, a: 1}
      data:
        first:
          name: _Color
        second: {r: 1, g: 1, b: 1, a: 1}
      data:
        first:
          name: _SpecColor
        second: {r: 0.2, g: 0.2, b: 0.2, a: 1}
      data:
        first:
          name: _MainTexRColor
        second: {r: 1, g: 1, b: 1, a: 1}
      data:
        first:
          name: _MainTexGColor
        second: {r: 1, g: 1, b: 1, a: 1}
      data:
        first:
          name: _MainTexBColor
        second: {r: 1, g: 1, b: 1, a: 1}
      data:
        first:
          name: _MainTexAColor
        second: {r: 1, g: 1, b: 1, a: 1}
      data:
        first:
          name: _MainTexBGColor
        second: {r: 1, g: 1, b: 1, a: 1}
      data:
        first:
          name: _IllumRColor
        second: {r: 0, g: 0, b: 0, a: 1}
      data:
        first:
          name: _IllumGColor
        second: {r: 0, g: 0, b: 0, a: 1}
      data:
        first:
          name: _IllumBColor
        second: {r: 0, g: 0, b: 0, a: 1}
      data:
        first:
          name: _IllumAColor
        second: {r: 0, g: 0, b: 0, a: 1}
