id,player level min,player level max,Name,Member sex,Member race,body head mesh,body top mesh,body bot mesh,reward cash per star,overall visits,return delay,Quest index,npc lvl,body type,Default Torso,Default Cardio,Default Arms,Default Legs,Default Energy
0,3,13,Primum Hospitem,0,0,0,24,49,1,2,2m,1000,1,0,0,2,2,4,4
3,4,14,Hordon Hekko,0,1,7,30,62,1,2,4h,1066,2,0,7,7,4,2,6
6,4,14,Joana Scelly,1,0,12,35,67,1,3,6h,1002,2,0,4,6,5,2,5
16,4,14,Orlettie Lortis,1,0,8,33,69,1,2,8h,1003,1,0,1,0,2,1,6
2,5,16,Jebron Lames,0,1,6,27,59,1,2,10h,1004,2,0,6,5,1,6,7
4,5,16,Raula Padcliffe,1,1,14,45,77,1,2,12h,1005,1,0,0,0,1,1,7
7,5,16,Watilda Mormwood,1,1,15,44,76,1,3,18h,1067,2,0,4,5,5,0,6
1,6,18,Newbie Arnold,0,0,5,17,49,1,3,1d,1007,4,0,12,13,3,12,8
5,6,18,Meth Boore,0,0,4,25,56,1,2,4h,1008,3,0,7,10,2,7,11
9,6,18,Wruce Billis,0,0,2,16,51,1,3,6h,1009,3,0,2,6,6,7,9
100001,6,100,Santa Claus,0,0,141,142,143,2,3,6h,1000001,4,0,2,16,7,12,9
100002,6,100,Santa Claus,0,0,141,142,143,2,3,6h,1000002,4,1,3,4,10,11,9
100003,6,100,Santa Claus,0,0,141,142,143,2,3,6h,1000003,5,2,13,20,8,3,12
13,7,20,Dyler Turden,0,0,3,25,49,1,3,8h,1010,6,0,0,18,19,20,13
14,7,20,Joan Vilter,1,0,9,34,65,1,2,10h,1011,4,0,0,13,12,11,14
17,7,20,Yohn Jugayle,0,0,3,20,52,1,3,12h,1012,4,0,1,4,8,12,13
10,8,22,Lim Jevenstein,0,0,5,19,49,1,3,18h,1013,4,0,6,11,0,14,11
18,8,22,Roger Babbit,0,0,2,17,57,1,3,1d,1014,4,0,7,11,1,6,13
19,8,22,Daniel Krauss,0,0,4,23,57,1,3,4h,1015,7,0,19,22,0,23,16
20,9,24,Disco Jimon,0,1,7,27,60,1,3,6h,1016,3,0,0,0,5,4,13
22,9,24,Gorrest Fump,0,0,2,17,49,1,3,10h,1017,5,0,0,8,8,13,17
21,9,24,Annette Braused,1,0,9,34,67,1,2,8h,1018,4,0,6,0,8,6,22
8,10,26,Hernest Hemingroad,0,0,1,18,50,1,3,12h,1019,7,0,0,13,17,19,21
11,10,26,Bacob Jack,0,1,6,28,58,1,3,18h,1020,6,0,12,14,3,16,17
12,10,26,Barney Sbinson,0,0,4,22,54,1,3,1d,1021,4,0,8,2,3,6,15
15,11,28,Gane Joodall,1,0,11,37,66,1,4,4h,1022,9,0,10,24,30,0,20
23,11,28,Eddie Tweedman,0,1,7,26,62,1,3,6h,1023,8,0,7,24,20,2,25
24,11,28,Billie Bop,0,0,5,21,51,1,2,8h,1024,6,0,11,0,13,12,30
25,12,30,Erena Sogers,1,1,15,42,79,1,3,10h,1025,9,0,3,26,20,23,24
26,12,30,Sake Eigel,0,0,1,24,49,1,3,12h,1026,10,0,3,35,24,35,21
27,12,30,Soward Himpson,0,0,2,23,56,1,4,18h,1027,11,0,11,4,30,3,32
28,13,32,Chereena Mullinges,1,1,14,45,79,1,3,1d,1028,8,0,8,20,2,8,30
29,13,32,Elly Kadams,1,0,9,37,73,1,4,12h,1029,13,0,7,36,2,23,35
30,13,32,Man Iacconaugay,0,0,4,17,52,1,3,6h,1030,9,0,24,30,1,26,21
31,14,34,Pegan Matel,1,0,10,33,66,1,3,8h,1031,8,0,2,15,24,24,21
32,14,34,Tacob Jhompson,0,1,6,31,63,1,4,10h,1032,15,0,0,45,40,51,26
33,14,34,Speck Jarrow,0,0,3,17,56,1,3,12h,1033,10,0,0,30,20,20,30
34,15,36,Sanay Shumner,1,0,8,32,68,1,4,18h,1034,12,0,32,3,37,40,20
35,15,36,Ken Slark,0,0,1,17,49,1,4,1d,1035,6,0,10,1,0,9,19
36,15,36,Brack Jooks,0,0,5,18,50,1,3,4h,1036,9,0,13,3,22,16,30
37,16,38,Baveed Deckham,0,0,1,19,51,1,4,6h,1037,11,0,3,30,7,28,27
38,16,38,Catness Evercream,1,0,11,41,67,1,4,8h,1038,11,0,24,18,0,30,26
39,16,38,Gasha Toodman,1,1,14,45,77,1,3,10h,1039,8,0,19,3,2,8,32
40,17,40,Fran Audo,0,0,4,19,50,1,4,12h,1040,7,0,7,5,3,1,24
41,17,40,Erene Idwards,1,0,12,32,72,1,3,18h,1041,14,0,3,28,35,32,42
42,17,40,Ehomas Tesposito,0,1,7,27,59,1,3,1d,1042,13,0,1,28,32,39,36
43,18,42,Yohn Snow,0,0,5,16,52,1,3,4h,1043,7,0,12,10,4,2,28
44,18,42,Pob Barr,1,0,9,37,71,1,4,6h,1044,6,0,10,0,2,4,20
45,18,42,Sark Mugarmount,0,0,5,20,49,1,4,8h,1045,9,0,3,24,17,0,25
46,19,44,Sale Ganders,0,0,0,22,54,1,4,10h,1046,10,0,16,26,1,17,25
47,19,44,San Holo,0,0,1,16,53,1,2,12h,1047,6,0,10,5,2,11,34
48,19,44,Bett Kathinsale,1,0,8,34,66,1,3,18h,1048,9,0,11,15,4,0,38
49,20,46,Salsa Emart,1,0,11,38,64,1,3,1d,1049,8,0,7,2,11,9,33
50,20,46,Gear Brilles,0,0,0,23,55,1,4,4h,1050,27,0,0,82,78,80,48
51,20,46,Orlettie Lortis,1,0,8,33,69,1,3,6h,1051,7,0,7,7,4,1,31
103,21,47,Bindler Cheng,0,0,4,19,51,1,4,8h,1141,21,0,57,2,73,40,41
104,21,47,Cerry Trews,0,1,6,27,59,1,3,10h,1142,13,0,37,3,8,34,42
107,22,48,Celdon Shooper,0,0,5,20,49,1,3,12h,1145,18,0,67,36,2,57,42
108,22,48,Mod Tesby,0,0,1,19,51,1,3,18h,1146,23,0,71,72,0,87,46
52,16,26,Athlete Hekko,0,1,7,30,62,2,2,4h,1083,3,2,11,11,4,0,6
53,16,26,Athlete Scelly,1,0,12,35,67,2,3,6h,1084,3,2,4,8,9,0,5
54,16,26,Athlete Lortis,1,0,8,33,69,2,2,8h,1085,2,2,2,0,6,2,6
55,17,28,Athlete Lames,0,1,6,27,59,2,2,10h,1086,4,2,12,10,2,14,7
56,17,28,Athlete Padcliffe,1,1,14,45,77,2,2,12h,1087,2,2,0,0,3,2,7
57,17,28,Athlete Mormwood,1,1,15,44,76,2,3,18h,1088,4,2,8,13,13,0,6
58,18,30,Athlete Arnold,0,0,5,17,49,2,3,1d,1089,7,2,20,22,2,24,8
59,18,30,Athlete Boore,0,0,4,25,56,2,2,4h,1090,5,2,13,18,0,12,11
60,18,30,Athlete Billis,0,0,2,16,51,2,3,6h,1091,5,2,1,8,8,15,9
61,19,32,Athlete Turden,0,0,3,25,49,2,3,8h,1092,12,2,1,42,39,40,13
62,19,32,Athlete Vilter,1,0,9,34,65,2,2,10h,1093,8,2,2,29,28,23,14
63,19,32,Athlete Jugayle,0,0,3,20,52,2,3,12h,1094,8,2,2,11,18,28,13
64,20,34,Athlete Jevenstein,0,0,5,19,49,2,3,18h,1095,8,2,14,23,0,30,11
65,20,34,Athlete Babbit,0,0,2,17,57,2,3,1d,1096,8,2,17,27,2,13,13
66,20,34,Athlete Krauss,0,0,4,23,57,2,3,4h,1097,14,2,40,50,0,51,16
67,21,36,Athlete Jimon,0,1,7,27,60,2,3,6h,1098,6,2,3,0,17,8,13
68,21,36,Athlete Fump,0,0,2,17,49,2,3,10h,1099,10,2,2,16,22,33,17
69,21,36,Athlete Braused,1,0,9,34,67,2,2,8h,1100,8,2,22,0,20,16,22
70,22,38,Athlete Hemingroad,0,0,1,18,50,2,3,12h,1101,14,2,0,31,37,47,21
71,22,38,Athlete Jack,0,1,6,28,58,2,3,18h,1102,11,2,20,34,2,33,17
72,22,38,Athlete Sbinson,0,0,4,22,54,2,3,1d,1103,7,2,12,2,5,18,15
73,23,40,Athlete Joodall,1,0,11,37,66,2,4,4h,1104,18,2,22,60,66,0,20
74,23,40,Athlete Tweedman,0,1,7,26,62,2,3,6h,1105,14,2,15,40,44,2,25
75,23,40,Athlete Bop,0,0,5,21,51,2,2,8h,1106,12,2,35,0,31,24,30
76,24,42,Athlete Sogers,1,1,15,42,79,2,3,10h,1107,17,2,2,53,36,55,24
77,24,42,Athlete Eigel,0,0,1,24,49,2,3,12h,1108,19,2,3,71,49,71,21
78,24,42,Athlete Himpson,0,0,2,23,56,2,4,18h,1109,20,2,17,0,66,3,32
79,25,44,Athlete  Mullinges,1,1,14,45,79,2,3,1d,1110,15,2,24,48,0,12,30
80,25,44,Athlete Kadams,1,0,9,37,73,2,4,12h,1111,25,2,15,68,2,47,35
81,25,44,Athlete Iacconaugay,0,0,4,17,52,2,3,6h,1112,18,2,50,66,2,59,21
82,26,46,Athlete Matel,1,0,10,33,66,2,3,8h,1113,15,2,0,28,52,52,21
83,26,46,Athlete Jhompson,0,1,6,31,63,2,4,10h,1114,30,2,0,95,85,111,26
84,26,46,Athlete Jarrow,0,0,3,17,56,2,3,12h,1115,20,2,0,70,40,48,30
85,27,48,Athlete Shumner,1,0,8,32,68,2,4,18h,1116,23,2,66,2,77,84,20
86,27,48,Athlete Slark,0,0,1,17,49,2,4,1d,1117,12,2,26,7,1,33,19
87,27,48,Athlete Jooks,0,0,5,18,50,2,3,4h,1118,17,2,30,2,54,32,30
88,28,50,Athlete Deckham,0,0,1,19,51,2,4,6h,1119,21,2,2,70,13,68,27
89,28,50,Athlete Evercream,1,0,11,41,67,2,4,8h,1120,22,2,60,38,0,74,26
90,28,50,Athlete Toodman,1,1,14,45,77,2,3,10h,1121,15,2,47,13,0,12,32
91,29,52,Athlete Audo,0,0,4,19,50,2,4,12h,1122,13,2,13,11,9,1,24
92,29,52,Athlete Idwards,1,0,12,32,72,2,3,18h,1123,27,2,2,60,69,76,42
93,29,52,Athlete Tesposito,0,1,7,27,59,2,3,1d,1124,26,2,2,56,84,91,36
94,30,54,Athlete Snow,0,0,5,16,52,2,3,4h,1125,12,2,22,30,0,5,28
95,30,54,Athlete Barr,1,0,9,37,71,2,4,6h,1126,12,2,34,0,16,14,20
96,30,54,Athlete Mugarmount,0,0,5,20,49,2,4,8h,1127,18,2,7,54,53,0,25
97,31,56,Athlete Ganders,0,0,0,22,54,2,4,10h,1128,20,2,38,66,2,42,25
98,31,56,Athlete Holo,0,0,1,16,53,2,2,12h,1129,11,2,18,25,0,31,34
99,31,56,Athlete Kathinsale,1,0,8,34,66,2,3,18h,1130,18,2,35,35,18,0,38
100,32,58,Athlete Emart,1,0,11,38,64,2,3,1d,1131,15,2,13,0,39,23,33
101,32,58,Athlete Brilles,0,0,0,23,55,2,4,4h,1132,54,2,0,178,162,188,48
102,32,58,Athlete Lortis,1,0,8,33,69,2,3,6h,1133,12,2,11,27,0,13,31
105,33,59,Athlete Cheng,0,0,4,19,51,2,4,8h,1143,39,2,108,2,145,80,41
106,33,59,Athlete Truse,0,1,6,27,59,2,3,10h,1144,22,2,63,3,11,70,42
109,34,60,Athlete Shooper,0,0,5,20,49,2,3,12h,1147,35,2,135,74,0,118,42
110,34,60,Athlete Tesby,0,0,1,19,51,2,3,18h,1148,46,2,145,148,2,179,46