boxId,reward,dropRate,countMin,countMax
1,Expand_01,10,1,1
2,Expand_02,10,1,1
3,Expand_03,10,1,1
4,Expand_04,10,1,1
5,Storage_01,10,1,1
6,Storage_02,10,1,1
7,Storage_03,10,1,1
8,Storage_04,10,1,1
9,Coins,10,400,600
10,Coins,10,600,800
11,Coins,10,800,1000
12,Coins,10,1000,1200
13,Bucks,10,4,8
14,Bucks,10,8,12
15,Bucks,10,12,16
16,Bucks,10,16,20
17,Equip_01,10,2,4
18,Equip_01,10,4,6
19,Equip_01,10,6,8
20,Equip_01,10,8,12
21,Expand_01,10,2,4
22,Expand_02,10,2,4
23,Expand_03,10,2,4
24,Expand_04,10,2,4
25,Storage_01,10,2,4
26,Storage_02,10,2,4
27,Storage_03,10,2,4
28,Storage_04,10,2,4
29,Coins,10,1200,1600
30,Coins,10,1600,2000
31,Coins,10,2000,2400
32,Coins,10,2400,2800
33,Bucks,10,10,15
34,Bucks,10,15,20
35,Bucks,10,25,30
36,Bucks,10,35,40
37,Equip_01,10,3,6
38,Equip_01,10,6,9
39,Equip_01,10,9,12
40,Equip_01,10,12,15