level,id,loc_id,exercise_id,exercise_complete_id,ingredient_1,ingredient_1_count,ingredient_2,ingredient_2_count,ingredient_3,ingredient_3_count,ingredient_4,ingredient_4_count,reward_coins,reward_exp,make_time,drink_time
6,Juice_01,Juice0,207,208,Fruit_01,2,None,,None,,None,,20,6,120s,20s
8,Juice_02,Juice1,207,208,Fruit_02,2,None,,None,,None,,25,8,5m,40s
10,Juice_03,Juice2,207,208,Fruit_03,2,None,,None,,None,,32,10,10m,2m
12,Juice_04,Juice3,207,208,Fruit_02,2,Fruit_03,1,None,,None,,44,14,15m,4m
14,Juice_05,Juice4,207,208,Fruit_01,2,Fruit_03,1,None,,None,,56,18,30m,6m
15,Juice_06,Juice5,207,208,Fruit_03,2,Fruit_04,2,None,,None,,70,22,45m,10m
19,Juice_07,Juice6,207,208,Fruit_04,2,Fruit_05,2,None,,None,,88,28,60m,15m
22,Juice_08,Juice7,207,208,Fruit_01,3,Fruit_02,2,Fruit_05,2,None,,120,38,120m,30m