rank,type,goal,id,reward,gameCenterID,googlePlayID
1,BuyEquip,1,3,4,com.tatemgames.dreamgym2_achievement_1_1,CgkIgbCzsoAJEAIQBw
1,GetDailyBonusDay,2,,4,com.tatemgames.dreamgym2_achievement_1_2,CgkIgbCzsoAJEAIQCA
1,HarvestFruits,25,0,4,com.tatemgames.dreamgym2_achievement_1_3,CgkIgbCzsoAJEAIQCQ
1,TrainVisitors,40,,4,com.tatemgames.dreamgym2_achievement_1_4,CgkIgbCzsoAJEAIQCg
1,ExpandGym,3,,4,com.tatemgames.dreamgym2_achievement_1_5,CgkIgbCzsoAJEAIQCw
1,BuyEquipTotal,10,,4,com.tatemgames.dreamgym2_achievement_1_6,CgkIgbCzsoAJEAIQBg
2,OpenSportClub,1,,12,com.tatemgames.dreamgym2_achievement_2_1,CgkIgbCzsoAJEAIQDA
2,ExpandGym,5,,5,com.tatemgames.dreamgym2_achievement_2_2,CgkIgbCzsoAJEAIQDQ
2,CompleteDailyActivitiesTotal,35,,5,com.tatemgames.dreamgym2_achievement_2_3,CgkIgbCzsoAJEAIQDg
2,ReachStyle,7,,5,com.tatemgames.dreamgym2_achievement_2_4,CgkIgbCzsoAJEAIQDw
2,MakeJuice,20,3,5,com.tatemgames.dreamgym2_achievement_2_5,CgkIgbCzsoAJEAIQEA
2,BuyEquip,2,9,5,com.tatemgames.dreamgym2_achievement_2_6,CgkIgbCzsoAJEAIQEQ
2,WatchAd,5,,5,com.tatemgames.dreamgym2_achievement_2_7,CgkIgbCzsoAJEAIQEg
3,OpenSportRoom,2,,10,com.tatemgames.dreamgym2_achievement_3_1,CgkIgbCzsoAJEAIQEw
3,ExpandStorage,50,,8,com.tatemgames.dreamgym2_achievement_3_2,CgkIgbCzsoAJEAIQFA
3,ReachLevel,20,,12,com.tatemgames.dreamgym2_achievement_3_3,CgkIgbCzsoAJEAIQFQ
3,CompleteLaneQuest,15,,5,com.tatemgames.dreamgym2_achievement_3_4,CgkIgbCzsoAJEAIQFg
3,SellSportsmen,10,,5,com.tatemgames.dreamgym2_achievement_3_5,CgkIgbCzsoAJEAIQFw
3,BuyTree,1,4,5,com.tatemgames.dreamgym2_achievement_3_6,CgkIgbCzsoAJEAIQGA
3,TrainSportsmen,30,,5,com.tatemgames.dreamgym2_achievement_3_7,CgkIgbCzsoAJEAIQGQ
3,BuySportResource,50,,5,com.tatemgames.dreamgym2_achievement_3_8,CgkIgbCzsoAJEAIQGg
3,BuyEquip,4,1,5,com.tatemgames.dreamgym2_achievement_3_9,CgkIgbCzsoAJEAIQGw
3,CompleteDailyActivitiesTotal,70,,5,com.tatemgames.dreamgym2_achievement_3_10,CgkIgbCzsoAJEAIQHA
4,OpenSportRoom,3,,12,com.tatemgames.dreamgym2_achievement_4_1,CgkIgbCzsoAJEAIQHQ
4,ExpandSportbench,18,,8,com.tatemgames.dreamgym2_achievement_4_2,CgkIgbCzsoAJEAIQHg
4,BuyDecorTotal,20,,6,com.tatemgames.dreamgym2_achievement_4_3,CgkIgbCzsoAJEAIQHw
4,BuyEquipTotal,30,,5,com.tatemgames.dreamgym2_achievement_4_4,CgkIgbCzsoAJEAIQIA
4,CompleteJuiceQuest,100,,10,com.tatemgames.dreamgym2_achievement_4_5,CgkIgbCzsoAJEAIQIQ
4,ExpandGym,10,,12,com.tatemgames.dreamgym2_achievement_4_6,CgkIgbCzsoAJEAIQIg
4,EarnCoins,50000,,6,com.tatemgames.dreamgym2_achievement_4_7,CgkIgbCzsoAJEAIQIw
4,BuySportsmen,20,,8,com.tatemgames.dreamgym2_achievement_4_8,CgkIgbCzsoAJEAIQJA
4,BuyEquip,2,185,6,com.tatemgames.dreamgym2_achievement_4_9,CgkIgbCzsoAJEAIQJQ
4,ExpandStorage,70,,12,com.tatemgames.dreamgym2_achievement_4_10,CgkIgbCzsoAJEAIQJg
4,CompleteLaneQuest,30,,8,com.tatemgames.dreamgym2_achievement_4_11,CgkIgbCzsoAJEAIQJw
5,ReachLevel,30,,20,com.tatemgames.dreamgym2_achievement_5_1,CgkIgbCzsoAJEAIQKA
5,CompleteLaneQuest,50,,15,com.tatemgames.dreamgym2_achievement_5_2,CgkIgbCzsoAJEAIQKQ
5,ReachStyle,15,,15,com.tatemgames.dreamgym2_achievement_5_3,CgkIgbCzsoAJEAIQKg
5,EarnCoins,150000,,10,com.tatemgames.dreamgym2_achievement_5_4,CgkIgbCzsoAJEAIQKw
5,ExpandStorage,100,,15,com.tatemgames.dreamgym2_achievement_5_5,CgkIgbCzsoAJEAIQLA
5,BuyDecorTotal,25,,10,com.tatemgames.dreamgym2_achievement_5_6,CgkIgbCzsoAJEAIQLQ
5,ExpandSportbench,26,,10,com.tatemgames.dreamgym2_achievement_5_7,CgkIgbCzsoAJEAIQLg
5,BuySportResource,150,,10,com.tatemgames.dreamgym2_achievement_5_8,CgkIgbCzsoAJEAIQLw
5,HarvestFruits,100,4,10,com.tatemgames.dreamgym2_achievement_5_9,CgkIgbCzsoAJEAIQMA
5,BuyEquipTotal,50,,10,com.tatemgames.dreamgym2_achievement_5_10,CgkIgbCzsoAJEAIQMQ
5,BuyEquip,2,186,10,com.tatemgames.dreamgym2_achievement_5_11,CgkIgbCzsoAJEAIQMg