id,equipment_id,exercise_tier,leverRequired,sportsmen_needed,resource_needed,duration,sportsmen_result
1,185,0,12,Sportsman_0,Sport_01,5m,Sportsman_1
2,185,1,12,Sportsman_0,Sport_02,20m,Sportsman_2
3,185,2,14,Sportsman_1,Sport_03,4h,Sportsman_3
4,186,0,16,Sportsman_0,Sport_04,20m,Sportsman_4
5,186,1,17,Sportsman_0,Sport_05,2h,Sportsman_5
6,186,2,18,Sportsman_2,Sport_06,8h,Sportsman_6
7,187,0,20,Sportsman_2,Sport_07,2h,Sportsman_7
8,187,1,21,Sportsman_5,Sport_08,6h,Sportsman_8
9,187,2,22,Sportsman_6,Sport_09,12h,Sportsman_9