%YAML 1.1
%TAG !u! tag:unity3d.com,2011:
--- !u!114 &11400000
MonoBehaviour:
  m_ObjectHideFlags: 0
  m_PrefabParentObject: {fileID: 0}
  m_PrefabInternal: {fileID: 0}
  m_GameObject: {fileID: 0}
  m_Enabled: 1
  m_EditorHideFlags: 0
  m_Script: {fileID: 11500000, guid: 4e7d6467e7b2dd44cb88b47e1f578a18, type: 3}
  m_Name: Salesman Torso
  m_EditorClassIdentifier: 
  array:
  - {fileID: 100080, guid: 954997eb8d7321d44a55cb391103a0ff, type: 3}
