%YAML 1.1
%TAG !u! tag:unity3d.com,2011:
--- !u!114 &11400000
MonoBehaviour:
  m_ObjectHideFlags: 0
  m_PrefabParentObject: {fileID: 0}
  m_PrefabInternal: {fileID: 0}
  m_GameObject: {fileID: 0}
  m_Enabled: 1
  m_EditorHideFlags: 0
  m_Script: {fileID: 11500000, guid: 656177b5a33e66a4a9edbd94bfd5c04b, type: 3}
  m_Name: SportClub Materials Replacement Policy
  m_EditorClassIdentifier: 
  array:
  - name: LockedRoom
    substitutions:
    - original: {fileID: 2100000, guid: c016a01c283607641a6fb00d0b11ece7, type: 2}
      substitute: {fileID: 2100000, guid: 3a23b308266bbfe4db8bba87b2b1da5c, type: 2}
    - original: {fileID: 2100000, guid: fbda64e882f89be49a4cb989936ab855, type: 2}
      substitute: {fileID: 2100000, guid: 2ca0570a7f9f24a449319fd1fd1f087e, type: 2}
    - original: {fileID: 2100000, guid: 7826fdbae246bcb43a0e76a8119d1b43, type: 2}
      substitute: {fileID: 2100000, guid: b70eb744c15d0804ca6ef1b5a3f52a46, type: 2}
    - original: {fileID: 2100000, guid: fdd4aa65026e845488470540a020b50f, type: 2}
      substitute: {fileID: 2100000, guid: a7e50c3b8bf903146a61401b62b8bcfe, type: 2}
    - original: {fileID: 2100000, guid: d444875e86eeaa74cbec67f412cb21ed, type: 2}
      substitute: {fileID: 2100000, guid: c5f2dc4a5ed48d848b750bb3ec64f84c, type: 2}
