%YAML 1.1
%TAG !u! tag:unity3d.com,2011:
--- !u!114 &11400000
MonoBehaviour:
  m_ObjectHideFlags: 0
  m_PrefabParentObject: {fileID: 0}
  m_PrefabInternal: {fileID: 0}
  m_GameObject: {fileID: 0}
  m_Enabled: 1
  m_EditorHideFlags: 0
  m_Script: {fileID: 11500000, guid: 6d2f05d42fe02e54f8c72da117fe4793, type: 3}
  m_Name: OverheadUIExerciseIcons
  m_EditorClassIdentifier: 
  array:
  - {fileID: 21300000, guid: 827ede8247eb0e1428c2555db3c414be, type: 3}
  - {fileID: 21300000, guid: cad59cfdcd5b532468f157874e4a666a, type: 3}
  - {fileID: 21300000, guid: ec0e552dbb274144284145a1c23fe78e, type: 3}
  - {fileID: 21300000, guid: 261c98e04aabba74bb815f3bf7366e9b, type: 3}
  - {fileID: 21300000, guid: 2b0083b017097f64090b636f1cdf5766, type: 3}
  - {fileID: 21300000, guid: 3f6c274899c7ad24c9f706f9f154740a, type: 3}
  - {fileID: 21300000, guid: d663ade613f399d4c9f9f6e966ce84b4, type: 3}
  - {fileID: 21300000, guid: f9252c7d148caab4b89bf10141b59598, type: 3}
  - {fileID: 21300000, guid: b0f7d4eeb9f2e1c45a9a6e87d72409bc, type: 3}
  - {fileID: 21300000, guid: bba085e9a91f5c04c8792a9de1ec11e1, type: 3}
  - {fileID: 21300000, guid: e07af1f8ae15e054b8fdc3f6b0f598c6, type: 3}
  - {fileID: 21300000, guid: 039336c6ed159af479e6eecc1163e76c, type: 3}
  - {fileID: 21300000, guid: 473cf8d8c6e5e5047bc746b023c15b27, type: 3}
  - {fileID: 21300000, guid: 8c7b587a0cac380468d648e7881f75e4, type: 3}
  - {fileID: 21300000, guid: bb8c68db2389943429a093dba0459bf7, type: 3}
  - {fileID: 21300000, guid: f9aec9130c8da0049820d381aac5b274, type: 3}
  - {fileID: 21300000, guid: 0f1cac29523d62046925ef497110769d, type: 3}
  - {fileID: 21300000, guid: ddd7f4ff1d32d8a47bbb4189411c09a6, type: 3}
  - {fileID: 21300000, guid: 5dc1e8f8ad1a4ce45bf1f27c89c1619e, type: 3}
  - {fileID: 21300000, guid: 82b8e48450fe3af4eb7d88c683f8382b, type: 3}
  - {fileID: 21300000, guid: 82d5388e764ad224d8ce481cabe429e4, type: 3}
  - {fileID: 21300000, guid: 47213b470da20c04fa7a82b6c2661418, type: 3}
  - {fileID: 21300000, guid: 2648a88d30f606a40a6ddc78254c5329, type: 3}
  - {fileID: 21300000, guid: a46349577bf7dc24f831664c510d7065, type: 3}
  - {fileID: 21300000, guid: fbf1a866d92c09d49ba190902221056f, type: 3}
  - {fileID: 0}
  - {fileID: 0}
  - {fileID: 0}
  - {fileID: 21300000, guid: 827ede8247eb0e1428c2555db3c414be, type: 3}
  - {fileID: 21300000, guid: bf8d2a79d50790340a64a93cccd6d92e, type: 3}
  - {fileID: 21300000, guid: 37dcb451dab2e4947aa540b665966aa2, type: 3}
  - {fileID: 21300000, guid: 9cc5e37eaf1428b4d8a5423be927a280, type: 3}
  - {fileID: 21300000, guid: 7a16cdb59f5f6784c8e4d75fec6b1798, type: 3}
  - {fileID: 21300000, guid: b01330ccfd841934b99c48c6a7834cbf, type: 3}
  - {fileID: 21300000, guid: 2e7881dc88159c54e98a4cb435b17ee0, type: 3}
  - {fileID: 21300000, guid: 9449597fd5ebb2e41b5891ec12844f0a, type: 3}
  - {fileID: 21300000, guid: 58635de3c46614340a7db873808af0b5, type: 3}
  - {fileID: 21300000, guid: 1e6f0537dd9258240b7140db3b5df7d4, type: 3}
  - {fileID: 21300000, guid: 1e99fbde79705134cb194a0d488728e2, type: 3}
  - {fileID: 21300000, guid: f4ef0d7475736f04cb6b6833d690a9e9, type: 3}
  - {fileID: 21300000, guid: 1dff8224f2f3efc4885d2d183b08b225, type: 3}
  - {fileID: 21300000, guid: 86a88b8c3ba8c44478b155ffe792cb4d, type: 3}
  - {fileID: 21300000, guid: 1c58d51534a3ac942a82ae14e583cd89, type: 3}
  - {fileID: 21300000, guid: df0291a43cccbd143a8ae62d753f4af4, type: 3}
  - {fileID: 21300000, guid: b59660cf45be62447b108d9cad88245c, type: 3}
  - {fileID: 21300000, guid: b45e754897521ed4caa9fca99ec21073, type: 3}
  - {fileID: 21300000, guid: caeabb92b9e1d9347a99968ae37d35f0, type: 3}
  - {fileID: 21300000, guid: 37c4ba542cbef214b95b67043d9b063f, type: 3}
  - {fileID: 21300000, guid: 2c0d795160678d548b6059d33947f52d, type: 3}
  - {fileID: 21300000, guid: dba52ba5e73ce0549beafdfe76cced06, type: 3}
  - {fileID: 21300000, guid: 71d6e6c0de0817545a3c01cae8e4c230, type: 3}
  - {fileID: 21300000, guid: c41a528f1de431c4184db4537d8a9947, type: 3}
  - {fileID: 21300000, guid: 0e0a608488ec951468070e7d7088b03f, type: 3}
  - {fileID: 21300000, guid: e0838dfe2add5ff40b8d350db563fc5e, type: 3}
  - {fileID: 21300000, guid: 312f9372e5762174d90bb2d21d18354a, type: 3}
  - {fileID: 21300000, guid: 98ff904b90d170d4399425ce596fae43, type: 3}
  - {fileID: 21300000, guid: 30f7c4b7070d89c4a9eba0caa4d9a304, type: 3}
  - {fileID: 21300000, guid: 1bfe5b505979aca478c42245f6d97528, type: 3}
