%YAML 1.1
%TAG !u! tag:unity3d.com,2011:
--- !u!114 &11400000
MonoBehaviour:
  m_ObjectHideFlags: 0
  m_PrefabParentObject: {fileID: 0}
  m_PrefabInternal: {fileID: 0}
  m_GameObject: {fileID: 0}
  m_Enabled: 1
  m_EditorHideFlags: 0
  m_Script: {fileID: 11500000, guid: 6d2f05d42fe02e54f8c72da117fe4793, type: 3}
  m_Name: OverheadUIEquipmentBackgrounds
  m_EditorClassIdentifier: 
  array:
  - {fileID: 21300000, guid: ca6836a43c8c945d6ac2fc26cb5e1c00, type: 3}
  - {fileID: 21300000, guid: ca6836a43c8c945d6ac2fc26cb5e1c00, type: 3}
  - {fileID: 21300000, guid: ca6836a43c8c945d6ac2fc26cb5e1c00, type: 3}
  - {fileID: 21300000, guid: ca6836a43c8c945d6ac2fc26cb5e1c00, type: 3}
  - {fileID: 21300000, guid: ca6836a43c8c945d6ac2fc26cb5e1c00, type: 3}
  - {fileID: 21300000, guid: ca6836a43c8c945d6ac2fc26cb5e1c00, type: 3}
  - {fileID: 21300000, guid: ca6836a43c8c945d6ac2fc26cb5e1c00, type: 3}
  - {fileID: 21300000, guid: ca6836a43c8c945d6ac2fc26cb5e1c00, type: 3}
  - {fileID: 21300000, guid: ca6836a43c8c945d6ac2fc26cb5e1c00, type: 3}
