%YAML 1.1
%TAG !u! tag:unity3d.com,2011:
--- !u!114 &11400000
MonoBehaviour:
  m_ObjectHideFlags: 0
  m_PrefabParentObject: {fileID: 0}
  m_PrefabInternal: {fileID: 0}
  m_GameObject: {fileID: 0}
  m_Enabled: 1
  m_EditorHideFlags: 0
  m_Script: {fileID: 11500000, guid: 656177b5a33e66a4a9edbd94bfd5c04b, type: 3}
  m_Name: Estate Materials Replacement Policy
  m_EditorClassIdentifier: 
  array:
  - name: WrongPlacement
    substitutions:
    - original: {fileID: 2100000, guid: f3dafab69903a2b4786347baf7b732f8, type: 2}
      substitute: {fileID: 2100000, guid: 787593908565aad4a8bbf95fa1705fee, type: 2}
    - original: {fileID: 2100000, guid: 14a48076d6ee3c34a9aa9d50b1112dfe, type: 2}
      substitute: {fileID: 2100000, guid: 0bfdaf135a0b7a74ea1fabddc66242af, type: 2}
    - original: {fileID: 2100000, guid: 7726c6cd2a88afb48b3ed11035a99912, type: 2}
      substitute: {fileID: 2100000, guid: 6a20331a4f83b5d4d8ce3932b44397be, type: 2}
    - original: {fileID: 2100000, guid: b5d93a56e0781294fa24746e776db9fc, type: 2}
      substitute: {fileID: 2100000, guid: 6a20331a4f83b5d4d8ce3932b44397be, type: 2}
    - original: {fileID: 2100000, guid: cd47ffc632885ea4ca4fa140140fb188, type: 2}
      substitute: {fileID: 2100000, guid: a6e88ecc170ac2049a90fbb10f125a24, type: 2}
    - original: {fileID: 2100000, guid: 543e5e5bd5c144d08818d58f54b857af, type: 2}
      substitute: {fileID: 2100000, guid: f5106a50c6786634fbd1bb11902eab28, type: 2}
    - original: {fileID: 2100000, guid: 199ca523430bb694889af94c56b70e84, type: 2}
      substitute: {fileID: 2100000, guid: 2edbf94bc96a49a4598bfca82e16c0fb, type: 2}
    - original: {fileID: 2100000, guid: fbda64e882f89be49a4cb989936ab855, type: 2}
      substitute: {fileID: 2100000, guid: 8d2a896b0a5665449b028a34a9c67bce, type: 2}
    - original: {fileID: 2100000, guid: ff5deadc72e89664aa4edd84130f77bb, type: 2}
      substitute: {fileID: 2100000, guid: 324582616b94fc54c866eb62609c1c0a, type: 2}
    - original: {fileID: 2100000, guid: da7a7ab04a9f9344387dc19f5fc66356, type: 2}
      substitute: {fileID: 2100000, guid: 059b99f070a5f8e46b9c93ff974fb7ba, type: 2}
  - name: LockedEquipment
    substitutions:
    - original: {fileID: 2100000, guid: f3dafab69903a2b4786347baf7b732f8, type: 2}
      substitute: {fileID: 2100000, guid: 0d3fa3a5af28b4340a4f8c80e7f5fd74, type: 2}
    - original: {fileID: 2100000, guid: 14a48076d6ee3c34a9aa9d50b1112dfe, type: 2}
      substitute: {fileID: 2100000, guid: fb79b79f3cd953140a557b7ee14b8e85, type: 2}
    - original: {fileID: 2100000, guid: 7726c6cd2a88afb48b3ed11035a99912, type: 2}
      substitute: {fileID: 2100000, guid: 33c83dcff86e9fd4cba63d5d03e36399, type: 2}
    - original: {fileID: 2100000, guid: b5d93a56e0781294fa24746e776db9fc, type: 2}
      substitute: {fileID: 2100000, guid: 33c83dcff86e9fd4cba63d5d03e36399, type: 2}
    - original: {fileID: 2100000, guid: cd47ffc632885ea4ca4fa140140fb188, type: 2}
      substitute: {fileID: 2100000, guid: 4f48026c6b14383429c36586fd9000b7, type: 2}
    - original: {fileID: 2100000, guid: 543e5e5bd5c144d08818d58f54b857af, type: 2}
      substitute: {fileID: 2100000, guid: 16a8143b7e928594cbc6f63ba534eb47, type: 2}
    - original: {fileID: 2100000, guid: 199ca523430bb694889af94c56b70e84, type: 2}
      substitute: {fileID: 2100000, guid: a1ab51fa2bc81804aa84974dac25448e, type: 2}
    - original: {fileID: 2100000, guid: fbda64e882f89be49a4cb989936ab855, type: 2}
      substitute: {fileID: 2100000, guid: 2ca0570a7f9f24a449319fd1fd1f087e, type: 2}
    - original: {fileID: 2100000, guid: ff5deadc72e89664aa4edd84130f77bb, type: 2}
      substitute: {fileID: 2100000, guid: 984556a7f12cc5a4cb0ab6896607b82d, type: 2}
    - original: {fileID: 2100000, guid: da7a7ab04a9f9344387dc19f5fc66356, type: 2}
      substitute: {fileID: 2100000, guid: 46e9b04649587d5429fa23368460a6d2, type: 2}
    - original: {fileID: 2100000, guid: d444875e86eeaa74cbec67f412cb21ed, type: 2}
      substitute: {fileID: 2100000, guid: c5f2dc4a5ed48d848b750bb3ec64f84c, type: 2}
