%YAML 1.1
%TAG !u! tag:unity3d.com,2011:
--- !u!74 &7400000
AnimationClip:
  m_ObjectHideFlags: 0
  m_PrefabParentObject: {fileID: 0}
  m_PrefabInternal: {fileID: 0}
  m_Name: Car Mover Route 2-2-3 Pass Intersection
  serializedVersion: 6
  m_Legacy: 0
  m_Compressed: 0
  m_UseHighQualityCurve: 1
  m_RotationCurves:
  - curve:
      serializedVersion: 2
      m_Curve:
      - time: 0
        value: {x: 0, y: 1, z: 0, w: -1.62920685e-07}
        inSlope: {x: 0, y: -1.78813916e-05, z: 0, w: -.0475144312}
        outSlope: {x: 0, y: -1.78813916e-05, z: 0, w: -.0475144312}
        tangentMode: 0
      - time: .0166666675
        value: {x: 0, y: .999999702, z: 0, w: -.000792070176}
        inSlope: {x: 0, y: -2.86102259e-05, z: 0, w: -.0417530388}
        outSlope: {x: 0, y: -2.86102259e-05, z: 0, w: -.0417530388}
        tangentMode: 0
      - time: .0333333351
        value: {x: 0, y: .999999046, z: 0, w: -.00139193097}
        inSlope: {x: 0, y: -4.11271976e-05, z: 0, w: -.030705899}
        outSlope: {x: 0, y: -4.11271976e-05, z: 0, w: -.030705899}
        tangentMode: 0
      - time: .0500000045
        value: {x: 0, y: .999998331, z: 0, w: -.0018156002}
        inSlope: {x: 0, y: -3.57627832e-05, z: 0, w: -.0205957517}
        outSlope: {x: 0, y: -3.57627832e-05, z: 0, w: -.0205957517}
        tangentMode: 0
      - time: .0666666701
        value: {x: 0, y: .999997854, z: 0, w: -.00207845611}
        inSlope: {x: 0, y: -2.14576739e-05, z: 0, w: -.0114190346}
        outSlope: {x: 0, y: -2.14576739e-05, z: 0, w: -.0114190346}
        tangentMode: 0
      - time: .0833333358
        value: {x: 0, y: .999997616, z: 0, w: -.00219623465}
        inSlope: {x: 0, y: -7.15255783e-06, z: 0, w: -.00317215244}
        outSlope: {x: 0, y: -7.15255783e-06, z: 0, w: -.00317215244}
        tangentMode: 0
      - time: .100000001
        value: {x: 0, y: .999997616, z: 0, w: -.00218419451}
        inSlope: {x: 0, y: 7.15255783e-06, z: 0, w: .0041413242}
        outSlope: {x: 0, y: 7.15255783e-06, z: 0, w: .0041413242}
        tangentMode: 0
      - time: .116666667
        value: {x: 0, y: .999997854, z: 0, w: -.00205819053}
        inSlope: {x: 0, y: 2.14576667e-05, z: 0, w: .0105178086}
        outSlope: {x: 0, y: 2.14576667e-05, z: 0, w: .0105178086}
        tangentMode: 0
      - time: .13333334
        value: {x: 0, y: .999998331, z: 0, w: -.00183360081}
        inSlope: {x: 0, y: 2.86102259e-05, z: 0, w: .0159644783}
        outSlope: {x: 0, y: 2.86102259e-05, z: 0, w: .0159644783}
        tangentMode: 0
      - time: .150000006
        value: {x: 0, y: .999998808, z: 0, w: -.00152604119}
        inSlope: {x: 0, y: 3.03983725e-05, z: 0, w: .0204777513}
        outSlope: {x: 0, y: 3.03983725e-05, z: 0, w: .0204777513}
        tangentMode: 0
      - time: .166666672
        value: {x: 0, y: .999999344, z: 0, w: -.00115100911}
        inSlope: {x: 0, y: 2.86102331e-05, z: 0, w: .0240540337}
        outSlope: {x: 0, y: 2.86102331e-05, z: 0, w: .0240540337}
        tangentMode: 0
      - time: .183333337
        value: {x: 0, y: .999999762, z: 0, w: -.00072424009}
        inSlope: {x: 0, y: 1.78813953e-05, z: 0, w: .0266969129}
        outSlope: {x: 0, y: 1.78813953e-05, z: 0, w: .0266969129}
        tangentMode: 0
      - time: .200000003
        value: {x: 0, y: .99999994, z: 0, w: -.000261112058}
        inSlope: {x: 0, y: 7.15255783e-06, z: 0, w: .0284099579}
        outSlope: {x: 0, y: 7.15255783e-06, z: 0, w: .0284099579}
        tangentMode: 0
      - time: .216666669
        value: {x: 0, y: 1, z: 0, w: .000222758448}
        inSlope: {x: 0, y: -5.36441848e-06, z: 0, w: .0291860104}
        outSlope: {x: 0, y: -5.36441848e-06, z: 0, w: .0291860104}
        tangentMode: 0
      - time: .233333334
        value: {x: 0, y: .999999762, z: 0, w: .000711754896}
        inSlope: {x: 0, y: -2.14576739e-05, z: 0, w: .0290286466}
        outSlope: {x: 0, y: -2.14576739e-05, z: 0, w: .0290286466}
        tangentMode: 0
      - time: .25
        value: {x: 0, y: .999999285, z: 0, w: .00119037996}
        inSlope: {x: 0, y: -3.3974633e-05, z: 0, w: .0279414337}
        outSlope: {x: 0, y: -3.3974633e-05, z: 0, w: .0279414337}
        tangentMode: 0
      - time: .266666681
        value: {x: 0, y: .999998629, z: 0, w: .00164313638}
        inSlope: {x: 0, y: -4.11271685e-05, z: 0, w: .0259243883}
        outSlope: {x: 0, y: -4.11271685e-05, z: 0, w: .0259243883}
        tangentMode: 0
      - time: .283333361
        value: {x: 0, y: .999997914, z: 0, w: .00205452694}
        inSlope: {x: 0, y: -4.64915865e-05, z: 0, w: .0229667928}
        outSlope: {x: 0, y: -4.64915865e-05, z: 0, w: .0229667928}
        tangentMode: 0
      - time: .300000042
        value: {x: 0, y: .999997079, z: 0, w: .0024086968}
        inSlope: {x: 0, y: -4.64915865e-05, z: 0, w: .0190722216}
        outSlope: {x: 0, y: -4.64915865e-05, z: 0, w: .0190722216}
        tangentMode: 0
      - time: .316666722
        value: {x: 0, y: .999996364, z: 0, w: .00269026821}
        inSlope: {x: 0, y: -3.75508971e-05, z: 0, w: .0142514091}
        outSlope: {x: 0, y: -3.75508971e-05, z: 0, w: .0142514091}
        tangentMode: 0
      - time: .333333403
        value: {x: 0, y: .999995828, z: 0, w: .00288374419}
        inSlope: {x: 0, y: -2.32457933e-05, z: 0, w: .00849719625}
        outSlope: {x: 0, y: -2.32457933e-05, z: 0, w: .00849719625}
        tangentMode: 0
      - time: .350000083
        value: {x: 0, y: .999995589, z: 0, w: .00297350832}
        inSlope: {x: 0, y: -5.36441348e-06, z: 0, w: .00180601212}
        outSlope: {x: 0, y: -5.36441348e-06, z: 0, w: .00180601212}
        tangentMode: 0
      - time: .366666764
        value: {x: 0, y: .999995649, z: 0, w: .00294394465}
        inSlope: {x: 0, y: 1.60932414e-05, z: 0, w: -.00581499608}
        outSlope: {x: 0, y: 1.60932414e-05, z: 0, w: -.00581499608}
        tangentMode: 0
      - time: .383333445
        value: {x: 0, y: .999996126, z: 0, w: .00277967495}
        inSlope: {x: 0, y: 3.93390328e-05, z: 0, w: -.0143729961}
        outSlope: {x: 0, y: 3.93390328e-05, z: 0, w: -.0143729961}
        tangentMode: 0
      - time: .400000125
        value: {x: 0, y: .99999696, z: 0, w: .00246484438}
        inSlope: {x: 0, y: 5.72204153e-05, z: 0, w: -.0238644183}
        outSlope: {x: 0, y: 5.72204153e-05, z: 0, w: -.0238644183}
        tangentMode: 0
      - time: .416666806
        value: {x: 0, y: .999998033, z: 0, w: .00198419369}
        inSlope: {x: 0, y: 6.43729654e-05, z: 0, w: -.0342856944}
        outSlope: {x: 0, y: 6.43729654e-05, z: 0, w: -.0342856944}
        tangentMode: 0
      - time: .433333486
        value: {x: 0, y: .999999106, z: 0, w: .0013219869}
        inSlope: {x: 0, y: 5.5432276e-05, z: 0, w: -.0456439704}
        outSlope: {x: 0, y: 5.5432276e-05, z: 0, w: -.0456439704}
        tangentMode: 0
      - time: .450000167
        value: {x: 0, y: .999999881, z: 0, w: .000462726748}
        inSlope: {x: 0, y: 2.14576539e-05, z: 0, w: -.0579356551}
        outSlope: {x: 0, y: 2.14576539e-05, z: 0, w: -.0579356551}
        tangentMode: 0
      - time: .466666847
        value: {x: 0, y: .999999821, z: 0, w: -.000609203125}
        inSlope: {x: 0, y: -5.18560009e-05, z: 0, w: -.0711607039}
        outSlope: {x: 0, y: -5.18560009e-05, z: 0, w: -.0711607039}
        tangentMode: 0
      - time: .483333528
        value: {x: 0, y: .999998152, z: 0, w: -.00190929859}
        inSlope: {x: 0, y: -.000173449589, z: 0, w: -.0853119344}
        outSlope: {x: 0, y: -.000173449589, z: 0, w: -.0853119344}
        tangentMode: 0
      - time: .500000179
        value: {x: 0, y: .99999404, z: 0, w: -.00345293386}
        inSlope: {x: 0, y: -.000359416357, z: 0, w: -.100399852}
        outSlope: {x: 0, y: -.000359416357, z: 0, w: -.100399852}
        tangentMode: 0
      - time: .51666683
        value: {x: 0, y: .999986172, z: 0, w: -.00525595713}
        inSlope: {x: 0, y: -.000627637492, z: 0, w: -.116427675}
        outSlope: {x: 0, y: -.000627637492, z: 0, w: -.116427675}
        tangentMode: 0
      - time: .53333348
        value: {x: 0, y: .999973118, z: 0, w: -.00733385282}
        inSlope: {x: 0, y: -.000997782685, z: 0, w: -.133387893}
        outSlope: {x: 0, y: -.000997782685, z: 0, w: -.133387893}
        tangentMode: 0
      - time: .550000131
        value: {x: 0, y: .999952912, z: 0, w: -.0097022159}
        inSlope: {x: 0, y: -.00149130961, z: 0, w: -.15127638}
        outSlope: {x: 0, y: -.00149130961, z: 0, w: -.15127638}
        tangentMode: 0
      - time: .566666782
        value: {x: 0, y: .999923408, z: 0, w: -.0123763941}
        inSlope: {x: 0, y: -.00213146419, z: 0, w: -.170088708}
        outSlope: {x: 0, y: -.00213146419, z: 0, w: -.170088708}
        tangentMode: 0
      - time: .583333433
        value: {x: 0, y: .999881864, z: 0, w: -.0153718339}
        inSlope: {x: 0, y: -.00295043271, z: 0, w: -.189837992}
        outSlope: {x: 0, y: -.00295043271, z: 0, w: -.189837992}
        tangentMode: 0
      - time: .600000083
        value: {x: 0, y: .99982506, z: 0, w: -.0187043212}
        inSlope: {x: 0, y: -.00397682562, z: 0, w: -.210519224}
        outSlope: {x: 0, y: -.00397682562, z: 0, w: -.210519224}
        tangentMode: 0
      - time: .616666734
        value: {x: 0, y: .999749303, z: 0, w: -.0223891344}
        inSlope: {x: 0, y: -.00524104107, z: 0, w: -.232116073}
        outSlope: {x: 0, y: -.00524104107, z: 0, w: -.232116073}
        tangentMode: 0
      - time: .633333385
        value: {x: 0, y: .999650359, z: 0, w: -.0264415164}
        inSlope: {x: 0, y: -.00678420719, z: 0, w: -.254640281}
        outSlope: {x: 0, y: -.00678420719, z: 0, w: -.254640281}
        tangentMode: 0
      - time: .650000036
        value: {x: 0, y: .999523163, z: 0, w: -.0308771357}
        inSlope: {x: 0, y: -.00864566211, z: 0, w: -.278092206}
        outSlope: {x: 0, y: -.00864566211, z: 0, w: -.278092206}
        tangentMode: 0
      - time: .666666687
        value: {x: 0, y: .999362171, z: 0, w: -.0357112475}
        inSlope: {x: 0, y: -.0109398477, z: 0, w: -.304154307}
        outSlope: {x: 0, y: -.0109398477, z: 0, w: -.304154307}
        tangentMode: 0
      - time: .683333337
        value: {x: 0, y: .999158502, z: 0, w: -.0410156026}
        inSlope: {x: 0, y: -.0138133895, z: 0, w: -.334288508}
        outSlope: {x: 0, y: -.0138133895, z: 0, w: -.334288508}
        tangentMode: 0
      - time: .699999988
        value: {x: 0, y: .998901725, z: 0, w: -.0468541868}
        inSlope: {x: 0, y: -.0172877479, z: 0, w: -.366459489}
        outSlope: {x: 0, y: -.0172877479, z: 0, w: -.366459489}
        tangentMode: 0
      - time: .716666639
        value: {x: 0, y: .998582244, z: 0, w: -.0532309078}
        inSlope: {x: 0, y: -.0213700738, z: 0, w: -.398842067}
        outSlope: {x: 0, y: -.0213700738, z: 0, w: -.398842067}
        tangentMode: 0
      - time: .73333329
        value: {x: 0, y: .99818939, z: 0, w: -.0601489097}
        inSlope: {x: 0, y: -.0261158012, z: 0, w: -.431425333}
        outSlope: {x: 0, y: -.0261158012, z: 0, w: -.431425333}
        tangentMode: 0
      - time: .74999994
        value: {x: 0, y: .997711718, z: 0, w: -.067611739}
        inSlope: {x: 0, y: -.0315857232, z: 0, w: -.464199841}
        outSlope: {x: 0, y: -.0315857232, z: 0, w: -.464199841}
        tangentMode: 0
      - time: .766666591
        value: {x: 0, y: .997136533, z: 0, w: -.0756222233}
        inSlope: {x: 0, y: -.0378442183, z: 0, w: -.497153938}
        outSlope: {x: 0, y: -.0378442183, z: 0, w: -.497153938}
        tangentMode: 0
      - time: .783333242
        value: {x: 0, y: .996450245, z: 0, w: -.0841835216}
        inSlope: {x: 0, y: -.0449485034, z: 0, w: -.530263603}
        outSlope: {x: 0, y: -.0449485034, z: 0, w: -.530263603}
        tangentMode: 0
      - time: .799999893
        value: {x: 0, y: .995638251, z: 0, w: -.0932976604}
        inSlope: {x: 0, y: -.0529647395, z: 0, w: -.563508272}
        outSlope: {x: 0, y: -.0529647395, z: 0, w: -.563508272}
        tangentMode: 0
      - time: .816666543
        value: {x: 0, y: .994684756, z: 0, w: -.102967113}
        inSlope: {x: 0, y: -.0619590878, z: 0, w: -.596875668}
        outSlope: {x: 0, y: -.0619590878, z: 0, w: -.596875668}
        tangentMode: 0
      - time: .833333194
        value: {x: 0, y: .99357295, z: 0, w: -.113193497}
        inSlope: {x: 0, y: -.0719941407, z: 0, w: -.630326211}
        outSlope: {x: 0, y: -.0719941407, z: 0, w: -.630326211}
        tangentMode: 0
      - time: .849999845
        value: {x: 0, y: .992284954, z: 0, w: -.123977967}
        inSlope: {x: 0, y: -.0831342489, z: 0, w: -.663829923}
        outSlope: {x: 0, y: -.0831342489, z: 0, w: -.663829923}
        tangentMode: 0
      - time: .866666496
        value: {x: 0, y: .990801811, z: 0, w: -.13532114}
        inSlope: {x: 0, y: -.0954509676, z: 0, w: -.697365403}
        outSlope: {x: 0, y: -.0954509676, z: 0, w: -.697365403}
        tangentMode: 0
      - time: .883333147
        value: {x: 0, y: .989103258, z: 0, w: -.147223458}
        inSlope: {x: 0, y: -.109010443, z: 0, w: -.73089993}
        outSlope: {x: 0, y: -.109010443, z: 0, w: -.73089993}
        tangentMode: 0
      - time: .899999797
        value: {x: 0, y: .987168133, z: 0, w: -.159684449}
        inSlope: {x: 0, y: -.123878837, z: 0, w: -.764381528}
        outSlope: {x: 0, y: -.123878837, z: 0, w: -.764381528}
        tangentMode: 0
      - time: .916666448
        value: {x: 0, y: .984973967, z: 0, w: -.172702819}
        inSlope: {x: 0, y: -.140658751, z: 0, w: -.800583839}
        outSlope: {x: 0, y: -.140658751, z: 0, w: -.800583839}
        tangentMode: 0
      - time: .933333099
        value: {x: 0, y: .982479513, z: 0, w: -.186370552}
        inSlope: {x: 0, y: -.159915239, z: 0, w: -.841276109}
        outSlope: {x: 0, y: -.159915239, z: 0, w: -.841276109}
        tangentMode: 0
      - time: .94999975
        value: {x: 0, y: .979643464, z: 0, w: -.200745329}
        inSlope: {x: 0, y: -.181076109, z: 0, w: -.882061362}
        outSlope: {x: 0, y: -.181076109, z: 0, w: -.882061362}
        tangentMode: 0
      - time: .9666664
        value: {x: 0, y: .976443648, z: 0, w: -.215772569}
        inSlope: {x: 0, y: -.203524426, z: 0, w: -.919560909}
        outSlope: {x: 0, y: -.203524426, z: 0, w: -.919560909}
        tangentMode: 0
      - time: .983333051
        value: {x: 0, y: .972859323, z: 0, w: -.231397331}
        inSlope: {x: 0, y: -.227161855, z: 0, w: -.953739464}
        outSlope: {x: 0, y: -.227161855, z: 0, w: -.953739464}
        tangentMode: 0
      - time: .999999702
        value: {x: 0, y: .968871593, z: 0, w: -.247563854}
        inSlope: {x: 0, y: -.251871705, z: 0, w: -.984554052}
        outSlope: {x: 0, y: -.251871705, z: 0, w: -.984554052}
        tangentMode: 0
      - time: 1.01666641
        value: {x: 0, y: .964463592, z: 0, w: -.264215827}
        inSlope: {x: 0, y: -.277522594, z: 0, w: -1.01198363}
        outSlope: {x: 0, y: -.277522594, z: 0, w: -1.01198363}
        tangentMode: 0
      - time: 1.03333306
        value: {x: 0, y: .959620833, z: 0, w: -.28129667}
        inSlope: {x: 0, y: -.303962529, z: 0, w: -1.03601575}
        outSlope: {x: 0, y: -.303962529, z: 0, w: -1.03601575}
        tangentMode: 0
      - time: 1.04999971
        value: {x: 0, y: .954331517, z: 0, w: -.298749655}
        inSlope: {x: 0, y: -.331022441, z: 0, w: -1.05661881}
        outSlope: {x: 0, y: -.331022441, z: 0, w: -1.05661881}
        tangentMode: 0
      - time: 1.06666636
        value: {x: 0, y: .948586762, z: 0, w: -.316517264}
        inSlope: {x: 0, y: -.358531237, z: 0, w: -1.07380295}
        outSlope: {x: 0, y: -.358531237, z: 0, w: -1.07380295}
        tangentMode: 0
      - time: 1.08333302
        value: {x: 0, y: .942380488, z: 0, w: -.334543049}
        inSlope: {x: 0, y: -.386297464, z: 0, w: -1.08757067}
        outSlope: {x: 0, y: -.386297464, z: 0, w: -1.08757067}
        tangentMode: 0
      - time: 1.09999967
        value: {x: 0, y: .935710192, z: 0, w: -.352769583}
        inSlope: {x: 0, y: -.414119184, z: 0, w: -1.09794009}
        outSlope: {x: 0, y: -.414119184, z: 0, w: -1.09794009}
        tangentMode: 0
      - time: 1.11666632
        value: {x: 0, y: .928576529, z: 0, w: -.371141016}
        inSlope: {x: 0, y: -.441796005, z: 0, w: -1.10494876}
        outSlope: {x: 0, y: -.441796005, z: 0, w: -1.10494876}
        tangentMode: 0
      - time: 1.13333297
        value: {x: 0, y: .920983672, z: 0, w: -.389601171}
        inSlope: {x: 0, y: -.469111651, z: 0, w: -1.10861802}
        outSlope: {x: 0, y: -.469111651, z: 0, w: -1.10861802}
        tangentMode: 0
      - time: 1.14999962
        value: {x: 0, y: .912939489, z: 0, w: -.408094913}
        inSlope: {x: 0, y: -.495851517, z: 0, w: -1.10901666}
        outSlope: {x: 0, y: -.495851517, z: 0, w: -1.10901666}
        tangentMode: 0
      - time: 1.16666627
        value: {x: 0, y: .904455304, z: 0, w: -.426568359}
        inSlope: {x: 0, y: -.543205023, z: 0, w: -1.14920521}
        outSlope: {x: 0, y: -.543205023, z: 0, w: -1.14920521}
        tangentMode: 0
      - time: 1.18333292
        value: {x: 0, y: .894832671, z: 0, w: -.446401715}
        inSlope: {x: 0, y: -.630763173, z: 0, w: -1.25985265}
        outSlope: {x: 0, y: -.630763173, z: 0, w: -1.25985265}
        tangentMode: 0
      - time: 1.19999957
        value: {x: 0, y: .883429885, z: 0, w: -.468563408}
        inSlope: {x: 0, y: -.733736873, z: 0, w: -1.37964463}
        outSlope: {x: 0, y: -.733736873, z: 0, w: -1.37964463}
        tangentMode: 0
      - time: 1.21666622
        value: {x: 0, y: .870374799, z: 0, w: -.492389828}
        inSlope: {x: 0, y: -.827555299, z: 0, w: -1.4600842}
        outSlope: {x: 0, y: -.827555299, z: 0, w: -1.4600842}
        tangentMode: 0
      - time: 1.23333287
        value: {x: 0, y: .855844736, z: 0, w: -.517232835}
        inSlope: {x: 0, y: -.908983588, z: 0, w: -1.50239873}
        outSlope: {x: 0, y: -.908983588, z: 0, w: -1.50239873}
        tangentMode: 0
      - time: 1.24999952
        value: {x: 0, y: .840075374, z: 0, w: -.54246974}
        inSlope: {x: 0, y: -.974349141, z: 0, w: -1.50831842}
        outSlope: {x: 0, y: -.974349141, z: 0, w: -1.50831842}
        tangentMode: 0
      - time: 1.26666617
        value: {x: 0, y: .823366463, z: 0, w: -.567510068}
        inSlope: {x: 0, y: -1.01979291, z: 0, w: -1.48001218}
        outSlope: {x: 0, y: -1.01979291, z: 0, w: -1.48001218}
        tangentMode: 0
      - time: 1.28333282
        value: {x: 0, y: .806082308, z: 0, w: -.591803432}
        inSlope: {x: 0, y: -1.04152417, z: 0, w: -1.42000937}
        outSlope: {x: 0, y: -1.04152417, z: 0, w: -1.42000937}
        tangentMode: 0
      - time: 1.29999948
        value: {x: 0, y: .788649023, z: 0, w: -.614843667}
        inSlope: {x: 0, y: -1.03602743, z: 0, w: -1.33102775}
        outSlope: {x: 0, y: -1.03602743, z: 0, w: -1.33102775}
        tangentMode: 0
      - time: 1.31666613
        value: {x: 0, y: .771548092, z: 0, w: -.636170983}
        inSlope: {x: 0, y: -1.00025213, z: 0, w: -1.21581602}
        outSlope: {x: 0, y: -1.00025213, z: 0, w: -1.21581602}
        tangentMode: 0
      - time: 1.33333278
        value: {x: 0, y: .755307317, z: 0, w: -.655370831}
        inSlope: {x: 0, y: -.931775272, z: 0, w: -1.07692766}
        outSlope: {x: 0, y: -.931775272, z: 0, w: -1.07692766}
        tangentMode: 0
      - time: 1.34999943
        value: {x: 0, y: .740488946, z: 0, w: -.672068536}
        inSlope: {x: 0, y: -.828910649, z: 0, w: -.916474104}
        outSlope: {x: 0, y: -.828910649, z: 0, w: -.916474104}
        tangentMode: 0
      - time: 1.36666608
        value: {x: 0, y: .727676988, z: 0, w: -.68591994}
        inSlope: {x: 0, y: -.690835774, z: 0, w: -.735900521}
        outSlope: {x: 0, y: -.690835774, z: 0, w: -.735900521}
        tangentMode: 0
      - time: 1.38333273
        value: {x: 0, y: .717461109, z: 0, w: -.69659853}
        inSlope: {x: 0, y: -.517690063, z: 0, w: -.53572166}
        outSlope: {x: 0, y: -.517690063, z: 0, w: -.53572166}
        tangentMode: 0
      - time: 1.39999938
        value: {x: 0, y: .710420668, z: 0, w: -.703777313}
        inSlope: {x: 0, y: -.310635865, z: 0, w: -.315252841}
        outSlope: {x: 0, y: -.310635865, z: 0, w: -.315252841}
        tangentMode: 0
      - time: 1.41666603
        value: {x: 0, y: .70710659, z: 0, w: -.707106948}
        inSlope: {x: 0, y: -.0994224325, z: 0, w: -.0998891369}
        outSlope: {x: 0, y: -.0994224325, z: 0, w: -.0998891369}
        tangentMode: 0
      - time: 1.43333268
        value: {x: 0, y: .70710659, z: 0, w: -.707106948}
        inSlope: {x: 0, y: 0, z: 0, w: 0}
        outSlope: {x: 0, y: 0, z: 0, w: 0}
        tangentMode: 0
      - time: 1.44999933
        value: {x: 0, y: .70710659, z: 0, w: -.707106948}
        inSlope: {x: 0, y: 0, z: 0, w: 0}
        outSlope: {x: 0, y: 0, z: 0, w: 0}
        tangentMode: 0
      - time: 1.46666598
        value: {x: 0, y: .70710659, z: 0, w: -.707106948}
        inSlope: {x: 0, y: 0, z: 0, w: 0}
        outSlope: {x: 0, y: 0, z: 0, w: 0}
        tangentMode: 0
      - time: 1.48333263
        value: {x: 0, y: .70710659, z: 0, w: -.707106948}
        inSlope: {x: 0, y: 0, z: 0, w: 0}
        outSlope: {x: 0, y: 0, z: 0, w: 0}
        tangentMode: 0
      - time: 1.49999928
        value: {x: 0, y: .70710659, z: 0, w: -.707106948}
        inSlope: {x: 0, y: 0, z: 0, w: 0}
        outSlope: {x: 0, y: 0, z: 0, w: 0}
        tangentMode: 0
      - time: 1.51666594
        value: {x: 0, y: .70710659, z: 0, w: -.707106948}
        inSlope: {x: 0, y: 0, z: 0, w: 0}
        outSlope: {x: 0, y: 0, z: 0, w: 0}
        tangentMode: 0
      - time: 1.53333259
        value: {x: 0, y: .70710659, z: 0, w: -.707106948}
        inSlope: {x: 0, y: 0, z: 0, w: 0}
        outSlope: {x: 0, y: 0, z: 0, w: 0}
        tangentMode: 0
      - time: 1.54999924
        value: {x: 0, y: .70710659, z: 0, w: -.707106948}
        inSlope: {x: 0, y: 0, z: 0, w: 0}
        outSlope: {x: 0, y: 0, z: 0, w: 0}
        tangentMode: 0
      - time: 1.56666589
        value: {x: 0, y: .70710659, z: 0, w: -.707106948}
        inSlope: {x: 0, y: 0, z: 0, w: 0}
        outSlope: {x: 0, y: 0, z: 0, w: 0}
        tangentMode: 0
      - time: 1.58333254
        value: {x: 0, y: .70710659, z: 0, w: -.707106948}
        inSlope: {x: 0, y: 0, z: 0, w: 0}
        outSlope: {x: 0, y: 0, z: 0, w: 0}
        tangentMode: 0
      - time: 1.59999919
        value: {x: 0, y: .70710659, z: 0, w: -.707106948}
        inSlope: {x: 0, y: 0, z: 0, w: 0}
        outSlope: {x: 0, y: 0, z: 0, w: 0}
        tangentMode: 0
      - time: 1.61666584
        value: {x: 0, y: .70710659, z: 0, w: -.707106948}
        inSlope: {x: 0, y: 0, z: 0, w: 0}
        outSlope: {x: 0, y: 0, z: 0, w: 0}
        tangentMode: 0
      - time: 1.63333249
        value: {x: 0, y: .70710659, z: 0, w: -.707106948}
        inSlope: {x: 0, y: 0, z: 0, w: 0}
        outSlope: {x: 0, y: 0, z: 0, w: 0}
        tangentMode: 0
      - time: 1.64999914
        value: {x: 0, y: .70710659, z: 0, w: -.707106948}
        inSlope: {x: 0, y: 0, z: 0, w: 0}
        outSlope: {x: 0, y: 0, z: 0, w: 0}
        tangentMode: 0
      - time: 1.66666579
        value: {x: 0, y: .70710659, z: 0, w: -.707106948}
        inSlope: {x: 0, y: 0, z: 0, w: 0}
        outSlope: {x: 0, y: 0, z: 0, w: 0}
        tangentMode: 0
      - time: 1.68333244
        value: {x: 0, y: .70710659, z: 0, w: -.707106948}
        inSlope: {x: 0, y: 0, z: 0, w: 0}
        outSlope: {x: 0, y: 0, z: 0, w: 0}
        tangentMode: 0
      - time: 1.69999909
        value: {x: 0, y: .70710659, z: 0, w: -.707106948}
        inSlope: {x: 0, y: 0, z: 0, w: 0}
        outSlope: {x: 0, y: 0, z: 0, w: 0}
        tangentMode: 0
      - time: 1.71666574
        value: {x: 0, y: .70710659, z: 0, w: -.707106948}
        inSlope: {x: 0, y: 0, z: 0, w: 0}
        outSlope: {x: 0, y: 0, z: 0, w: 0}
        tangentMode: 0
      - time: 1.7333324
        value: {x: 0, y: .70710659, z: 0, w: -.707106948}
        inSlope: {x: 0, y: 0, z: 0, w: 0}
        outSlope: {x: 0, y: 0, z: 0, w: 0}
        tangentMode: 0
      - time: 1.74999905
        value: {x: 0, y: .70710659, z: 0, w: -.707106948}
        inSlope: {x: 0, y: 0, z: 0, w: 0}
        outSlope: {x: 0, y: 0, z: 0, w: 0}
        tangentMode: 0
      - time: 1.7666657
        value: {x: 0, y: .70710659, z: 0, w: -.707106948}
        inSlope: {x: 0, y: 0, z: 0, w: 0}
        outSlope: {x: 0, y: 0, z: 0, w: 0}
        tangentMode: 0
      - time: 1.78333235
        value: {x: 0, y: .70710659, z: 0, w: -.707106948}
        inSlope: {x: 0, y: 0, z: 0, w: 0}
        outSlope: {x: 0, y: 0, z: 0, w: 0}
        tangentMode: 0
      - time: 1.799999
        value: {x: 0, y: .70710659, z: 0, w: -.707106948}
        inSlope: {x: 0, y: 0, z: 0, w: 0}
        outSlope: {x: 0, y: 0, z: 0, w: 0}
        tangentMode: 0
      - time: 1.81666565
        value: {x: 0, y: .70710659, z: 0, w: -.707106948}
        inSlope: {x: 0, y: 0, z: 0, w: 0}
        outSlope: {x: 0, y: 0, z: 0, w: 0}
        tangentMode: 0
      - time: 1.8333323
        value: {x: 0, y: .70710659, z: 0, w: -.707106948}
        inSlope: {x: 0, y: 0, z: 0, w: 0}
        outSlope: {x: 0, y: 0, z: 0, w: 0}
        tangentMode: 0
      - time: 1.84999895
        value: {x: 0, y: .70710659, z: 0, w: -.707106948}
        inSlope: {x: 0, y: 0, z: 0, w: 0}
        outSlope: {x: 0, y: 0, z: 0, w: 0}
        tangentMode: 0
      - time: 1.8666656
        value: {x: 0, y: .70710659, z: 0, w: -.707106948}
        inSlope: {x: 0, y: 0, z: 0, w: 0}
        outSlope: {x: 0, y: 0, z: 0, w: 0}
        tangentMode: 0
      - time: 1.88333225
        value: {x: 0, y: .70710659, z: 0, w: -.707106948}
        inSlope: {x: 0, y: 0, z: 0, w: 0}
        outSlope: {x: 0, y: 0, z: 0, w: 0}
        tangentMode: 0
      - time: 1.8999989
        value: {x: 0, y: .70710659, z: 0, w: -.707106948}
        inSlope: {x: 0, y: 0, z: 0, w: 0}
        outSlope: {x: 0, y: 0, z: 0, w: 0}
        tangentMode: 0
      - time: 1.91666555
        value: {x: 0, y: .70710659, z: 0, w: -.707106948}
        inSlope: {x: 0, y: 0, z: 0, w: 0}
        outSlope: {x: 0, y: 0, z: 0, w: 0}
        tangentMode: 0
      - time: 1.9333322
        value: {x: 0, y: .70710659, z: 0, w: -.707106948}
        inSlope: {x: 0, y: 0, z: 0, w: 0}
        outSlope: {x: 0, y: 0, z: 0, w: 0}
        tangentMode: 0
      - time: 1.94999886
        value: {x: 0, y: .70710659, z: 0, w: -.707106948}
        inSlope: {x: 0, y: 0, z: 0, w: 0}
        outSlope: {x: 0, y: 0, z: 0, w: 0}
        tangentMode: 0
      - time: 1.96666551
        value: {x: 0, y: .70710659, z: 0, w: -.707106948}
        inSlope: {x: 0, y: 0, z: 0, w: 0}
        outSlope: {x: 0, y: 0, z: 0, w: 0}
        tangentMode: 0
      - time: 1.98333216
        value: {x: 0, y: .70710659, z: 0, w: -.707106948}
        inSlope: {x: 0, y: 0, z: 0, w: 0}
        outSlope: {x: 0, y: 0, z: 0, w: 0}
        tangentMode: 0
      - time: 1.99999881
        value: {x: 0, y: .70710659, z: 0, w: -.707106948}
        inSlope: {x: 0, y: 0, z: 0, w: 0}
        outSlope: {x: 0, y: 0, z: 0, w: 0}
        tangentMode: 0
      - time: 2.01666546
        value: {x: 0, y: .70710659, z: 0, w: -.707106948}
        inSlope: {x: 0, y: 0, z: 0, w: 0}
        outSlope: {x: 0, y: 0, z: 0, w: 0}
        tangentMode: 0
      - time: 2.03333211
        value: {x: 0, y: .70710659, z: 0, w: -.707106948}
        inSlope: {x: 0, y: 0, z: 0, w: 0}
        outSlope: {x: 0, y: 0, z: 0, w: 0}
        tangentMode: 0
      - time: 2.04999876
        value: {x: 0, y: .70710659, z: 0, w: -.707106948}
        inSlope: {x: 0, y: 0, z: 0, w: 0}
        outSlope: {x: 0, y: 0, z: 0, w: 0}
        tangentMode: 0
      - time: 2.06666541
        value: {x: 0, y: .70710659, z: 0, w: -.707106948}
        inSlope: {x: 0, y: 0, z: 0, w: 0}
        outSlope: {x: 0, y: 0, z: 0, w: 0}
        tangentMode: 0
      - time: 2.08333206
        value: {x: 0, y: .70710659, z: 0, w: -.707106948}
        inSlope: {x: 0, y: 0, z: 0, w: 0}
        outSlope: {x: 0, y: 0, z: 0, w: 0}
        tangentMode: 0
      - time: 2.0999999
        value: {x: 0, y: .70710659, z: 0, w: -.707106948}
        inSlope: {x: 0, y: 0, z: 0, w: 0}
        outSlope: {x: 0, y: 0, z: 0, w: 0}
        tangentMode: 0
      m_PreInfinity: 2
      m_PostInfinity: 2
    path: 
  m_CompressedRotationCurves: []
  m_PositionCurves:
  - curve:
      serializedVersion: 2
      m_Curve:
      - time: 0
        value: {x: .829999983, y: 0, z: .99000001}
        inSlope: {x: 0, y: 0, z: -1.9124999}
        outSlope: {x: 0, y: 0, z: -1.9124999}
        tangentMode: 0
      - time: .666666687
        value: {x: .829999983, y: 0, z: -.284999996}
        inSlope: {x: 0, y: 0, z: -1.9124999}
        outSlope: {x: .0143024372, y: 0, z: -1.31079686}
        tangentMode: 0
      - time: .916666687
        value: {x: .800366044, y: 0, z: -.583336294}
        inSlope: {x: -.459219545, y: 0, z: -.938740373}
        outSlope: {x: -.459219545, y: 0, z: -.938740373}
        tangentMode: 0
      - time: 1.16666663
        value: {x: .600390255, y: 0, z: -.754370153}
        inSlope: {x: -1.12473214, y: 0, z: -.407327503}
        outSlope: {x: -1.12473214, y: 0, z: -.407327503}
        tangentMode: 0
      - time: 1.41666663
        value: {x: .238000005, y: 0, z: -.787}
        inSlope: {x: -1.42989957, y: 0, z: -.00510903029}
        outSlope: {x: -1.42989957, y: 0, z: -.000423134858}
        tangentMode: 0
      - time: 2.0999999
        value: {x: -.725662589, y: 0, z: -.787289143}
        inSlope: {x: -1.41023815, y: 0, z: -.000423134858}
        outSlope: {x: -1.41023815, y: 0, z: -.000423134858}
        tangentMode: 0
      m_PreInfinity: 2
      m_PostInfinity: 2
    path: 
  m_ScaleCurves: []
  m_FloatCurves: []
  m_PPtrCurves: []
  m_SampleRate: 60
  m_WrapMode: 0
  m_Bounds:
    m_Center: {x: 0, y: 0, z: 0}
    m_Extent: {x: 0, y: 0, z: 0}
  m_ClipBindingConstant:
    genericBindings:
    - path: 0
      attribute: 1
      script: {fileID: 0}
      classID: 4
      customType: 0
      isPPtrCurve: 0
    - path: 0
      attribute: 2
      script: {fileID: 0}
      classID: 4
      customType: 0
      isPPtrCurve: 0
    pptrCurveMapping: []
  m_AnimationClipSettings:
    serializedVersion: 2
    m_StartTime: 0
    m_StopTime: 2.0999999
    m_OrientationOffsetY: 0
    m_Level: 0
    m_CycleOffset: 0
    m_LoopTime: 0
    m_LoopBlend: 0
    m_LoopBlendOrientation: 0
    m_LoopBlendPositionY: 0
    m_LoopBlendPositionXZ: 0
    m_KeepOriginalOrientation: 0
    m_KeepOriginalPositionY: 1
    m_KeepOriginalPositionXZ: 0
    m_HeightFromFeet: 0
    m_Mirror: 0
  m_EditorCurves:
  - curve:
      serializedVersion: 2
      m_Curve:
      - time: 0
        value: .829999983
        inSlope: 0
        outSlope: 0
        tangentMode: 10
      - time: .666666687
        value: .829999983
        inSlope: 0
        outSlope: .0143024372
        tangentMode: 5
      - time: .916666687
        value: .800366044
        inSlope: -.459219545
        outSlope: -.459219545
        tangentMode: 10
      - time: 1.16666663
        value: .600390255
        inSlope: -1.12473214
        outSlope: -1.12473214
        tangentMode: 10
      - time: 1.41666663
        value: .238000005
        inSlope: -1.42989957
        outSlope: -1.42989957
        tangentMode: 10
      - time: 2.0999999
        value: -.725662589
        inSlope: -1.41023815
        outSlope: -1.41023815
        tangentMode: 13
      m_PreInfinity: 2
      m_PostInfinity: 2
    attribute: m_LocalPosition.x
    path: 
    classID: 4
    script: {fileID: 0}
  - curve:
      serializedVersion: 2
      m_Curve:
      - time: 0
        value: 0
        inSlope: 0
        outSlope: 0
        tangentMode: 10
      - time: 2.0999999
        value: 0
        inSlope: 0
        outSlope: 0
        tangentMode: 10
      m_PreInfinity: 2
      m_PostInfinity: 2
    attribute: m_LocalPosition.y
    path: 
    classID: 4
    script: {fileID: 0}
  - curve:
      serializedVersion: 2
      m_Curve:
      - time: 0
        value: .99000001
        inSlope: -1.9124999
        outSlope: -1.9124999
        tangentMode: 10
      - time: .666666687
        value: -.284999996
        inSlope: -1.9124999
        outSlope: -1.31079686
        tangentMode: 5
      - time: .916666687
        value: -.583336294
        inSlope: -.938740373
        outSlope: -.938740373
        tangentMode: 10
      - time: 1.16666663
        value: -.754370153
        inSlope: -.407327503
        outSlope: -.407327503
        tangentMode: 10
      - time: 1.41666663
        value: -.787
        inSlope: -.00510903029
        outSlope: -.000423134858
        tangentMode: 17
      - time: 2.0999999
        value: -.787289143
        inSlope: -.000423134858
        outSlope: -.000423134858
        tangentMode: 13
      m_PreInfinity: 2
      m_PostInfinity: 2
    attribute: m_LocalPosition.z
    path: 
    classID: 4
    script: {fileID: 0}
  - curve:
      serializedVersion: 2
      m_Curve:
      - time: 0
        value: 0
        inSlope: 0
        outSlope: 0
        tangentMode: 0
      - time: .0166666675
        value: 0
        inSlope: 0
        outSlope: 0
        tangentMode: 0
      - time: .0333333351
        value: 0
        inSlope: 0
        outSlope: 0
        tangentMode: 0
      - time: .0500000045
        value: 0
        inSlope: 0
        outSlope: 0
        tangentMode: 0
      - time: .0666666701
        value: 0
        inSlope: 0
        outSlope: 0
        tangentMode: 0
      - time: .0833333358
        value: 0
        inSlope: 0
        outSlope: 0
        tangentMode: 0
      - time: .100000001
        value: 0
        inSlope: 0
        outSlope: 0
        tangentMode: 0
      - time: .116666667
        value: 0
        inSlope: 0
        outSlope: 0
        tangentMode: 0
      - time: .13333334
        value: 0
        inSlope: 0
        outSlope: 0
        tangentMode: 0
      - time: .150000006
        value: 0
        inSlope: 0
        outSlope: 0
        tangentMode: 0
      - time: .166666672
        value: 0
        inSlope: 0
        outSlope: 0
        tangentMode: 0
      - time: .183333337
        value: 0
        inSlope: 0
        outSlope: 0
        tangentMode: 0
      - time: .200000003
        value: 0
        inSlope: 0
        outSlope: 0
        tangentMode: 0
      - time: .216666669
        value: 0
        inSlope: 0
        outSlope: 0
        tangentMode: 0
      - time: .233333334
        value: 0
        inSlope: 0
        outSlope: 0
        tangentMode: 0
      - time: .25
        value: 0
        inSlope: 0
        outSlope: 0
        tangentMode: 0
      - time: .266666681
        value: 0
        inSlope: 0
        outSlope: 0
        tangentMode: 0
      - time: .283333361
        value: 0
        inSlope: 0
        outSlope: 0
        tangentMode: 0
      - time: .300000042
        value: 0
        inSlope: 0
        outSlope: 0
        tangentMode: 0
      - time: .316666722
        value: 0
        inSlope: 0
        outSlope: 0
        tangentMode: 0
      - time: .333333403
        value: 0
        inSlope: 0
        outSlope: 0
        tangentMode: 0
      - time: .350000083
        value: 0
        inSlope: 0
        outSlope: 0
        tangentMode: 0
      - time: .366666764
        value: 0
        inSlope: 0
        outSlope: 0
        tangentMode: 0
      - time: .383333445
        value: 0
        inSlope: 0
        outSlope: 0
        tangentMode: 0
      - time: .400000125
        value: 0
        inSlope: 0
        outSlope: 0
        tangentMode: 0
      - time: .416666806
        value: 0
        inSlope: 0
        outSlope: 0
        tangentMode: 0
      - time: .433333486
        value: 0
        inSlope: 0
        outSlope: 0
        tangentMode: 0
      - time: .450000167
        value: 0
        inSlope: 0
        outSlope: 0
        tangentMode: 0
      - time: .466666847
        value: 0
        inSlope: 0
        outSlope: 0
        tangentMode: 0
      - time: .483333528
        value: 0
        inSlope: 0
        outSlope: 0
        tangentMode: 0
      - time: .500000179
        value: 0
        inSlope: 0
        outSlope: 0
        tangentMode: 0
      - time: .51666683
        value: 0
        inSlope: 0
        outSlope: 0
        tangentMode: 0
      - time: .53333348
        value: 0
        inSlope: 0
        outSlope: 0
        tangentMode: 0
      - time: .550000131
        value: 0
        inSlope: 0
        outSlope: 0
        tangentMode: 0
      - time: .566666782
        value: 0
        inSlope: 0
        outSlope: 0
        tangentMode: 0
      - time: .583333433
        value: 0
        inSlope: 0
        outSlope: 0
        tangentMode: 0
      - time: .600000083
        value: 0
        inSlope: 0
        outSlope: 0
        tangentMode: 0
      - time: .616666734
        value: 0
        inSlope: 0
        outSlope: 0
        tangentMode: 0
      - time: .633333385
        value: 0
        inSlope: 0
        outSlope: 0
        tangentMode: 0
      - time: .650000036
        value: 0
        inSlope: 0
        outSlope: 0
        tangentMode: 0
      - time: .666666687
        value: 0
        inSlope: 0
        outSlope: 0
        tangentMode: 0
      - time: .683333337
        value: 0
        inSlope: 0
        outSlope: 0
        tangentMode: 0
      - time: .699999988
        value: 0
        inSlope: 0
        outSlope: 0
        tangentMode: 0
      - time: .716666639
        value: 0
        inSlope: 0
        outSlope: 0
        tangentMode: 0
      - time: .73333329
        value: 0
        inSlope: 0
        outSlope: 0
        tangentMode: 0
      - time: .74999994
        value: 0
        inSlope: 0
        outSlope: 0
        tangentMode: 0
      - time: .766666591
        value: 0
        inSlope: 0
        outSlope: 0
        tangentMode: 0
      - time: .783333242
        value: 0
        inSlope: 0
        outSlope: 0
        tangentMode: 0
      - time: .799999893
        value: 0
        inSlope: 0
        outSlope: 0
        tangentMode: 0
      - time: .816666543
        value: 0
        inSlope: 0
        outSlope: 0
        tangentMode: 0
      - time: .833333194
        value: 0
        inSlope: 0
        outSlope: 0
        tangentMode: 0
      - time: .849999845
        value: 0
        inSlope: 0
        outSlope: 0
        tangentMode: 0
      - time: .866666496
        value: 0
        inSlope: 0
        outSlope: 0
        tangentMode: 0
      - time: .883333147
        value: 0
        inSlope: 0
        outSlope: 0
        tangentMode: 0
      - time: .899999797
        value: 0
        inSlope: 0
        outSlope: 0
        tangentMode: 0
      - time: .916666448
        value: 0
        inSlope: 0
        outSlope: 0
        tangentMode: 0
      - time: .933333099
        value: 0
        inSlope: 0
        outSlope: 0
        tangentMode: 0
      - time: .94999975
        value: 0
        inSlope: 0
        outSlope: 0
        tangentMode: 0
      - time: .9666664
        value: 0
        inSlope: 0
        outSlope: 0
        tangentMode: 0
      - time: .983333051
        value: 0
        inSlope: 0
        outSlope: 0
        tangentMode: 0
      - time: .999999702
        value: 0
        inSlope: 0
        outSlope: 0
        tangentMode: 0
      - time: 1.01666641
        value: 0
        inSlope: 0
        outSlope: 0
        tangentMode: 0
      - time: 1.03333306
        value: 0
        inSlope: 0
        outSlope: 0
        tangentMode: 0
      - time: 1.04999971
        value: 0
        inSlope: 0
        outSlope: 0
        tangentMode: 0
      - time: 1.06666636
        value: 0
        inSlope: 0
        outSlope: 0
        tangentMode: 0
      - time: 1.08333302
        value: 0
        inSlope: 0
        outSlope: 0
        tangentMode: 0
      - time: 1.09999967
        value: 0
        inSlope: 0
        outSlope: 0
        tangentMode: 0
      - time: 1.11666632
        value: 0
        inSlope: 0
        outSlope: 0
        tangentMode: 0
      - time: 1.13333297
        value: 0
        inSlope: 0
        outSlope: 0
        tangentMode: 0
      - time: 1.14999962
        value: 0
        inSlope: 0
        outSlope: 0
        tangentMode: 0
      - time: 1.16666627
        value: 0
        inSlope: 0
        outSlope: 0
        tangentMode: 0
      - time: 1.18333292
        value: 0
        inSlope: 0
        outSlope: 0
        tangentMode: 0
      - time: 1.19999957
        value: 0
        inSlope: 0
        outSlope: 0
        tangentMode: 0
      - time: 1.21666622
        value: 0
        inSlope: 0
        outSlope: 0
        tangentMode: 0
      - time: 1.23333287
        value: 0
        inSlope: 0
        outSlope: 0
        tangentMode: 0
      - time: 1.24999952
        value: 0
        inSlope: 0
        outSlope: 0
        tangentMode: 0
      - time: 1.26666617
        value: 0
        inSlope: 0
        outSlope: 0
        tangentMode: 0
      - time: 1.28333282
        value: 0
        inSlope: 0
        outSlope: 0
        tangentMode: 0
      - time: 1.29999948
        value: 0
        inSlope: 0
        outSlope: 0
        tangentMode: 0
      - time: 1.31666613
        value: 0
        inSlope: 0
        outSlope: 0
        tangentMode: 0
      - time: 1.33333278
        value: 0
        inSlope: 0
        outSlope: 0
        tangentMode: 0
      - time: 1.34999943
        value: 0
        inSlope: 0
        outSlope: 0
        tangentMode: 0
      - time: 1.36666608
        value: 0
        inSlope: 0
        outSlope: 0
        tangentMode: 0
      - time: 1.38333273
        value: 0
        inSlope: 0
        outSlope: 0
        tangentMode: 0
      - time: 1.39999938
        value: 0
        inSlope: 0
        outSlope: 0
        tangentMode: 0
      - time: 1.41666603
        value: 0
        inSlope: 0
        outSlope: 0
        tangentMode: 0
      - time: 1.43333268
        value: 0
        inSlope: 0
        outSlope: 0
        tangentMode: 0
      - time: 1.44999933
        value: 0
        inSlope: 0
        outSlope: 0
        tangentMode: 0
      - time: 1.46666598
        value: 0
        inSlope: 0
        outSlope: 0
        tangentMode: 0
      - time: 1.48333263
        value: 0
        inSlope: 0
        outSlope: 0
        tangentMode: 0
      - time: 1.49999928
        value: 0
        inSlope: 0
        outSlope: 0
        tangentMode: 0
      - time: 1.51666594
        value: 0
        inSlope: 0
        outSlope: 0
        tangentMode: 0
      - time: 1.53333259
        value: 0
        inSlope: 0
        outSlope: 0
        tangentMode: 0
      - time: 1.54999924
        value: 0
        inSlope: 0
        outSlope: 0
        tangentMode: 0
      - time: 1.56666589
        value: 0
        inSlope: 0
        outSlope: 0
        tangentMode: 0
      - time: 1.58333254
        value: 0
        inSlope: 0
        outSlope: 0
        tangentMode: 0
      - time: 1.59999919
        value: 0
        inSlope: 0
        outSlope: 0
        tangentMode: 0
      - time: 1.61666584
        value: 0
        inSlope: 0
        outSlope: 0
        tangentMode: 0
      - time: 1.63333249
        value: 0
        inSlope: 0
        outSlope: 0
        tangentMode: 0
      - time: 1.64999914
        value: 0
        inSlope: 0
        outSlope: 0
        tangentMode: 0
      - time: 1.66666579
        value: 0
        inSlope: 0
        outSlope: 0
        tangentMode: 0
      - time: 1.68333244
        value: 0
        inSlope: 0
        outSlope: 0
        tangentMode: 0
      - time: 1.69999909
        value: 0
        inSlope: 0
        outSlope: 0
        tangentMode: 0
      - time: 1.71666574
        value: 0
        inSlope: 0
        outSlope: 0
        tangentMode: 0
      - time: 1.7333324
        value: 0
        inSlope: 0
        outSlope: 0
        tangentMode: 0
      - time: 1.74999905
        value: 0
        inSlope: 0
        outSlope: 0
        tangentMode: 0
      - time: 1.7666657
        value: 0
        inSlope: 0
        outSlope: 0
        tangentMode: 0
      - time: 1.78333235
        value: 0
        inSlope: 0
        outSlope: 0
        tangentMode: 0
      - time: 1.799999
        value: 0
        inSlope: 0
        outSlope: 0
        tangentMode: 0
      - time: 1.81666565
        value: 0
        inSlope: 0
        outSlope: 0
        tangentMode: 0
      - time: 1.8333323
        value: 0
        inSlope: 0
        outSlope: 0
        tangentMode: 0
      - time: 1.84999895
        value: 0
        inSlope: 0
        outSlope: 0
        tangentMode: 0
      - time: 1.8666656
        value: 0
        inSlope: 0
        outSlope: 0
        tangentMode: 0
      - time: 1.88333225
        value: 0
        inSlope: 0
        outSlope: 0
        tangentMode: 0
      - time: 1.8999989
        value: 0
        inSlope: 0
        outSlope: 0
        tangentMode: 0
      - time: 1.91666555
        value: 0
        inSlope: 0
        outSlope: 0
        tangentMode: 0
      - time: 1.9333322
        value: 0
        inSlope: 0
        outSlope: 0
        tangentMode: 0
      - time: 1.94999886
        value: 0
        inSlope: 0
        outSlope: 0
        tangentMode: 0
      - time: 1.96666551
        value: 0
        inSlope: 0
        outSlope: 0
        tangentMode: 0
      - time: 1.98333216
        value: 0
        inSlope: 0
        outSlope: 0
        tangentMode: 0
      - time: 1.99999881
        value: 0
        inSlope: 0
        outSlope: 0
        tangentMode: 0
      - time: 2.01666546
        value: 0
        inSlope: 0
        outSlope: 0
        tangentMode: 0
      - time: 2.03333211
        value: 0
        inSlope: 0
        outSlope: 0
        tangentMode: 0
      - time: 2.04999876
        value: 0
        inSlope: 0
        outSlope: 0
        tangentMode: 0
      - time: 2.06666541
        value: 0
        inSlope: 0
        outSlope: 0
        tangentMode: 0
      - time: 2.08333206
        value: 0
        inSlope: 0
        outSlope: 0
        tangentMode: 0
      - time: 2.0999999
        value: 0
        inSlope: 0
        outSlope: 0
        tangentMode: 0
      m_PreInfinity: 2
      m_PostInfinity: 2
    attribute: m_LocalRotation.x
    path: 
    classID: 4
    script: {fileID: 0}
  - curve:
      serializedVersion: 2
      m_Curve:
      - time: 0
        value: 1
        inSlope: -1.78813916e-05
        outSlope: -1.78813916e-05
        tangentMode: 0
      - time: .0166666675
        value: .999999702
        inSlope: -2.86102259e-05
        outSlope: -2.86102259e-05
        tangentMode: 0
      - time: .0333333351
        value: .999999046
        inSlope: -4.11271976e-05
        outSlope: -4.11271976e-05
        tangentMode: 0
      - time: .0500000045
        value: .999998331
        inSlope: -3.57627832e-05
        outSlope: -3.57627832e-05
        tangentMode: 0
      - time: .0666666701
        value: .999997854
        inSlope: -2.14576739e-05
        outSlope: -2.14576739e-05
        tangentMode: 0
      - time: .0833333358
        value: .999997616
        inSlope: -7.15255783e-06
        outSlope: -7.15255783e-06
        tangentMode: 0
      - time: .100000001
        value: .999997616
        inSlope: 7.15255783e-06
        outSlope: 7.15255783e-06
        tangentMode: 0
      - time: .116666667
        value: .999997854
        inSlope: 2.14576667e-05
        outSlope: 2.14576667e-05
        tangentMode: 0
      - time: .13333334
        value: .999998331
        inSlope: 2.86102259e-05
        outSlope: 2.86102259e-05
        tangentMode: 0
      - time: .150000006
        value: .999998808
        inSlope: 3.03983725e-05
        outSlope: 3.03983725e-05
        tangentMode: 0
      - time: .166666672
        value: .999999344
        inSlope: 2.86102331e-05
        outSlope: 2.86102331e-05
        tangentMode: 0
      - time: .183333337
        value: .999999762
        inSlope: 1.78813953e-05
        outSlope: 1.78813953e-05
        tangentMode: 0
      - time: .200000003
        value: .99999994
        inSlope: 7.15255783e-06
        outSlope: 7.15255783e-06
        tangentMode: 0
      - time: .216666669
        value: 1
        inSlope: -5.36441848e-06
        outSlope: -5.36441848e-06
        tangentMode: 0
      - time: .233333334
        value: .999999762
        inSlope: -2.14576739e-05
        outSlope: -2.14576739e-05
        tangentMode: 0
      - time: .25
        value: .999999285
        inSlope: -3.3974633e-05
        outSlope: -3.3974633e-05
        tangentMode: 0
      - time: .266666681
        value: .999998629
        inSlope: -4.11271685e-05
        outSlope: -4.11271685e-05
        tangentMode: 0
      - time: .283333361
        value: .999997914
        inSlope: -4.64915865e-05
        outSlope: -4.64915865e-05
        tangentMode: 0
      - time: .300000042
        value: .999997079
        inSlope: -4.64915865e-05
        outSlope: -4.64915865e-05
        tangentMode: 0
      - time: .316666722
        value: .999996364
        inSlope: -3.75508971e-05
        outSlope: -3.75508971e-05
        tangentMode: 0
      - time: .333333403
        value: .999995828
        inSlope: -2.32457933e-05
        outSlope: -2.32457933e-05
        tangentMode: 0
      - time: .350000083
        value: .999995589
        inSlope: -5.36441348e-06
        outSlope: -5.36441348e-06
        tangentMode: 0
      - time: .366666764
        value: .999995649
        inSlope: 1.60932414e-05
        outSlope: 1.60932414e-05
        tangentMode: 0
      - time: .383333445
        value: .999996126
        inSlope: 3.93390328e-05
        outSlope: 3.93390328e-05
        tangentMode: 0
      - time: .400000125
        value: .99999696
        inSlope: 5.72204153e-05
        outSlope: 5.72204153e-05
        tangentMode: 0
      - time: .416666806
        value: .999998033
        inSlope: 6.43729654e-05
        outSlope: 6.43729654e-05
        tangentMode: 0
      - time: .433333486
        value: .999999106
        inSlope: 5.5432276e-05
        outSlope: 5.5432276e-05
        tangentMode: 0
      - time: .450000167
        value: .999999881
        inSlope: 2.14576539e-05
        outSlope: 2.14576539e-05
        tangentMode: 0
      - time: .466666847
        value: .999999821
        inSlope: -5.18560009e-05
        outSlope: -5.18560009e-05
        tangentMode: 0
      - time: .483333528
        value: .999998152
        inSlope: -.000173449589
        outSlope: -.000173449589
        tangentMode: 0
      - time: .500000179
        value: .99999404
        inSlope: -.000359416357
        outSlope: -.000359416357
        tangentMode: 0
      - time: .51666683
        value: .999986172
        inSlope: -.000627637492
        outSlope: -.000627637492
        tangentMode: 0
      - time: .53333348
        value: .999973118
        inSlope: -.000997782685
        outSlope: -.000997782685
        tangentMode: 0
      - time: .550000131
        value: .999952912
        inSlope: -.00149130961
        outSlope: -.00149130961
        tangentMode: 0
      - time: .566666782
        value: .999923408
        inSlope: -.00213146419
        outSlope: -.00213146419
        tangentMode: 0
      - time: .583333433
        value: .999881864
        inSlope: -.00295043271
        outSlope: -.00295043271
        tangentMode: 0
      - time: .600000083
        value: .99982506
        inSlope: -.00397682562
        outSlope: -.00397682562
        tangentMode: 0
      - time: .616666734
        value: .999749303
        inSlope: -.00524104107
        outSlope: -.00524104107
        tangentMode: 0
      - time: .633333385
        value: .999650359
        inSlope: -.00678420719
        outSlope: -.00678420719
        tangentMode: 0
      - time: .650000036
        value: .999523163
        inSlope: -.00864566211
        outSlope: -.00864566211
        tangentMode: 0
      - time: .666666687
        value: .999362171
        inSlope: -.0109398477
        outSlope: -.0109398477
        tangentMode: 0
      - time: .683333337
        value: .999158502
        inSlope: -.0138133895
        outSlope: -.0138133895
        tangentMode: 0
      - time: .699999988
        value: .998901725
        inSlope: -.0172877479
        outSlope: -.0172877479
        tangentMode: 0
      - time: .716666639
        value: .998582244
        inSlope: -.0213700738
        outSlope: -.0213700738
        tangentMode: 0
      - time: .73333329
        value: .99818939
        inSlope: -.0261158012
        outSlope: -.0261158012
        tangentMode: 0
      - time: .74999994
        value: .997711718
        inSlope: -.0315857232
        outSlope: -.0315857232
        tangentMode: 0
      - time: .766666591
        value: .997136533
        inSlope: -.0378442183
        outSlope: -.0378442183
        tangentMode: 0
      - time: .783333242
        value: .996450245
        inSlope: -.0449485034
        outSlope: -.0449485034
        tangentMode: 0
      - time: .799999893
        value: .995638251
        inSlope: -.0529647395
        outSlope: -.0529647395
        tangentMode: 0
      - time: .816666543
        value: .994684756
        inSlope: -.0619590878
        outSlope: -.0619590878
        tangentMode: 0
      - time: .833333194
        value: .99357295
        inSlope: -.0719941407
        outSlope: -.0719941407
        tangentMode: 0
      - time: .849999845
        value: .992284954
        inSlope: -.0831342489
        outSlope: -.0831342489
        tangentMode: 0
      - time: .866666496
        value: .990801811
        inSlope: -.0954509676
        outSlope: -.0954509676
        tangentMode: 0
      - time: .883333147
        value: .989103258
        inSlope: -.109010443
        outSlope: -.109010443
        tangentMode: 0
      - time: .899999797
        value: .987168133
        inSlope: -.123878837
        outSlope: -.123878837
        tangentMode: 0
      - time: .916666448
        value: .984973967
        inSlope: -.140658751
        outSlope: -.140658751
        tangentMode: 0
      - time: .933333099
        value: .982479513
        inSlope: -.159915239
        outSlope: -.159915239
        tangentMode: 0
      - time: .94999975
        value: .979643464
        inSlope: -.181076109
        outSlope: -.181076109
        tangentMode: 0
      - time: .9666664
        value: .976443648
        inSlope: -.203524426
        outSlope: -.203524426
        tangentMode: 0
      - time: .983333051
        value: .972859323
        inSlope: -.227161855
        outSlope: -.227161855
        tangentMode: 0
      - time: .999999702
        value: .968871593
        inSlope: -.251871705
        outSlope: -.251871705
        tangentMode: 0
      - time: 1.01666641
        value: .964463592
        inSlope: -.277522594
        outSlope: -.277522594
        tangentMode: 0
      - time: 1.03333306
        value: .959620833
        inSlope: -.303962529
        outSlope: -.303962529
        tangentMode: 0
      - time: 1.04999971
        value: .954331517
        inSlope: -.331022441
        outSlope: -.331022441
        tangentMode: 0
      - time: 1.06666636
        value: .948586762
        inSlope: -.358531237
        outSlope: -.358531237
        tangentMode: 0
      - time: 1.08333302
        value: .942380488
        inSlope: -.386297464
        outSlope: -.386297464
        tangentMode: 0
      - time: 1.09999967
        value: .935710192
        inSlope: -.414119184
        outSlope: -.414119184
        tangentMode: 0
      - time: 1.11666632
        value: .928576529
        inSlope: -.441796005
        outSlope: -.441796005
        tangentMode: 0
      - time: 1.13333297
        value: .920983672
        inSlope: -.469111651
        outSlope: -.469111651
        tangentMode: 0
      - time: 1.14999962
        value: .912939489
        inSlope: -.495851517
        outSlope: -.495851517
        tangentMode: 0
      - time: 1.16666627
        value: .904455304
        inSlope: -.543205023
        outSlope: -.543205023
        tangentMode: 0
      - time: 1.18333292
        value: .894832671
        inSlope: -.630763173
        outSlope: -.630763173
        tangentMode: 0
      - time: 1.19999957
        value: .883429885
        inSlope: -.733736873
        outSlope: -.733736873
        tangentMode: 0
      - time: 1.21666622
        value: .870374799
        inSlope: -.827555299
        outSlope: -.827555299
        tangentMode: 0
      - time: 1.23333287
        value: .855844736
        inSlope: -.908983588
        outSlope: -.908983588
        tangentMode: 0
      - time: 1.24999952
        value: .840075374
        inSlope: -.974349141
        outSlope: -.974349141
        tangentMode: 0
      - time: 1.26666617
        value: .823366463
        inSlope: -1.01979291
        outSlope: -1.01979291
        tangentMode: 0
      - time: 1.28333282
        value: .806082308
        inSlope: -1.04152417
        outSlope: -1.04152417
        tangentMode: 0
      - time: 1.29999948
        value: .788649023
        inSlope: -1.03602743
        outSlope: -1.03602743
        tangentMode: 0
      - time: 1.31666613
        value: .771548092
        inSlope: -1.00025213
        outSlope: -1.00025213
        tangentMode: 0
      - time: 1.33333278
        value: .755307317
        inSlope: -.931775272
        outSlope: -.931775272
        tangentMode: 0
      - time: 1.34999943
        value: .740488946
        inSlope: -.828910649
        outSlope: -.828910649
        tangentMode: 0
      - time: 1.36666608
        value: .727676988
        inSlope: -.690835774
        outSlope: -.690835774
        tangentMode: 0
      - time: 1.38333273
        value: .717461109
        inSlope: -.517690063
        outSlope: -.517690063
        tangentMode: 0
      - time: 1.39999938
        value: .710420668
        inSlope: -.310635865
        outSlope: -.310635865
        tangentMode: 0
      - time: 1.41666603
        value: .70710659
        inSlope: -.0994224325
        outSlope: -.0994224325
        tangentMode: 0
      - time: 1.43333268
        value: .70710659
        inSlope: 0
        outSlope: 0
        tangentMode: 0
      - time: 1.44999933
        value: .70710659
        inSlope: 0
        outSlope: 0
        tangentMode: 0
      - time: 1.46666598
        value: .70710659
        inSlope: 0
        outSlope: 0
        tangentMode: 0
      - time: 1.48333263
        value: .70710659
        inSlope: 0
        outSlope: 0
        tangentMode: 0
      - time: 1.49999928
        value: .70710659
        inSlope: 0
        outSlope: 0
        tangentMode: 0
      - time: 1.51666594
        value: .70710659
        inSlope: 0
        outSlope: 0
        tangentMode: 0
      - time: 1.53333259
        value: .70710659
        inSlope: 0
        outSlope: 0
        tangentMode: 0
      - time: 1.54999924
        value: .70710659
        inSlope: 0
        outSlope: 0
        tangentMode: 0
      - time: 1.56666589
        value: .70710659
        inSlope: 0
        outSlope: 0
        tangentMode: 0
      - time: 1.58333254
        value: .70710659
        inSlope: 0
        outSlope: 0
        tangentMode: 0
      - time: 1.59999919
        value: .70710659
        inSlope: 0
        outSlope: 0
        tangentMode: 0
      - time: 1.61666584
        value: .70710659
        inSlope: 0
        outSlope: 0
        tangentMode: 0
      - time: 1.63333249
        value: .70710659
        inSlope: 0
        outSlope: 0
        tangentMode: 0
      - time: 1.64999914
        value: .70710659
        inSlope: 0
        outSlope: 0
        tangentMode: 0
      - time: 1.66666579
        value: .70710659
        inSlope: 0
        outSlope: 0
        tangentMode: 0
      - time: 1.68333244
        value: .70710659
        inSlope: 0
        outSlope: 0
        tangentMode: 0
      - time: 1.69999909
        value: .70710659
        inSlope: 0
        outSlope: 0
        tangentMode: 0
      - time: 1.71666574
        value: .70710659
        inSlope: 0
        outSlope: 0
        tangentMode: 0
      - time: 1.7333324
        value: .70710659
        inSlope: 0
        outSlope: 0
        tangentMode: 0
      - time: 1.74999905
        value: .70710659
        inSlope: 0
        outSlope: 0
        tangentMode: 0
      - time: 1.7666657
        value: .70710659
        inSlope: 0
        outSlope: 0
        tangentMode: 0
      - time: 1.78333235
        value: .70710659
        inSlope: 0
        outSlope: 0
        tangentMode: 0
      - time: 1.799999
        value: .70710659
        inSlope: 0
        outSlope: 0
        tangentMode: 0
      - time: 1.81666565
        value: .70710659
        inSlope: 0
        outSlope: 0
        tangentMode: 0
      - time: 1.8333323
        value: .70710659
        inSlope: 0
        outSlope: 0
        tangentMode: 0
      - time: 1.84999895
        value: .70710659
        inSlope: 0
        outSlope: 0
        tangentMode: 0
      - time: 1.8666656
        value: .70710659
        inSlope: 0
        outSlope: 0
        tangentMode: 0
      - time: 1.88333225
        value: .70710659
        inSlope: 0
        outSlope: 0
        tangentMode: 0
      - time: 1.8999989
        value: .70710659
        inSlope: 0
        outSlope: 0
        tangentMode: 0
      - time: 1.91666555
        value: .70710659
        inSlope: 0
        outSlope: 0
        tangentMode: 0
      - time: 1.9333322
        value: .70710659
        inSlope: 0
        outSlope: 0
        tangentMode: 0
      - time: 1.94999886
        value: .70710659
        inSlope: 0
        outSlope: 0
        tangentMode: 0
      - time: 1.96666551
        value: .70710659
        inSlope: 0
        outSlope: 0
        tangentMode: 0
      - time: 1.98333216
        value: .70710659
        inSlope: 0
        outSlope: 0
        tangentMode: 0
      - time: 1.99999881
        value: .70710659
        inSlope: 0
        outSlope: 0
        tangentMode: 0
      - time: 2.01666546
        value: .70710659
        inSlope: 0
        outSlope: 0
        tangentMode: 0
      - time: 2.03333211
        value: .70710659
        inSlope: 0
        outSlope: 0
        tangentMode: 0
      - time: 2.04999876
        value: .70710659
        inSlope: 0
        outSlope: 0
        tangentMode: 0
      - time: 2.06666541
        value: .70710659
        inSlope: 0
        outSlope: 0
        tangentMode: 0
      - time: 2.08333206
        value: .70710659
        inSlope: 0
        outSlope: 0
        tangentMode: 0
      - time: 2.0999999
        value: .70710659
        inSlope: 0
        outSlope: 0
        tangentMode: 0
      m_PreInfinity: 2
      m_PostInfinity: 2
    attribute: m_LocalRotation.y
    path: 
    classID: 4
    script: {fileID: 0}
  - curve:
      serializedVersion: 2
      m_Curve:
      - time: 0
        value: 0
        inSlope: 0
        outSlope: 0
        tangentMode: 0
      - time: .0166666675
        value: 0
        inSlope: 0
        outSlope: 0
        tangentMode: 0
      - time: .0333333351
        value: 0
        inSlope: 0
        outSlope: 0
        tangentMode: 0
      - time: .0500000045
        value: 0
        inSlope: 0
        outSlope: 0
        tangentMode: 0
      - time: .0666666701
        value: 0
        inSlope: 0
        outSlope: 0
        tangentMode: 0
      - time: .0833333358
        value: 0
        inSlope: 0
        outSlope: 0
        tangentMode: 0
      - time: .100000001
        value: 0
        inSlope: 0
        outSlope: 0
        tangentMode: 0
      - time: .116666667
        value: 0
        inSlope: 0
        outSlope: 0
        tangentMode: 0
      - time: .13333334
        value: 0
        inSlope: 0
        outSlope: 0
        tangentMode: 0
      - time: .150000006
        value: 0
        inSlope: 0
        outSlope: 0
        tangentMode: 0
      - time: .166666672
        value: 0
        inSlope: 0
        outSlope: 0
        tangentMode: 0
      - time: .183333337
        value: 0
        inSlope: 0
        outSlope: 0
        tangentMode: 0
      - time: .200000003
        value: 0
        inSlope: 0
        outSlope: 0
        tangentMode: 0
      - time: .216666669
        value: 0
        inSlope: 0
        outSlope: 0
        tangentMode: 0
      - time: .233333334
        value: 0
        inSlope: 0
        outSlope: 0
        tangentMode: 0
      - time: .25
        value: 0
        inSlope: 0
        outSlope: 0
        tangentMode: 0
      - time: .266666681
        value: 0
        inSlope: 0
        outSlope: 0
        tangentMode: 0
      - time: .283333361
        value: 0
        inSlope: 0
        outSlope: 0
        tangentMode: 0
      - time: .300000042
        value: 0
        inSlope: 0
        outSlope: 0
        tangentMode: 0
      - time: .316666722
        value: 0
        inSlope: 0
        outSlope: 0
        tangentMode: 0
      - time: .333333403
        value: 0
        inSlope: 0
        outSlope: 0
        tangentMode: 0
      - time: .350000083
        value: 0
        inSlope: 0
        outSlope: 0
        tangentMode: 0
      - time: .366666764
        value: 0
        inSlope: 0
        outSlope: 0
        tangentMode: 0
      - time: .383333445
        value: 0
        inSlope: 0
        outSlope: 0
        tangentMode: 0
      - time: .400000125
        value: 0
        inSlope: 0
        outSlope: 0
        tangentMode: 0
      - time: .416666806
        value: 0
        inSlope: 0
        outSlope: 0
        tangentMode: 0
      - time: .433333486
        value: 0
        inSlope: 0
        outSlope: 0
        tangentMode: 0
      - time: .450000167
        value: 0
        inSlope: 0
        outSlope: 0
        tangentMode: 0
      - time: .466666847
        value: 0
        inSlope: 0
        outSlope: 0
        tangentMode: 0
      - time: .483333528
        value: 0
        inSlope: 0
        outSlope: 0
        tangentMode: 0
      - time: .500000179
        value: 0
        inSlope: 0
        outSlope: 0
        tangentMode: 0
      - time: .51666683
        value: 0
        inSlope: 0
        outSlope: 0
        tangentMode: 0
      - time: .53333348
        value: 0
        inSlope: 0
        outSlope: 0
        tangentMode: 0
      - time: .550000131
        value: 0
        inSlope: 0
        outSlope: 0
        tangentMode: 0
      - time: .566666782
        value: 0
        inSlope: 0
        outSlope: 0
        tangentMode: 0
      - time: .583333433
        value: 0
        inSlope: 0
        outSlope: 0
        tangentMode: 0
      - time: .600000083
        value: 0
        inSlope: 0
        outSlope: 0
        tangentMode: 0
      - time: .616666734
        value: 0
        inSlope: 0
        outSlope: 0
        tangentMode: 0
      - time: .633333385
        value: 0
        inSlope: 0
        outSlope: 0
        tangentMode: 0
      - time: .650000036
        value: 0
        inSlope: 0
        outSlope: 0
        tangentMode: 0
      - time: .666666687
        value: 0
        inSlope: 0
        outSlope: 0
        tangentMode: 0
      - time: .683333337
        value: 0
        inSlope: 0
        outSlope: 0
        tangentMode: 0
      - time: .699999988
        value: 0
        inSlope: 0
        outSlope: 0
        tangentMode: 0
      - time: .716666639
        value: 0
        inSlope: 0
        outSlope: 0
        tangentMode: 0
      - time: .73333329
        value: 0
        inSlope: 0
        outSlope: 0
        tangentMode: 0
      - time: .74999994
        value: 0
        inSlope: 0
        outSlope: 0
        tangentMode: 0
      - time: .766666591
        value: 0
        inSlope: 0
        outSlope: 0
        tangentMode: 0
      - time: .783333242
        value: 0
        inSlope: 0
        outSlope: 0
        tangentMode: 0
      - time: .799999893
        value: 0
        inSlope: 0
        outSlope: 0
        tangentMode: 0
      - time: .816666543
        value: 0
        inSlope: 0
        outSlope: 0
        tangentMode: 0
      - time: .833333194
        value: 0
        inSlope: 0
        outSlope: 0
        tangentMode: 0
      - time: .849999845
        value: 0
        inSlope: 0
        outSlope: 0
        tangentMode: 0
      - time: .866666496
        value: 0
        inSlope: 0
        outSlope: 0
        tangentMode: 0
      - time: .883333147
        value: 0
        inSlope: 0
        outSlope: 0
        tangentMode: 0
      - time: .899999797
        value: 0
        inSlope: 0
        outSlope: 0
        tangentMode: 0
      - time: .916666448
        value: 0
        inSlope: 0
        outSlope: 0
        tangentMode: 0
      - time: .933333099
        value: 0
        inSlope: 0
        outSlope: 0
        tangentMode: 0
      - time: .94999975
        value: 0
        inSlope: 0
        outSlope: 0
        tangentMode: 0
      - time: .9666664
        value: 0
        inSlope: 0
        outSlope: 0
        tangentMode: 0
      - time: .983333051
        value: 0
        inSlope: 0
        outSlope: 0
        tangentMode: 0
      - time: .999999702
        value: 0
        inSlope: 0
        outSlope: 0
        tangentMode: 0
      - time: 1.01666641
        value: 0
        inSlope: 0
        outSlope: 0
        tangentMode: 0
      - time: 1.03333306
        value: 0
        inSlope: 0
        outSlope: 0
        tangentMode: 0
      - time: 1.04999971
        value: 0
        inSlope: 0
        outSlope: 0
        tangentMode: 0
      - time: 1.06666636
        value: 0
        inSlope: 0
        outSlope: 0
        tangentMode: 0
      - time: 1.08333302
        value: 0
        inSlope: 0
        outSlope: 0
        tangentMode: 0
      - time: 1.09999967
        value: 0
        inSlope: 0
        outSlope: 0
        tangentMode: 0
      - time: 1.11666632
        value: 0
        inSlope: 0
        outSlope: 0
        tangentMode: 0
      - time: 1.13333297
        value: 0
        inSlope: 0
        outSlope: 0
        tangentMode: 0
      - time: 1.14999962
        value: 0
        inSlope: 0
        outSlope: 0
        tangentMode: 0
      - time: 1.16666627
        value: 0
        inSlope: 0
        outSlope: 0
        tangentMode: 0
      - time: 1.18333292
        value: 0
        inSlope: 0
        outSlope: 0
        tangentMode: 0
      - time: 1.19999957
        value: 0
        inSlope: 0
        outSlope: 0
        tangentMode: 0
      - time: 1.21666622
        value: 0
        inSlope: 0
        outSlope: 0
        tangentMode: 0
      - time: 1.23333287
        value: 0
        inSlope: 0
        outSlope: 0
        tangentMode: 0
      - time: 1.24999952
        value: 0
        inSlope: 0
        outSlope: 0
        tangentMode: 0
      - time: 1.26666617
        value: 0
        inSlope: 0
        outSlope: 0
        tangentMode: 0
      - time: 1.28333282
        value: 0
        inSlope: 0
        outSlope: 0
        tangentMode: 0
      - time: 1.29999948
        value: 0
        inSlope: 0
        outSlope: 0
        tangentMode: 0
      - time: 1.31666613
        value: 0
        inSlope: 0
        outSlope: 0
        tangentMode: 0
      - time: 1.33333278
        value: 0
        inSlope: 0
        outSlope: 0
        tangentMode: 0
      - time: 1.34999943
        value: 0
        inSlope: 0
        outSlope: 0
        tangentMode: 0
      - time: 1.36666608
        value: 0
        inSlope: 0
        outSlope: 0
        tangentMode: 0
      - time: 1.38333273
        value: 0
        inSlope: 0
        outSlope: 0
        tangentMode: 0
      - time: 1.39999938
        value: 0
        inSlope: 0
        outSlope: 0
        tangentMode: 0
      - time: 1.41666603
        value: 0
        inSlope: 0
        outSlope: 0
        tangentMode: 0
      - time: 1.43333268
        value: 0
        inSlope: 0
        outSlope: 0
        tangentMode: 0
      - time: 1.44999933
        value: 0
        inSlope: 0
        outSlope: 0
        tangentMode: 0
      - time: 1.46666598
        value: 0
        inSlope: 0
        outSlope: 0
        tangentMode: 0
      - time: 1.48333263
        value: 0
        inSlope: 0
        outSlope: 0
        tangentMode: 0
      - time: 1.49999928
        value: 0
        inSlope: 0
        outSlope: 0
        tangentMode: 0
      - time: 1.51666594
        value: 0
        inSlope: 0
        outSlope: 0
        tangentMode: 0
      - time: 1.53333259
        value: 0
        inSlope: 0
        outSlope: 0
        tangentMode: 0
      - time: 1.54999924
        value: 0
        inSlope: 0
        outSlope: 0
        tangentMode: 0
      - time: 1.56666589
        value: 0
        inSlope: 0
        outSlope: 0
        tangentMode: 0
      - time: 1.58333254
        value: 0
        inSlope: 0
        outSlope: 0
        tangentMode: 0
      - time: 1.59999919
        value: 0
        inSlope: 0
        outSlope: 0
        tangentMode: 0
      - time: 1.61666584
        value: 0
        inSlope: 0
        outSlope: 0
        tangentMode: 0
      - time: 1.63333249
        value: 0
        inSlope: 0
        outSlope: 0
        tangentMode: 0
      - time: 1.64999914
        value: 0
        inSlope: 0
        outSlope: 0
        tangentMode: 0
      - time: 1.66666579
        value: 0
        inSlope: 0
        outSlope: 0
        tangentMode: 0
      - time: 1.68333244
        value: 0
        inSlope: 0
        outSlope: 0
        tangentMode: 0
      - time: 1.69999909
        value: 0
        inSlope: 0
        outSlope: 0
        tangentMode: 0
      - time: 1.71666574
        value: 0
        inSlope: 0
        outSlope: 0
        tangentMode: 0
      - time: 1.7333324
        value: 0
        inSlope: 0
        outSlope: 0
        tangentMode: 0
      - time: 1.74999905
        value: 0
        inSlope: 0
        outSlope: 0
        tangentMode: 0
      - time: 1.7666657
        value: 0
        inSlope: 0
        outSlope: 0
        tangentMode: 0
      - time: 1.78333235
        value: 0
        inSlope: 0
        outSlope: 0
        tangentMode: 0
      - time: 1.799999
        value: 0
        inSlope: 0
        outSlope: 0
        tangentMode: 0
      - time: 1.81666565
        value: 0
        inSlope: 0
        outSlope: 0
        tangentMode: 0
      - time: 1.8333323
        value: 0
        inSlope: 0
        outSlope: 0
        tangentMode: 0
      - time: 1.84999895
        value: 0
        inSlope: 0
        outSlope: 0
        tangentMode: 0
      - time: 1.8666656
        value: 0
        inSlope: 0
        outSlope: 0
        tangentMode: 0
      - time: 1.88333225
        value: 0
        inSlope: 0
        outSlope: 0
        tangentMode: 0
      - time: 1.8999989
        value: 0
        inSlope: 0
        outSlope: 0
        tangentMode: 0
      - time: 1.91666555
        value: 0
        inSlope: 0
        outSlope: 0
        tangentMode: 0
      - time: 1.9333322
        value: 0
        inSlope: 0
        outSlope: 0
        tangentMode: 0
      - time: 1.94999886
        value: 0
        inSlope: 0
        outSlope: 0
        tangentMode: 0
      - time: 1.96666551
        value: 0
        inSlope: 0
        outSlope: 0
        tangentMode: 0
      - time: 1.98333216
        value: 0
        inSlope: 0
        outSlope: 0
        tangentMode: 0
      - time: 1.99999881
        value: 0
        inSlope: 0
        outSlope: 0
        tangentMode: 0
      - time: 2.01666546
        value: 0
        inSlope: 0
        outSlope: 0
        tangentMode: 0
      - time: 2.03333211
        value: 0
        inSlope: 0
        outSlope: 0
        tangentMode: 0
      - time: 2.04999876
        value: 0
        inSlope: 0
        outSlope: 0
        tangentMode: 0
      - time: 2.06666541
        value: 0
        inSlope: 0
        outSlope: 0
        tangentMode: 0
      - time: 2.08333206
        value: 0
        inSlope: 0
        outSlope: 0
        tangentMode: 0
      - time: 2.0999999
        value: 0
        inSlope: 0
        outSlope: 0
        tangentMode: 0
      m_PreInfinity: 2
      m_PostInfinity: 2
    attribute: m_LocalRotation.z
    path: 
    classID: 4
    script: {fileID: 0}
  - curve:
      serializedVersion: 2
      m_Curve:
      - time: 0
        value: -1.62920685e-07
        inSlope: -.0475144312
        outSlope: -.0475144312
        tangentMode: 0
      - time: .0166666675
        value: -.000792070176
        inSlope: -.0417530388
        outSlope: -.0417530388
        tangentMode: 0
      - time: .0333333351
        value: -.00139193097
        inSlope: -.030705899
        outSlope: -.030705899
        tangentMode: 0
      - time: .0500000045
        value: -.0018156002
        inSlope: -.0205957517
        outSlope: -.0205957517
        tangentMode: 0
      - time: .0666666701
        value: -.00207845611
        inSlope: -.0114190346
        outSlope: -.0114190346
        tangentMode: 0
      - time: .0833333358
        value: -.00219623465
        inSlope: -.00317215244
        outSlope: -.00317215244
        tangentMode: 0
      - time: .100000001
        value: -.00218419451
        inSlope: .0041413242
        outSlope: .0041413242
        tangentMode: 0
      - time: .116666667
        value: -.00205819053
        inSlope: .0105178086
        outSlope: .0105178086
        tangentMode: 0
      - time: .13333334
        value: -.00183360081
        inSlope: .0159644783
        outSlope: .0159644783
        tangentMode: 0
      - time: .150000006
        value: -.00152604119
        inSlope: .0204777513
        outSlope: .0204777513
        tangentMode: 0
      - time: .166666672
        value: -.00115100911
        inSlope: .0240540337
        outSlope: .0240540337
        tangentMode: 0
      - time: .183333337
        value: -.00072424009
        inSlope: .0266969129
        outSlope: .0266969129
        tangentMode: 0
      - time: .200000003
        value: -.000261112058
        inSlope: .0284099579
        outSlope: .0284099579
        tangentMode: 0
      - time: .216666669
        value: .000222758448
        inSlope: .0291860104
        outSlope: .0291860104
        tangentMode: 0
      - time: .233333334
        value: .000711754896
        inSlope: .0290286466
        outSlope: .0290286466
        tangentMode: 0
      - time: .25
        value: .00119037996
        inSlope: .0279414337
        outSlope: .0279414337
        tangentMode: 0
      - time: .266666681
        value: .00164313638
        inSlope: .0259243883
        outSlope: .0259243883
        tangentMode: 0
      - time: .283333361
        value: .00205452694
        inSlope: .0229667928
        outSlope: .0229667928
        tangentMode: 0
      - time: .300000042
        value: .0024086968
        inSlope: .0190722216
        outSlope: .0190722216
        tangentMode: 0
      - time: .316666722
        value: .00269026821
        inSlope: .0142514091
        outSlope: .0142514091
        tangentMode: 0
      - time: .333333403
        value: .00288374419
        inSlope: .00849719625
        outSlope: .00849719625
        tangentMode: 0
      - time: .350000083
        value: .00297350832
        inSlope: .00180601212
        outSlope: .00180601212
        tangentMode: 0
      - time: .366666764
        value: .00294394465
        inSlope: -.00581499608
        outSlope: -.00581499608
        tangentMode: 0
      - time: .383333445
        value: .00277967495
        inSlope: -.0143729961
        outSlope: -.0143729961
        tangentMode: 0
      - time: .400000125
        value: .00246484438
        inSlope: -.0238644183
        outSlope: -.0238644183
        tangentMode: 0
      - time: .416666806
        value: .00198419369
        inSlope: -.0342856944
        outSlope: -.0342856944
        tangentMode: 0
      - time: .433333486
        value: .0013219869
        inSlope: -.0456439704
        outSlope: -.0456439704
        tangentMode: 0
      - time: .450000167
        value: .000462726748
        inSlope: -.0579356551
        outSlope: -.0579356551
        tangentMode: 0
      - time: .466666847
        value: -.000609203125
        inSlope: -.0711607039
        outSlope: -.0711607039
        tangentMode: 0
      - time: .483333528
        value: -.00190929859
        inSlope: -.0853119344
        outSlope: -.0853119344
        tangentMode: 0
      - time: .500000179
        value: -.00345293386
        inSlope: -.100399852
        outSlope: -.100399852
        tangentMode: 0
      - time: .51666683
        value: -.00525595713
        inSlope: -.116427675
        outSlope: -.116427675
        tangentMode: 0
      - time: .53333348
        value: -.00733385282
        inSlope: -.133387893
        outSlope: -.133387893
        tangentMode: 0
      - time: .550000131
        value: -.0097022159
        inSlope: -.15127638
        outSlope: -.15127638
        tangentMode: 0
      - time: .566666782
        value: -.0123763941
        inSlope: -.170088708
        outSlope: -.170088708
        tangentMode: 0
      - time: .583333433
        value: -.0153718339
        inSlope: -.189837992
        outSlope: -.189837992
        tangentMode: 0
      - time: .600000083
        value: -.0187043212
        inSlope: -.210519224
        outSlope: -.210519224
        tangentMode: 0
      - time: .616666734
        value: -.0223891344
        inSlope: -.232116073
        outSlope: -.232116073
        tangentMode: 0
      - time: .633333385
        value: -.0264415164
        inSlope: -.254640281
        outSlope: -.254640281
        tangentMode: 0
      - time: .650000036
        value: -.0308771357
        inSlope: -.278092206
        outSlope: -.278092206
        tangentMode: 0
      - time: .666666687
        value: -.0357112475
        inSlope: -.304154307
        outSlope: -.304154307
        tangentMode: 0
      - time: .683333337
        value: -.0410156026
        inSlope: -.334288508
        outSlope: -.334288508
        tangentMode: 0
      - time: .699999988
        value: -.0468541868
        inSlope: -.366459489
        outSlope: -.366459489
        tangentMode: 0
      - time: .716666639
        value: -.0532309078
        inSlope: -.398842067
        outSlope: -.398842067
        tangentMode: 0
      - time: .73333329
        value: -.0601489097
        inSlope: -.431425333
        outSlope: -.431425333
        tangentMode: 0
      - time: .74999994
        value: -.067611739
        inSlope: -.464199841
        outSlope: -.464199841
        tangentMode: 0
      - time: .766666591
        value: -.0756222233
        inSlope: -.497153938
        outSlope: -.497153938
        tangentMode: 0
      - time: .783333242
        value: -.0841835216
        inSlope: -.530263603
        outSlope: -.530263603
        tangentMode: 0
      - time: .799999893
        value: -.0932976604
        inSlope: -.563508272
        outSlope: -.563508272
        tangentMode: 0
      - time: .816666543
        value: -.102967113
        inSlope: -.596875668
        outSlope: -.596875668
        tangentMode: 0
      - time: .833333194
        value: -.113193497
        inSlope: -.630326211
        outSlope: -.630326211
        tangentMode: 0
      - time: .849999845
        value: -.123977967
        inSlope: -.663829923
        outSlope: -.663829923
        tangentMode: 0
      - time: .866666496
        value: -.13532114
        inSlope: -.697365403
        outSlope: -.697365403
        tangentMode: 0
      - time: .883333147
        value: -.147223458
        inSlope: -.73089993
        outSlope: -.73089993
        tangentMode: 0
      - time: .899999797
        value: -.159684449
        inSlope: -.764381528
        outSlope: -.764381528
        tangentMode: 0
      - time: .916666448
        value: -.172702819
        inSlope: -.800583839
        outSlope: -.800583839
        tangentMode: 0
      - time: .933333099
        value: -.186370552
        inSlope: -.841276109
        outSlope: -.841276109
        tangentMode: 0
      - time: .94999975
        value: -.200745329
        inSlope: -.882061362
        outSlope: -.882061362
        tangentMode: 0
      - time: .9666664
        value: -.215772569
        inSlope: -.919560909
        outSlope: -.919560909
        tangentMode: 0
      - time: .983333051
        value: -.231397331
        inSlope: -.953739464
        outSlope: -.953739464
        tangentMode: 0
      - time: .999999702
        value: -.247563854
        inSlope: -.984554052
        outSlope: -.984554052
        tangentMode: 0
      - time: 1.01666641
        value: -.264215827
        inSlope: -1.01198363
        outSlope: -1.01198363
        tangentMode: 0
      - time: 1.03333306
        value: -.28129667
        inSlope: -1.03601575
        outSlope: -1.03601575
        tangentMode: 0
      - time: 1.04999971
        value: -.298749655
        inSlope: -1.05661881
        outSlope: -1.05661881
        tangentMode: 0
      - time: 1.06666636
        value: -.316517264
        inSlope: -1.07380295
        outSlope: -1.07380295
        tangentMode: 0
      - time: 1.08333302
        value: -.334543049
        inSlope: -1.08757067
        outSlope: -1.08757067
        tangentMode: 0
      - time: 1.09999967
        value: -.352769583
        inSlope: -1.09794009
        outSlope: -1.09794009
        tangentMode: 0
      - time: 1.11666632
        value: -.371141016
        inSlope: -1.10494876
        outSlope: -1.10494876
        tangentMode: 0
      - time: 1.13333297
        value: -.389601171
        inSlope: -1.10861802
        outSlope: -1.10861802
        tangentMode: 0
      - time: 1.14999962
        value: -.408094913
        inSlope: -1.10901666
        outSlope: -1.10901666
        tangentMode: 0
      - time: 1.16666627
        value: -.426568359
        inSlope: -1.14920521
        outSlope: -1.14920521
        tangentMode: 0
      - time: 1.18333292
        value: -.446401715
        inSlope: -1.25985265
        outSlope: -1.25985265
        tangentMode: 0
      - time: 1.19999957
        value: -.468563408
        inSlope: -1.37964463
        outSlope: -1.37964463
        tangentMode: 0
      - time: 1.21666622
        value: -.492389828
        inSlope: -1.4600842
        outSlope: -1.4600842
        tangentMode: 0
      - time: 1.23333287
        value: -.517232835
        inSlope: -1.50239873
        outSlope: -1.50239873
        tangentMode: 0
      - time: 1.24999952
        value: -.54246974
        inSlope: -1.50831842
        outSlope: -1.50831842
        tangentMode: 0
      - time: 1.26666617
        value: -.567510068
        inSlope: -1.48001218
        outSlope: -1.48001218
        tangentMode: 0
      - time: 1.28333282
        value: -.591803432
        inSlope: -1.42000937
        outSlope: -1.42000937
        tangentMode: 0
      - time: 1.29999948
        value: -.614843667
        inSlope: -1.33102775
        outSlope: -1.33102775
        tangentMode: 0
      - time: 1.31666613
        value: -.636170983
        inSlope: -1.21581602
        outSlope: -1.21581602
        tangentMode: 0
      - time: 1.33333278
        value: -.655370831
        inSlope: -1.07692766
        outSlope: -1.07692766
        tangentMode: 0
      - time: 1.34999943
        value: -.672068536
        inSlope: -.916474104
        outSlope: -.916474104
        tangentMode: 0
      - time: 1.36666608
        value: -.68591994
        inSlope: -.735900521
        outSlope: -.735900521
        tangentMode: 0
      - time: 1.38333273
        value: -.69659853
        inSlope: -.53572166
        outSlope: -.53572166
        tangentMode: 0
      - time: 1.39999938
        value: -.703777313
        inSlope: -.315252841
        outSlope: -.315252841
        tangentMode: 0
      - time: 1.41666603
        value: -.707106948
        inSlope: -.0998891369
        outSlope: -.0998891369
        tangentMode: 0
      - time: 1.43333268
        value: -.707106948
        inSlope: 0
        outSlope: 0
        tangentMode: 0
      - time: 1.44999933
        value: -.707106948
        inSlope: 0
        outSlope: 0
        tangentMode: 0
      - time: 1.46666598
        value: -.707106948
        inSlope: 0
        outSlope: 0
        tangentMode: 0
      - time: 1.48333263
        value: -.707106948
        inSlope: 0
        outSlope: 0
        tangentMode: 0
      - time: 1.49999928
        value: -.707106948
        inSlope: 0
        outSlope: 0
        tangentMode: 0
      - time: 1.51666594
        value: -.707106948
        inSlope: 0
        outSlope: 0
        tangentMode: 0
      - time: 1.53333259
        value: -.707106948
        inSlope: 0
        outSlope: 0
        tangentMode: 0
      - time: 1.54999924
        value: -.707106948
        inSlope: 0
        outSlope: 0
        tangentMode: 0
      - time: 1.56666589
        value: -.707106948
        inSlope: 0
        outSlope: 0
        tangentMode: 0
      - time: 1.58333254
        value: -.707106948
        inSlope: 0
        outSlope: 0
        tangentMode: 0
      - time: 1.59999919
        value: -.707106948
        inSlope: 0
        outSlope: 0
        tangentMode: 0
      - time: 1.61666584
        value: -.707106948
        inSlope: 0
        outSlope: 0
        tangentMode: 0
      - time: 1.63333249
        value: -.707106948
        inSlope: 0
        outSlope: 0
        tangentMode: 0
      - time: 1.64999914
        value: -.707106948
        inSlope: 0
        outSlope: 0
        tangentMode: 0
      - time: 1.66666579
        value: -.707106948
        inSlope: 0
        outSlope: 0
        tangentMode: 0
      - time: 1.68333244
        value: -.707106948
        inSlope: 0
        outSlope: 0
        tangentMode: 0
      - time: 1.69999909
        value: -.707106948
        inSlope: 0
        outSlope: 0
        tangentMode: 0
      - time: 1.71666574
        value: -.707106948
        inSlope: 0
        outSlope: 0
        tangentMode: 0
      - time: 1.7333324
        value: -.707106948
        inSlope: 0
        outSlope: 0
        tangentMode: 0
      - time: 1.74999905
        value: -.707106948
        inSlope: 0
        outSlope: 0
        tangentMode: 0
      - time: 1.7666657
        value: -.707106948
        inSlope: 0
        outSlope: 0
        tangentMode: 0
      - time: 1.78333235
        value: -.707106948
        inSlope: 0
        outSlope: 0
        tangentMode: 0
      - time: 1.799999
        value: -.707106948
        inSlope: 0
        outSlope: 0
        tangentMode: 0
      - time: 1.81666565
        value: -.707106948
        inSlope: 0
        outSlope: 0
        tangentMode: 0
      - time: 1.8333323
        value: -.707106948
        inSlope: 0
        outSlope: 0
        tangentMode: 0
      - time: 1.84999895
        value: -.707106948
        inSlope: 0
        outSlope: 0
        tangentMode: 0
      - time: 1.8666656
        value: -.707106948
        inSlope: 0
        outSlope: 0
        tangentMode: 0
      - time: 1.88333225
        value: -.707106948
        inSlope: 0
        outSlope: 0
        tangentMode: 0
      - time: 1.8999989
        value: -.707106948
        inSlope: 0
        outSlope: 0
        tangentMode: 0
      - time: 1.91666555
        value: -.707106948
        inSlope: 0
        outSlope: 0
        tangentMode: 0
      - time: 1.9333322
        value: -.707106948
        inSlope: 0
        outSlope: 0
        tangentMode: 0
      - time: 1.94999886
        value: -.707106948
        inSlope: 0
        outSlope: 0
        tangentMode: 0
      - time: 1.96666551
        value: -.707106948
        inSlope: 0
        outSlope: 0
        tangentMode: 0
      - time: 1.98333216
        value: -.707106948
        inSlope: 0
        outSlope: 0
        tangentMode: 0
      - time: 1.99999881
        value: -.707106948
        inSlope: 0
        outSlope: 0
        tangentMode: 0
      - time: 2.01666546
        value: -.707106948
        inSlope: 0
        outSlope: 0
        tangentMode: 0
      - time: 2.03333211
        value: -.707106948
        inSlope: 0
        outSlope: 0
        tangentMode: 0
      - time: 2.04999876
        value: -.707106948
        inSlope: 0
        outSlope: 0
        tangentMode: 0
      - time: 2.06666541
        value: -.707106948
        inSlope: 0
        outSlope: 0
        tangentMode: 0
      - time: 2.08333206
        value: -.707106948
        inSlope: 0
        outSlope: 0
        tangentMode: 0
      - time: 2.0999999
        value: -.707106948
        inSlope: 0
        outSlope: 0
        tangentMode: 0
      m_PreInfinity: 2
      m_PostInfinity: 2
    attribute: m_LocalRotation.w
    path: 
    classID: 4
    script: {fileID: 0}
  m_EulerEditorCurves:
  - curve:
      serializedVersion: 2
      m_Curve:
      - time: 0
        value: 0
        inSlope: 0
        outSlope: 0
        tangentMode: 10
      - time: 2.0999999
        value: 0
        inSlope: 0
        outSlope: 0
        tangentMode: 10
      m_PreInfinity: 2
      m_PostInfinity: 2
    attribute: localEulerAnglesBaked.x
    path: 
    classID: 4
    script: {fileID: 0}
  - curve:
      serializedVersion: 2
      m_Curve:
      - time: 0
        value: 180
        inSlope: 6.13959503
        outSlope: 6.13959503
        tangentMode: 10
      - time: .666666687
        value: 184.093063
        inSlope: 34.6636696
        outSlope: 34.6636696
        tangentMode: 10
      - time: .916666687
        value: 199.889999
        inSlope: 92.8138885
        outSlope: 92.8138885
        tangentMode: 10
      - time: 1.16666663
        value: 230.5
        inSlope: 140.220016
        outSlope: 140.220016
        tangentMode: 10
      - time: 1.41666663
        value: 270
        inSlope: 12.4288654
        outSlope: -0
        tangentMode: 17
      - time: 2.0999999
        value: 270
        inSlope: 0
        outSlope: 0
        tangentMode: 13
      m_PreInfinity: 2
      m_PostInfinity: 2
    attribute: localEulerAnglesBaked.y
    path: 
    classID: 4
    script: {fileID: 0}
  - curve:
      serializedVersion: 2
      m_Curve:
      - time: 0
        value: 0
        inSlope: 0
        outSlope: 0
        tangentMode: 10
      - time: 2.0999999
        value: 0
        inSlope: 0
        outSlope: 0
        tangentMode: 10
      m_PreInfinity: 2
      m_PostInfinity: 2
    attribute: localEulerAnglesBaked.z
    path: 
    classID: 4
    script: {fileID: 0}
  m_HasGenericRootTransform: 1
  m_HasMotionFloatCurves: 0
  m_GenerateMotionCurves: 0
  m_Events: []
