%YAML 1.1
%TAG !u! tag:unity3d.com,2011:
--- !u!74 &7400000
AnimationClip:
  m_ObjectHideFlags: 0
  m_PrefabParentObject: {fileID: 0}
  m_PrefabInternal: {fileID: 0}
  m_Name: Car Mover Route 2-1-3 Pass Intersection
  serializedVersion: 6
  m_Legacy: 0
  m_Compressed: 0
  m_UseHighQualityCurve: 1
  m_RotationCurves:
  - curve:
      serializedVersion: 2
      m_Curve:
      - time: 0
        value: {x: 0, y: 1, z: 0, w: -1.62920685e-07}
        inSlope: {x: 0, y: 0, z: 0, w: 0}
        outSlope: {x: 0, y: 0, z: 0, w: 0}
        tangentMode: 0
      - time: .0166666675
        value: {x: 0, y: 1, z: 0, w: -1.62920685e-07}
        inSlope: {x: 0, y: 0, z: 0, w: 0}
        outSlope: {x: 0, y: 0, z: 0, w: 0}
        tangentMode: 0
      - time: .0333333351
        value: {x: 0, y: 1, z: 0, w: -1.62920685e-07}
        inSlope: {x: 0, y: 0, z: 0, w: 0}
        outSlope: {x: 0, y: 0, z: 0, w: 0}
        tangentMode: 0
      - time: .0500000045
        value: {x: 0, y: 1, z: 0, w: -1.62920685e-07}
        inSlope: {x: 0, y: 0, z: 0, w: 0}
        outSlope: {x: 0, y: 0, z: 0, w: 0}
        tangentMode: 0
      - time: .0666666701
        value: {x: 0, y: 1, z: 0, w: -1.62920685e-07}
        inSlope: {x: 0, y: 0, z: 0, w: 0}
        outSlope: {x: 0, y: 0, z: 0, w: 0}
        tangentMode: 0
      - time: .0833333358
        value: {x: 0, y: 1, z: 0, w: -1.62920685e-07}
        inSlope: {x: 0, y: 0, z: 0, w: 0}
        outSlope: {x: 0, y: 0, z: 0, w: 0}
        tangentMode: 0
      - time: .100000001
        value: {x: 0, y: 1, z: 0, w: -1.62920685e-07}
        inSlope: {x: 0, y: 0, z: 0, w: 0}
        outSlope: {x: 0, y: 0, z: 0, w: 0}
        tangentMode: 0
      - time: .116666667
        value: {x: 0, y: 1, z: 0, w: -1.62920685e-07}
        inSlope: {x: 0, y: 0, z: 0, w: 0}
        outSlope: {x: 0, y: 0, z: 0, w: 0}
        tangentMode: 0
      - time: .13333334
        value: {x: 0, y: 1, z: 0, w: -1.62920685e-07}
        inSlope: {x: 0, y: 0, z: 0, w: 0}
        outSlope: {x: 0, y: 0, z: 0, w: 0}
        tangentMode: 0
      - time: .150000006
        value: {x: 0, y: 1, z: 0, w: -1.62920685e-07}
        inSlope: {x: 0, y: 0, z: 0, w: 0}
        outSlope: {x: 0, y: 0, z: 0, w: 0}
        tangentMode: 0
      - time: .166666672
        value: {x: 0, y: 1, z: 0, w: -1.62920685e-07}
        inSlope: {x: 0, y: 0, z: 0, w: 0}
        outSlope: {x: 0, y: 0, z: 0, w: 0}
        tangentMode: 0
      - time: .183333337
        value: {x: 0, y: 1, z: 0, w: -1.62920685e-07}
        inSlope: {x: 0, y: 0, z: 0, w: 0}
        outSlope: {x: 0, y: 0, z: 0, w: 0}
        tangentMode: 0
      - time: .200000003
        value: {x: 0, y: 1, z: 0, w: -1.62920685e-07}
        inSlope: {x: 0, y: 0, z: 0, w: 0}
        outSlope: {x: 0, y: 0, z: 0, w: 0}
        tangentMode: 0
      - time: .216666669
        value: {x: 0, y: 1, z: 0, w: -1.62920685e-07}
        inSlope: {x: 0, y: 0, z: 0, w: 0}
        outSlope: {x: 0, y: 0, z: 0, w: 0}
        tangentMode: 0
      - time: .233333334
        value: {x: 0, y: 1, z: 0, w: -1.62920685e-07}
        inSlope: {x: 0, y: 0, z: 0, w: 0}
        outSlope: {x: 0, y: 0, z: 0, w: 0}
        tangentMode: 0
      - time: .25
        value: {x: 0, y: 1, z: 0, w: -1.62920685e-07}
        inSlope: {x: 0, y: 0, z: 0, w: 0}
        outSlope: {x: 0, y: 0, z: 0, w: 0}
        tangentMode: 0
      - time: .266666681
        value: {x: 0, y: 1, z: 0, w: -1.62920685e-07}
        inSlope: {x: 0, y: 0, z: 0, w: 0}
        outSlope: {x: 0, y: 0, z: 0, w: 0}
        tangentMode: 0
      - time: .283333361
        value: {x: 0, y: 1, z: 0, w: -1.62920685e-07}
        inSlope: {x: 0, y: 0, z: 0, w: 0}
        outSlope: {x: 0, y: 0, z: 0, w: 0}
        tangentMode: 0
      - time: .300000042
        value: {x: 0, y: 1, z: 0, w: -1.62920685e-07}
        inSlope: {x: 0, y: 0, z: 0, w: 0}
        outSlope: {x: 0, y: 0, z: 0, w: 0}
        tangentMode: 0
      - time: .316666722
        value: {x: 0, y: 1, z: 0, w: -1.62920685e-07}
        inSlope: {x: 0, y: 0, z: 0, w: 0}
        outSlope: {x: 0, y: 0, z: 0, w: 0}
        tangentMode: 0
      - time: .333333403
        value: {x: 0, y: 1, z: 0, w: -1.62920685e-07}
        inSlope: {x: 0, y: 0, z: 0, w: 0}
        outSlope: {x: 0, y: 0, z: 0, w: 0}
        tangentMode: 0
      - time: .350000083
        value: {x: 0, y: 1, z: 0, w: -1.62920685e-07}
        inSlope: {x: 0, y: 0, z: 0, w: 0}
        outSlope: {x: 0, y: 0, z: 0, w: 0}
        tangentMode: 0
      - time: .366666764
        value: {x: 0, y: 1, z: 0, w: -1.62920685e-07}
        inSlope: {x: 0, y: 0, z: 0, w: 0}
        outSlope: {x: 0, y: 0, z: 0, w: 0}
        tangentMode: 0
      - time: .383333445
        value: {x: 0, y: 1, z: 0, w: -1.62920685e-07}
        inSlope: {x: 0, y: 0, z: 0, w: 0}
        outSlope: {x: 0, y: 0, z: 0, w: 0}
        tangentMode: 0
      - time: .400000125
        value: {x: 0, y: 1, z: 0, w: -1.62920685e-07}
        inSlope: {x: 0, y: 0, z: 0, w: 0}
        outSlope: {x: 0, y: 0, z: 0, w: 0}
        tangentMode: 0
      - time: .416666806
        value: {x: 0, y: 1, z: 0, w: -1.62920685e-07}
        inSlope: {x: 0, y: 0, z: 0, w: 0}
        outSlope: {x: 0, y: 0, z: 0, w: 0}
        tangentMode: 0
      - time: .433333486
        value: {x: 0, y: 1, z: 0, w: -1.62920685e-07}
        inSlope: {x: 0, y: 0, z: 0, w: 0}
        outSlope: {x: 0, y: 0, z: 0, w: 0}
        tangentMode: 0
      - time: .450000167
        value: {x: 0, y: 1, z: 0, w: -1.62920685e-07}
        inSlope: {x: 0, y: 0, z: 0, w: 0}
        outSlope: {x: 0, y: 0, z: 0, w: 0}
        tangentMode: 0
      - time: .466666847
        value: {x: 0, y: 1, z: 0, w: -1.62920685e-07}
        inSlope: {x: 0, y: 0, z: 0, w: 0}
        outSlope: {x: 0, y: 0, z: 0, w: 0}
        tangentMode: 0
      - time: .483333528
        value: {x: 0, y: 1, z: 0, w: -1.62920685e-07}
        inSlope: {x: 0, y: 0, z: 0, w: 0}
        outSlope: {x: 0, y: 0, z: 0, w: 0}
        tangentMode: 0
      - time: .500000179
        value: {x: 0, y: 1, z: 0, w: -1.62920685e-07}
        inSlope: {x: 0, y: 0, z: 0, w: 0}
        outSlope: {x: 0, y: 0, z: 0, w: 0}
        tangentMode: 0
      - time: .51666683
        value: {x: 0, y: 1, z: 0, w: -1.62920685e-07}
        inSlope: {x: 0, y: 0, z: 0, w: 0}
        outSlope: {x: 0, y: 0, z: 0, w: 0}
        tangentMode: 0
      - time: .53333348
        value: {x: 0, y: 1, z: 0, w: -1.62920685e-07}
        inSlope: {x: 0, y: 0, z: 0, w: 0}
        outSlope: {x: 0, y: 0, z: 0, w: 0}
        tangentMode: 0
      - time: .550000131
        value: {x: 0, y: 1, z: 0, w: -1.62920685e-07}
        inSlope: {x: 0, y: 0, z: 0, w: 0}
        outSlope: {x: 0, y: 0, z: 0, w: 0}
        tangentMode: 0
      - time: .566666782
        value: {x: 0, y: 1, z: 0, w: -1.62920685e-07}
        inSlope: {x: 0, y: 0, z: 0, w: 0}
        outSlope: {x: 0, y: 0, z: 0, w: 0}
        tangentMode: 0
      - time: .583333433
        value: {x: 0, y: 1, z: 0, w: -1.62920685e-07}
        inSlope: {x: 0, y: 0, z: 0, w: 0}
        outSlope: {x: 0, y: 0, z: 0, w: 0}
        tangentMode: 0
      - time: .600000083
        value: {x: 0, y: 1, z: 0, w: -1.62920685e-07}
        inSlope: {x: 0, y: 0, z: 0, w: 0}
        outSlope: {x: 0, y: 0, z: 0, w: 0}
        tangentMode: 0
      - time: .616666734
        value: {x: 0, y: 1, z: 0, w: -1.62920685e-07}
        inSlope: {x: 0, y: 0, z: 0, w: 0}
        outSlope: {x: 0, y: 0, z: 0, w: 0}
        tangentMode: 0
      - time: .633333385
        value: {x: 0, y: 1, z: 0, w: -1.62920685e-07}
        inSlope: {x: 0, y: 0, z: 0, w: 0}
        outSlope: {x: 0, y: 0, z: 0, w: 0}
        tangentMode: 0
      - time: .650000036
        value: {x: 0, y: 1, z: 0, w: -1.62920685e-07}
        inSlope: {x: 0, y: 0, z: 0, w: 0}
        outSlope: {x: 0, y: 0, z: 0, w: 0}
        tangentMode: 0
      - time: .666666687
        value: {x: 0, y: 1, z: 0, w: -1.62920685e-07}
        inSlope: {x: 0, y: 0, z: 0, w: 0}
        outSlope: {x: 0, y: 0, z: 0, w: 0}
        tangentMode: 0
      - time: .683333337
        value: {x: 0, y: 1, z: 0, w: -1.62920685e-07}
        inSlope: {x: 0, y: 0, z: 0, w: 0}
        outSlope: {x: 0, y: 0, z: 0, w: 0}
        tangentMode: 0
      - time: .699999988
        value: {x: 0, y: 1, z: 0, w: -1.62920685e-07}
        inSlope: {x: 0, y: 0, z: 0, w: 0}
        outSlope: {x: 0, y: 0, z: 0, w: 0}
        tangentMode: 0
      - time: .716666639
        value: {x: 0, y: 1, z: 0, w: -1.62920685e-07}
        inSlope: {x: 0, y: 0, z: 0, w: 0}
        outSlope: {x: 0, y: 0, z: 0, w: 0}
        tangentMode: 0
      - time: .73333329
        value: {x: 0, y: 1, z: 0, w: -1.62920685e-07}
        inSlope: {x: 0, y: 0, z: 0, w: 0}
        outSlope: {x: 0, y: 0, z: 0, w: 0}
        tangentMode: 0
      - time: .74999994
        value: {x: 0, y: 1, z: 0, w: -1.62920685e-07}
        inSlope: {x: 0, y: 0, z: 0, w: 0}
        outSlope: {x: 0, y: 0, z: 0, w: 0}
        tangentMode: 0
      - time: .766666591
        value: {x: 0, y: 1, z: 0, w: -1.62920685e-07}
        inSlope: {x: 0, y: 0, z: 0, w: 0}
        outSlope: {x: 0, y: 0, z: 0, w: 0}
        tangentMode: 0
      - time: .783333242
        value: {x: 0, y: 1, z: 0, w: -1.62920685e-07}
        inSlope: {x: 0, y: 0, z: 0, w: 0}
        outSlope: {x: 0, y: 0, z: 0, w: 0}
        tangentMode: 0
      - time: .799999893
        value: {x: 0, y: 1, z: 0, w: -1.62920685e-07}
        inSlope: {x: 0, y: 0, z: 0, w: 0}
        outSlope: {x: 0, y: 0, z: 0, w: 0}
        tangentMode: 0
      - time: .816666543
        value: {x: 0, y: 1, z: 0, w: -1.62920685e-07}
        inSlope: {x: 0, y: 0, z: 0, w: 0}
        outSlope: {x: 0, y: 0, z: 0, w: 0}
        tangentMode: 0
      - time: .833333194
        value: {x: 0, y: 1, z: 0, w: -1.62920685e-07}
        inSlope: {x: 0, y: 0, z: 0, w: 0}
        outSlope: {x: 0, y: 0, z: 0, w: 0}
        tangentMode: 0
      - time: .849999845
        value: {x: 0, y: 1, z: 0, w: -1.62920685e-07}
        inSlope: {x: 0, y: 0, z: 0, w: 0}
        outSlope: {x: 0, y: 0, z: 0, w: 0}
        tangentMode: 0
      - time: .866666496
        value: {x: 0, y: 1, z: 0, w: -1.62920685e-07}
        inSlope: {x: 0, y: 0, z: 0, w: 0}
        outSlope: {x: 0, y: 0, z: 0, w: 0}
        tangentMode: 0
      - time: .883333147
        value: {x: 0, y: 1, z: 0, w: -1.62920685e-07}
        inSlope: {x: 0, y: 0, z: 0, w: 0}
        outSlope: {x: 0, y: 0, z: 0, w: 0}
        tangentMode: 0
      - time: .899999797
        value: {x: 0, y: 1, z: 0, w: -1.62920685e-07}
        inSlope: {x: 0, y: 0, z: 0, w: 0}
        outSlope: {x: 0, y: 0, z: 0, w: 0}
        tangentMode: 0
      - time: .916666448
        value: {x: 0, y: 1, z: 0, w: -1.62920685e-07}
        inSlope: {x: 0, y: 0, z: 0, w: 0}
        outSlope: {x: 0, y: 0, z: 0, w: 0}
        tangentMode: 0
      - time: .933333099
        value: {x: 0, y: 1, z: 0, w: -1.62920685e-07}
        inSlope: {x: 0, y: 0, z: 0, w: 0}
        outSlope: {x: 0, y: 0, z: 0, w: 0}
        tangentMode: 0
      - time: .94999975
        value: {x: 0, y: 1, z: 0, w: -1.62920685e-07}
        inSlope: {x: 0, y: 0, z: 0, w: 0}
        outSlope: {x: 0, y: 0, z: 0, w: 0}
        tangentMode: 0
      - time: .9666664
        value: {x: 0, y: 1, z: 0, w: -1.62920685e-07}
        inSlope: {x: 0, y: 0, z: 0, w: 0}
        outSlope: {x: 0, y: 0, z: 0, w: 0}
        tangentMode: 0
      - time: .983333051
        value: {x: 0, y: 1, z: 0, w: -1.62920685e-07}
        inSlope: {x: 0, y: 0, z: 0, w: 0}
        outSlope: {x: 0, y: 0, z: 0, w: 0}
        tangentMode: 0
      - time: .999999702
        value: {x: 0, y: 1, z: 0, w: -1.62920685e-07}
        inSlope: {x: 0, y: 0, z: 0, w: 0}
        outSlope: {x: 0, y: 0, z: 0, w: 0}
        tangentMode: 0
      - time: 1.01666641
        value: {x: 0, y: 1, z: 0, w: -1.62920685e-07}
        inSlope: {x: 0, y: 0, z: 0, w: 0}
        outSlope: {x: 0, y: 0, z: 0, w: 0}
        tangentMode: 0
      - time: 1.03333306
        value: {x: 0, y: 1, z: 0, w: -1.62920685e-07}
        inSlope: {x: 0, y: 0, z: 0, w: 0}
        outSlope: {x: 0, y: 0, z: 0, w: 0}
        tangentMode: 0
      - time: 1.04999971
        value: {x: 0, y: 1, z: 0, w: -1.62920685e-07}
        inSlope: {x: 0, y: 0, z: 0, w: 0}
        outSlope: {x: 0, y: 0, z: 0, w: 0}
        tangentMode: 0
      - time: 1.06666636
        value: {x: 0, y: 1, z: 0, w: -1.62920685e-07}
        inSlope: {x: 0, y: 0, z: 0, w: 0}
        outSlope: {x: 0, y: 0, z: 0, w: 0}
        tangentMode: 0
      - time: 1.08333302
        value: {x: 0, y: 1, z: 0, w: -1.62920685e-07}
        inSlope: {x: 0, y: 0, z: 0, w: 0}
        outSlope: {x: 0, y: 0, z: 0, w: 0}
        tangentMode: 0
      - time: 1.09999967
        value: {x: 0, y: 1, z: 0, w: -1.62920685e-07}
        inSlope: {x: 0, y: 0, z: 0, w: 0}
        outSlope: {x: 0, y: 0, z: 0, w: 0}
        tangentMode: 0
      - time: 1.11666632
        value: {x: 0, y: 1, z: 0, w: -1.62920685e-07}
        inSlope: {x: 0, y: 0, z: 0, w: 0}
        outSlope: {x: 0, y: 0, z: 0, w: 0}
        tangentMode: 0
      - time: 1.13333297
        value: {x: 0, y: 1, z: 0, w: -1.62920685e-07}
        inSlope: {x: 0, y: 0, z: 0, w: 0}
        outSlope: {x: 0, y: 0, z: 0, w: 0}
        tangentMode: 0
      - time: 1.14999962
        value: {x: 0, y: 1, z: 0, w: -1.62920685e-07}
        inSlope: {x: 0, y: 0, z: 0, w: 0}
        outSlope: {x: 0, y: 0, z: 0, w: 0}
        tangentMode: 0
      - time: 1.16666627
        value: {x: 0, y: 1, z: 0, w: -1.62920685e-07}
        inSlope: {x: 0, y: 0, z: 0, w: 0}
        outSlope: {x: 0, y: 0, z: 0, w: 0}
        tangentMode: 0
      - time: 1.18333292
        value: {x: 0, y: 1, z: 0, w: -1.62920685e-07}
        inSlope: {x: 0, y: 0, z: 0, w: 0}
        outSlope: {x: 0, y: 0, z: 0, w: 0}
        tangentMode: 0
      - time: 1.19999957
        value: {x: 0, y: 1, z: 0, w: -1.62920685e-07}
        inSlope: {x: 0, y: 0, z: 0, w: 0}
        outSlope: {x: 0, y: 0, z: 0, w: 0}
        tangentMode: 0
      - time: 1.21666622
        value: {x: 0, y: 1, z: 0, w: -1.62920685e-07}
        inSlope: {x: 0, y: 0, z: 0, w: 0}
        outSlope: {x: 0, y: 0, z: 0, w: 0}
        tangentMode: 0
      - time: 1.23333287
        value: {x: 0, y: 1, z: 0, w: -1.62920685e-07}
        inSlope: {x: 0, y: 0, z: 0, w: 0}
        outSlope: {x: 0, y: 0, z: 0, w: 0}
        tangentMode: 0
      - time: 1.24999952
        value: {x: 0, y: 1, z: 0, w: -1.62920685e-07}
        inSlope: {x: 0, y: 0, z: 0, w: 0}
        outSlope: {x: 0, y: 0, z: 0, w: 0}
        tangentMode: 0
      - time: 1.26666617
        value: {x: 0, y: 1, z: 0, w: -1.62920685e-07}
        inSlope: {x: 0, y: 0, z: 0, w: 0}
        outSlope: {x: 0, y: 0, z: 0, w: 0}
        tangentMode: 0
      - time: 1.28333282
        value: {x: 0, y: 1, z: 0, w: -1.62920685e-07}
        inSlope: {x: 0, y: 0, z: 0, w: 0}
        outSlope: {x: 0, y: 0, z: 0, w: 0}
        tangentMode: 0
      - time: 1.29999948
        value: {x: 0, y: 1, z: 0, w: -1.62920685e-07}
        inSlope: {x: 0, y: 0, z: 0, w: 0}
        outSlope: {x: 0, y: 0, z: 0, w: 0}
        tangentMode: 0
      - time: 1.31666613
        value: {x: 0, y: 1, z: 0, w: -1.62920685e-07}
        inSlope: {x: 0, y: 0, z: 0, w: 0}
        outSlope: {x: 0, y: 0, z: 0, w: 0}
        tangentMode: 0
      - time: 1.33333278
        value: {x: 0, y: 1, z: 0, w: -1.62920685e-07}
        inSlope: {x: 0, y: 0, z: 0, w: 0}
        outSlope: {x: 0, y: 0, z: 0, w: 0}
        tangentMode: 0
      - time: 1.34999943
        value: {x: 0, y: 1, z: 0, w: -1.62920685e-07}
        inSlope: {x: 0, y: 0, z: 0, w: 0}
        outSlope: {x: 0, y: 0, z: 0, w: 0}
        tangentMode: 0
      - time: 1.36666608
        value: {x: 0, y: 1, z: 0, w: -1.62920685e-07}
        inSlope: {x: 0, y: 0, z: 0, w: 0}
        outSlope: {x: 0, y: 0, z: 0, w: 0}
        tangentMode: 0
      - time: 1.38333273
        value: {x: 0, y: 1, z: 0, w: -1.62920685e-07}
        inSlope: {x: 0, y: 0, z: 0, w: 0}
        outSlope: {x: 0, y: 0, z: 0, w: 0}
        tangentMode: 0
      - time: 1.39999938
        value: {x: 0, y: 1, z: 0, w: -1.62920685e-07}
        inSlope: {x: 0, y: 0, z: 0, w: 0}
        outSlope: {x: 0, y: 0, z: 0, w: 0}
        tangentMode: 0
      - time: 1.41666603
        value: {x: 0, y: 1, z: 0, w: -1.62920685e-07}
        inSlope: {x: 0, y: 0, z: 0, w: 0}
        outSlope: {x: 0, y: 0, z: 0, w: 0}
        tangentMode: 0
      - time: 1.43333268
        value: {x: 0, y: 1, z: 0, w: -1.62920685e-07}
        inSlope: {x: 0, y: 0, z: 0, w: 0}
        outSlope: {x: 0, y: 0, z: 0, w: 0}
        tangentMode: 0
      - time: 1.44999933
        value: {x: 0, y: 1, z: 0, w: -1.62920685e-07}
        inSlope: {x: 0, y: 0, z: 0, w: 0}
        outSlope: {x: 0, y: 0, z: 0, w: 0}
        tangentMode: 0
      - time: 1.46666598
        value: {x: 0, y: 1, z: 0, w: -1.62920685e-07}
        inSlope: {x: 0, y: 0, z: 0, w: 0}
        outSlope: {x: 0, y: 0, z: 0, w: 0}
        tangentMode: 0
      - time: 1.48333263
        value: {x: 0, y: 1, z: 0, w: -1.62920685e-07}
        inSlope: {x: 0, y: 0, z: 0, w: 0}
        outSlope: {x: 0, y: 0, z: 0, w: 0}
        tangentMode: 0
      - time: 1.49999928
        value: {x: 0, y: 1, z: 0, w: -1.62920685e-07}
        inSlope: {x: 0, y: 0, z: 0, w: 0}
        outSlope: {x: 0, y: 0, z: 0, w: 0}
        tangentMode: 0
      - time: 1.51666594
        value: {x: 0, y: 1, z: 0, w: -1.62920685e-07}
        inSlope: {x: 0, y: 0, z: 0, w: 0}
        outSlope: {x: 0, y: 0, z: 0, w: 0}
        tangentMode: 0
      - time: 1.53333259
        value: {x: 0, y: 1, z: 0, w: -1.62920685e-07}
        inSlope: {x: 0, y: 0, z: 0, w: 0}
        outSlope: {x: 0, y: 0, z: 0, w: 0}
        tangentMode: 0
      - time: 1.54999924
        value: {x: 0, y: 1, z: 0, w: -1.62920685e-07}
        inSlope: {x: 0, y: 0, z: 0, w: 0}
        outSlope: {x: 0, y: 0, z: 0, w: 0}
        tangentMode: 0
      - time: 1.56666589
        value: {x: 0, y: 1, z: 0, w: -1.62920685e-07}
        inSlope: {x: 0, y: 0, z: 0, w: 0}
        outSlope: {x: 0, y: 0, z: 0, w: 0}
        tangentMode: 0
      - time: 1.58333254
        value: {x: 0, y: 1, z: 0, w: -1.62920685e-07}
        inSlope: {x: 0, y: 0, z: 0, w: 0}
        outSlope: {x: 0, y: 0, z: 0, w: 0}
        tangentMode: 0
      - time: 1.59999919
        value: {x: 0, y: 1, z: 0, w: -1.62920685e-07}
        inSlope: {x: 0, y: 0, z: 0, w: 0}
        outSlope: {x: 0, y: 0, z: 0, w: 0}
        tangentMode: 0
      - time: 1.61666584
        value: {x: 0, y: 1, z: 0, w: -1.62920685e-07}
        inSlope: {x: 0, y: 0, z: 0, w: 0}
        outSlope: {x: 0, y: 0, z: 0, w: 0}
        tangentMode: 0
      - time: 1.63333249
        value: {x: 0, y: 1, z: 0, w: -1.62920685e-07}
        inSlope: {x: 0, y: 0, z: 0, w: 0}
        outSlope: {x: 0, y: 0, z: 0, w: 0}
        tangentMode: 0
      - time: 1.64999914
        value: {x: 0, y: 1, z: 0, w: -1.62920685e-07}
        inSlope: {x: 0, y: 0, z: 0, w: 0}
        outSlope: {x: 0, y: 0, z: 0, w: 0}
        tangentMode: 0
      - time: 1.66666579
        value: {x: 0, y: 1, z: 0, w: -1.62920685e-07}
        inSlope: {x: 0, y: 0, z: 0, w: 0}
        outSlope: {x: 0, y: 0, z: 0, w: 0}
        tangentMode: 0
      - time: 1.68333244
        value: {x: 0, y: 1, z: 0, w: -1.62920685e-07}
        inSlope: {x: 0, y: 0, z: 0, w: 0}
        outSlope: {x: 0, y: 0, z: 0, w: 0}
        tangentMode: 0
      - time: 1.69999909
        value: {x: 0, y: 1, z: 0, w: -1.62920685e-07}
        inSlope: {x: 0, y: 0, z: 0, w: 0}
        outSlope: {x: 0, y: 0, z: 0, w: 0}
        tangentMode: 0
      - time: 1.71666574
        value: {x: 0, y: 1, z: 0, w: -1.62920685e-07}
        inSlope: {x: 0, y: 0, z: 0, w: 0}
        outSlope: {x: 0, y: 0, z: 0, w: 0}
        tangentMode: 0
      - time: 1.7333324
        value: {x: 0, y: 1, z: 0, w: -1.62920685e-07}
        inSlope: {x: 0, y: 0, z: 0, w: 0}
        outSlope: {x: 0, y: 0, z: 0, w: 0}
        tangentMode: 0
      - time: 1.74999905
        value: {x: 0, y: 1, z: 0, w: -1.62920685e-07}
        inSlope: {x: 0, y: 0, z: 0, w: 0}
        outSlope: {x: 0, y: 0, z: 0, w: 0}
        tangentMode: 0
      - time: 1.7666657
        value: {x: 0, y: 1, z: 0, w: -1.62920685e-07}
        inSlope: {x: 0, y: 0, z: 0, w: 0}
        outSlope: {x: 0, y: 0, z: 0, w: 0}
        tangentMode: 0
      - time: 1.78333235
        value: {x: 0, y: 1, z: 0, w: -1.62920685e-07}
        inSlope: {x: 0, y: 0, z: 0, w: 0}
        outSlope: {x: 0, y: 0, z: 0, w: 0}
        tangentMode: 0
      - time: 1.799999
        value: {x: 0, y: 1, z: 0, w: -1.62920685e-07}
        inSlope: {x: 0, y: 0, z: 0, w: 0}
        outSlope: {x: 0, y: 0, z: 0, w: 0}
        tangentMode: 0
      - time: 1.81666565
        value: {x: 0, y: 1, z: 0, w: -1.62920685e-07}
        inSlope: {x: 0, y: 0, z: 0, w: 0}
        outSlope: {x: 0, y: 0, z: 0, w: 0}
        tangentMode: 0
      - time: 1.8333323
        value: {x: 0, y: 1, z: 0, w: -1.62920685e-07}
        inSlope: {x: 0, y: 0, z: 0, w: 0}
        outSlope: {x: 0, y: 0, z: 0, w: 0}
        tangentMode: 0
      - time: 1.84999895
        value: {x: 0, y: 1, z: 0, w: -1.62920685e-07}
        inSlope: {x: 0, y: 0, z: 0, w: 0}
        outSlope: {x: 0, y: 0, z: 0, w: 0}
        tangentMode: 0
      - time: 1.8666656
        value: {x: 0, y: 1, z: 0, w: -1.62920685e-07}
        inSlope: {x: 0, y: 0, z: 0, w: 0}
        outSlope: {x: 0, y: 0, z: 0, w: 0}
        tangentMode: 0
      - time: 1.88333225
        value: {x: 0, y: 1, z: 0, w: -1.62920685e-07}
        inSlope: {x: 0, y: 0, z: 0, w: 0}
        outSlope: {x: 0, y: 0, z: 0, w: 0}
        tangentMode: 0
      - time: 1.8999989
        value: {x: 0, y: 1, z: 0, w: -1.62920685e-07}
        inSlope: {x: 0, y: 0, z: 0, w: 0}
        outSlope: {x: 0, y: 0, z: 0, w: 0}
        tangentMode: 0
      - time: 1.91666663
        value: {x: 0, y: 1, z: 0, w: -1.62920685e-07}
        inSlope: {x: 0, y: 0, z: 0, w: 0}
        outSlope: {x: 0, y: 0, z: 0, w: 0}
        tangentMode: 0
      m_PreInfinity: 2
      m_PostInfinity: 2
    path: 
  m_CompressedRotationCurves: []
  m_PositionCurves:
  - curve:
      serializedVersion: 2
      m_Curve:
      - time: 0
        value: {x: .829999983, y: 0, z: .99000001}
        inSlope: {x: 0, y: 0, z: -1.82808506}
        outSlope: {x: 0, y: 0, z: 0}
        tangentMode: 0
      - time: 1.91666663
        value: {x: .829999983, y: 0, z: -2.80675983}
        inSlope: {x: 0, y: 0, z: -1.98091817}
        outSlope: {x: 0, y: 0, z: -1.98091817}
        tangentMode: 0
      m_PreInfinity: 2
      m_PostInfinity: 2
    path: 
  m_ScaleCurves: []
  m_FloatCurves: []
  m_PPtrCurves: []
  m_SampleRate: 60
  m_WrapMode: 0
  m_Bounds:
    m_Center: {x: 0, y: 0, z: 0}
    m_Extent: {x: 0, y: 0, z: 0}
  m_ClipBindingConstant:
    genericBindings:
    - path: 0
      attribute: 1
      script: {fileID: 0}
      classID: 4
      customType: 0
      isPPtrCurve: 0
    - path: 0
      attribute: 2
      script: {fileID: 0}
      classID: 4
      customType: 0
      isPPtrCurve: 0
    pptrCurveMapping: []
  m_AnimationClipSettings:
    serializedVersion: 2
    m_StartTime: 0
    m_StopTime: 1.91666663
    m_OrientationOffsetY: 0
    m_Level: 0
    m_CycleOffset: 0
    m_LoopTime: 0
    m_LoopBlend: 0
    m_LoopBlendOrientation: 0
    m_LoopBlendPositionY: 0
    m_LoopBlendPositionXZ: 0
    m_KeepOriginalOrientation: 0
    m_KeepOriginalPositionY: 1
    m_KeepOriginalPositionXZ: 0
    m_HeightFromFeet: 0
    m_Mirror: 0
  m_EditorCurves:
  - curve:
      serializedVersion: 2
      m_Curve:
      - time: 0
        value: .829999983
        inSlope: 0
        outSlope: 0
        tangentMode: 5
      - time: 1.91666663
        value: .829999983
        inSlope: 0
        outSlope: 0
        tangentMode: 10
      m_PreInfinity: 2
      m_PostInfinity: 2
    attribute: m_LocalPosition.x
    path: 
    classID: 4
    script: {fileID: 0}
  - curve:
      serializedVersion: 2
      m_Curve:
      - time: 0
        value: 0
        inSlope: 0
        outSlope: 0
        tangentMode: 10
      - time: 1.91666663
        value: 0
        inSlope: 0
        outSlope: 0
        tangentMode: 10
      m_PreInfinity: 2
      m_PostInfinity: 2
    attribute: m_LocalPosition.y
    path: 
    classID: 4
    script: {fileID: 0}
  - curve:
      serializedVersion: 2
      m_Curve:
      - time: 0
        value: .99000001
        inSlope: -1.82808506
        outSlope: 0
        tangentMode: 5
      - time: 1.91666663
        value: -2.80675983
        inSlope: -1.98091817
        outSlope: -1.98091817
        tangentMode: 10
      m_PreInfinity: 2
      m_PostInfinity: 2
    attribute: m_LocalPosition.z
    path: 
    classID: 4
    script: {fileID: 0}
  - curve:
      serializedVersion: 2
      m_Curve:
      - time: 0
        value: 0
        inSlope: 0
        outSlope: 0
        tangentMode: 0
      - time: .0166666675
        value: 0
        inSlope: 0
        outSlope: 0
        tangentMode: 0
      - time: .0333333351
        value: 0
        inSlope: 0
        outSlope: 0
        tangentMode: 0
      - time: .0500000045
        value: 0
        inSlope: 0
        outSlope: 0
        tangentMode: 0
      - time: .0666666701
        value: 0
        inSlope: 0
        outSlope: 0
        tangentMode: 0
      - time: .0833333358
        value: 0
        inSlope: 0
        outSlope: 0
        tangentMode: 0
      - time: .100000001
        value: 0
        inSlope: 0
        outSlope: 0
        tangentMode: 0
      - time: .116666667
        value: 0
        inSlope: 0
        outSlope: 0
        tangentMode: 0
      - time: .13333334
        value: 0
        inSlope: 0
        outSlope: 0
        tangentMode: 0
      - time: .150000006
        value: 0
        inSlope: 0
        outSlope: 0
        tangentMode: 0
      - time: .166666672
        value: 0
        inSlope: 0
        outSlope: 0
        tangentMode: 0
      - time: .183333337
        value: 0
        inSlope: 0
        outSlope: 0
        tangentMode: 0
      - time: .200000003
        value: 0
        inSlope: 0
        outSlope: 0
        tangentMode: 0
      - time: .216666669
        value: 0
        inSlope: 0
        outSlope: 0
        tangentMode: 0
      - time: .233333334
        value: 0
        inSlope: 0
        outSlope: 0
        tangentMode: 0
      - time: .25
        value: 0
        inSlope: 0
        outSlope: 0
        tangentMode: 0
      - time: .266666681
        value: 0
        inSlope: 0
        outSlope: 0
        tangentMode: 0
      - time: .283333361
        value: 0
        inSlope: 0
        outSlope: 0
        tangentMode: 0
      - time: .300000042
        value: 0
        inSlope: 0
        outSlope: 0
        tangentMode: 0
      - time: .316666722
        value: 0
        inSlope: 0
        outSlope: 0
        tangentMode: 0
      - time: .333333403
        value: 0
        inSlope: 0
        outSlope: 0
        tangentMode: 0
      - time: .350000083
        value: 0
        inSlope: 0
        outSlope: 0
        tangentMode: 0
      - time: .366666764
        value: 0
        inSlope: 0
        outSlope: 0
        tangentMode: 0
      - time: .383333445
        value: 0
        inSlope: 0
        outSlope: 0
        tangentMode: 0
      - time: .400000125
        value: 0
        inSlope: 0
        outSlope: 0
        tangentMode: 0
      - time: .416666806
        value: 0
        inSlope: 0
        outSlope: 0
        tangentMode: 0
      - time: .433333486
        value: 0
        inSlope: 0
        outSlope: 0
        tangentMode: 0
      - time: .450000167
        value: 0
        inSlope: 0
        outSlope: 0
        tangentMode: 0
      - time: .466666847
        value: 0
        inSlope: 0
        outSlope: 0
        tangentMode: 0
      - time: .483333528
        value: 0
        inSlope: 0
        outSlope: 0
        tangentMode: 0
      - time: .500000179
        value: 0
        inSlope: 0
        outSlope: 0
        tangentMode: 0
      - time: .51666683
        value: 0
        inSlope: 0
        outSlope: 0
        tangentMode: 0
      - time: .53333348
        value: 0
        inSlope: 0
        outSlope: 0
        tangentMode: 0
      - time: .550000131
        value: 0
        inSlope: 0
        outSlope: 0
        tangentMode: 0
      - time: .566666782
        value: 0
        inSlope: 0
        outSlope: 0
        tangentMode: 0
      - time: .583333433
        value: 0
        inSlope: 0
        outSlope: 0
        tangentMode: 0
      - time: .600000083
        value: 0
        inSlope: 0
        outSlope: 0
        tangentMode: 0
      - time: .616666734
        value: 0
        inSlope: 0
        outSlope: 0
        tangentMode: 0
      - time: .633333385
        value: 0
        inSlope: 0
        outSlope: 0
        tangentMode: 0
      - time: .650000036
        value: 0
        inSlope: 0
        outSlope: 0
        tangentMode: 0
      - time: .666666687
        value: 0
        inSlope: 0
        outSlope: 0
        tangentMode: 0
      - time: .683333337
        value: 0
        inSlope: 0
        outSlope: 0
        tangentMode: 0
      - time: .699999988
        value: 0
        inSlope: 0
        outSlope: 0
        tangentMode: 0
      - time: .716666639
        value: 0
        inSlope: 0
        outSlope: 0
        tangentMode: 0
      - time: .73333329
        value: 0
        inSlope: 0
        outSlope: 0
        tangentMode: 0
      - time: .74999994
        value: 0
        inSlope: 0
        outSlope: 0
        tangentMode: 0
      - time: .766666591
        value: 0
        inSlope: 0
        outSlope: 0
        tangentMode: 0
      - time: .783333242
        value: 0
        inSlope: 0
        outSlope: 0
        tangentMode: 0
      - time: .799999893
        value: 0
        inSlope: 0
        outSlope: 0
        tangentMode: 0
      - time: .816666543
        value: 0
        inSlope: 0
        outSlope: 0
        tangentMode: 0
      - time: .833333194
        value: 0
        inSlope: 0
        outSlope: 0
        tangentMode: 0
      - time: .849999845
        value: 0
        inSlope: 0
        outSlope: 0
        tangentMode: 0
      - time: .866666496
        value: 0
        inSlope: 0
        outSlope: 0
        tangentMode: 0
      - time: .883333147
        value: 0
        inSlope: 0
        outSlope: 0
        tangentMode: 0
      - time: .899999797
        value: 0
        inSlope: 0
        outSlope: 0
        tangentMode: 0
      - time: .916666448
        value: 0
        inSlope: 0
        outSlope: 0
        tangentMode: 0
      - time: .933333099
        value: 0
        inSlope: 0
        outSlope: 0
        tangentMode: 0
      - time: .94999975
        value: 0
        inSlope: 0
        outSlope: 0
        tangentMode: 0
      - time: .9666664
        value: 0
        inSlope: 0
        outSlope: 0
        tangentMode: 0
      - time: .983333051
        value: 0
        inSlope: 0
        outSlope: 0
        tangentMode: 0
      - time: .999999702
        value: 0
        inSlope: 0
        outSlope: 0
        tangentMode: 0
      - time: 1.01666641
        value: 0
        inSlope: 0
        outSlope: 0
        tangentMode: 0
      - time: 1.03333306
        value: 0
        inSlope: 0
        outSlope: 0
        tangentMode: 0
      - time: 1.04999971
        value: 0
        inSlope: 0
        outSlope: 0
        tangentMode: 0
      - time: 1.06666636
        value: 0
        inSlope: 0
        outSlope: 0
        tangentMode: 0
      - time: 1.08333302
        value: 0
        inSlope: 0
        outSlope: 0
        tangentMode: 0
      - time: 1.09999967
        value: 0
        inSlope: 0
        outSlope: 0
        tangentMode: 0
      - time: 1.11666632
        value: 0
        inSlope: 0
        outSlope: 0
        tangentMode: 0
      - time: 1.13333297
        value: 0
        inSlope: 0
        outSlope: 0
        tangentMode: 0
      - time: 1.14999962
        value: 0
        inSlope: 0
        outSlope: 0
        tangentMode: 0
      - time: 1.16666627
        value: 0
        inSlope: 0
        outSlope: 0
        tangentMode: 0
      - time: 1.18333292
        value: 0
        inSlope: 0
        outSlope: 0
        tangentMode: 0
      - time: 1.19999957
        value: 0
        inSlope: 0
        outSlope: 0
        tangentMode: 0
      - time: 1.21666622
        value: 0
        inSlope: 0
        outSlope: 0
        tangentMode: 0
      - time: 1.23333287
        value: 0
        inSlope: 0
        outSlope: 0
        tangentMode: 0
      - time: 1.24999952
        value: 0
        inSlope: 0
        outSlope: 0
        tangentMode: 0
      - time: 1.26666617
        value: 0
        inSlope: 0
        outSlope: 0
        tangentMode: 0
      - time: 1.28333282
        value: 0
        inSlope: 0
        outSlope: 0
        tangentMode: 0
      - time: 1.29999948
        value: 0
        inSlope: 0
        outSlope: 0
        tangentMode: 0
      - time: 1.31666613
        value: 0
        inSlope: 0
        outSlope: 0
        tangentMode: 0
      - time: 1.33333278
        value: 0
        inSlope: 0
        outSlope: 0
        tangentMode: 0
      - time: 1.34999943
        value: 0
        inSlope: 0
        outSlope: 0
        tangentMode: 0
      - time: 1.36666608
        value: 0
        inSlope: 0
        outSlope: 0
        tangentMode: 0
      - time: 1.38333273
        value: 0
        inSlope: 0
        outSlope: 0
        tangentMode: 0
      - time: 1.39999938
        value: 0
        inSlope: 0
        outSlope: 0
        tangentMode: 0
      - time: 1.41666603
        value: 0
        inSlope: 0
        outSlope: 0
        tangentMode: 0
      - time: 1.43333268
        value: 0
        inSlope: 0
        outSlope: 0
        tangentMode: 0
      - time: 1.44999933
        value: 0
        inSlope: 0
        outSlope: 0
        tangentMode: 0
      - time: 1.46666598
        value: 0
        inSlope: 0
        outSlope: 0
        tangentMode: 0
      - time: 1.48333263
        value: 0
        inSlope: 0
        outSlope: 0
        tangentMode: 0
      - time: 1.49999928
        value: 0
        inSlope: 0
        outSlope: 0
        tangentMode: 0
      - time: 1.51666594
        value: 0
        inSlope: 0
        outSlope: 0
        tangentMode: 0
      - time: 1.53333259
        value: 0
        inSlope: 0
        outSlope: 0
        tangentMode: 0
      - time: 1.54999924
        value: 0
        inSlope: 0
        outSlope: 0
        tangentMode: 0
      - time: 1.56666589
        value: 0
        inSlope: 0
        outSlope: 0
        tangentMode: 0
      - time: 1.58333254
        value: 0
        inSlope: 0
        outSlope: 0
        tangentMode: 0
      - time: 1.59999919
        value: 0
        inSlope: 0
        outSlope: 0
        tangentMode: 0
      - time: 1.61666584
        value: 0
        inSlope: 0
        outSlope: 0
        tangentMode: 0
      - time: 1.63333249
        value: 0
        inSlope: 0
        outSlope: 0
        tangentMode: 0
      - time: 1.64999914
        value: 0
        inSlope: 0
        outSlope: 0
        tangentMode: 0
      - time: 1.66666579
        value: 0
        inSlope: 0
        outSlope: 0
        tangentMode: 0
      - time: 1.68333244
        value: 0
        inSlope: 0
        outSlope: 0
        tangentMode: 0
      - time: 1.69999909
        value: 0
        inSlope: 0
        outSlope: 0
        tangentMode: 0
      - time: 1.71666574
        value: 0
        inSlope: 0
        outSlope: 0
        tangentMode: 0
      - time: 1.7333324
        value: 0
        inSlope: 0
        outSlope: 0
        tangentMode: 0
      - time: 1.74999905
        value: 0
        inSlope: 0
        outSlope: 0
        tangentMode: 0
      - time: 1.7666657
        value: 0
        inSlope: 0
        outSlope: 0
        tangentMode: 0
      - time: 1.78333235
        value: 0
        inSlope: 0
        outSlope: 0
        tangentMode: 0
      - time: 1.799999
        value: 0
        inSlope: 0
        outSlope: 0
        tangentMode: 0
      - time: 1.81666565
        value: 0
        inSlope: 0
        outSlope: 0
        tangentMode: 0
      - time: 1.8333323
        value: 0
        inSlope: 0
        outSlope: 0
        tangentMode: 0
      - time: 1.84999895
        value: 0
        inSlope: 0
        outSlope: 0
        tangentMode: 0
      - time: 1.8666656
        value: 0
        inSlope: 0
        outSlope: 0
        tangentMode: 0
      - time: 1.88333225
        value: 0
        inSlope: 0
        outSlope: 0
        tangentMode: 0
      - time: 1.8999989
        value: 0
        inSlope: 0
        outSlope: 0
        tangentMode: 0
      - time: 1.91666663
        value: 0
        inSlope: 0
        outSlope: 0
        tangentMode: 0
      m_PreInfinity: 2
      m_PostInfinity: 2
    attribute: m_LocalRotation.x
    path: 
    classID: 4
    script: {fileID: 0}
  - curve:
      serializedVersion: 2
      m_Curve:
      - time: 0
        value: 1
        inSlope: 0
        outSlope: 0
        tangentMode: 0
      - time: .0166666675
        value: 1
        inSlope: 0
        outSlope: 0
        tangentMode: 0
      - time: .0333333351
        value: 1
        inSlope: 0
        outSlope: 0
        tangentMode: 0
      - time: .0500000045
        value: 1
        inSlope: 0
        outSlope: 0
        tangentMode: 0
      - time: .0666666701
        value: 1
        inSlope: 0
        outSlope: 0
        tangentMode: 0
      - time: .0833333358
        value: 1
        inSlope: 0
        outSlope: 0
        tangentMode: 0
      - time: .100000001
        value: 1
        inSlope: 0
        outSlope: 0
        tangentMode: 0
      - time: .116666667
        value: 1
        inSlope: 0
        outSlope: 0
        tangentMode: 0
      - time: .13333334
        value: 1
        inSlope: 0
        outSlope: 0
        tangentMode: 0
      - time: .150000006
        value: 1
        inSlope: 0
        outSlope: 0
        tangentMode: 0
      - time: .166666672
        value: 1
        inSlope: 0
        outSlope: 0
        tangentMode: 0
      - time: .183333337
        value: 1
        inSlope: 0
        outSlope: 0
        tangentMode: 0
      - time: .200000003
        value: 1
        inSlope: 0
        outSlope: 0
        tangentMode: 0
      - time: .216666669
        value: 1
        inSlope: 0
        outSlope: 0
        tangentMode: 0
      - time: .233333334
        value: 1
        inSlope: 0
        outSlope: 0
        tangentMode: 0
      - time: .25
        value: 1
        inSlope: 0
        outSlope: 0
        tangentMode: 0
      - time: .266666681
        value: 1
        inSlope: 0
        outSlope: 0
        tangentMode: 0
      - time: .283333361
        value: 1
        inSlope: 0
        outSlope: 0
        tangentMode: 0
      - time: .300000042
        value: 1
        inSlope: 0
        outSlope: 0
        tangentMode: 0
      - time: .316666722
        value: 1
        inSlope: 0
        outSlope: 0
        tangentMode: 0
      - time: .333333403
        value: 1
        inSlope: 0
        outSlope: 0
        tangentMode: 0
      - time: .350000083
        value: 1
        inSlope: 0
        outSlope: 0
        tangentMode: 0
      - time: .366666764
        value: 1
        inSlope: 0
        outSlope: 0
        tangentMode: 0
      - time: .383333445
        value: 1
        inSlope: 0
        outSlope: 0
        tangentMode: 0
      - time: .400000125
        value: 1
        inSlope: 0
        outSlope: 0
        tangentMode: 0
      - time: .416666806
        value: 1
        inSlope: 0
        outSlope: 0
        tangentMode: 0
      - time: .433333486
        value: 1
        inSlope: 0
        outSlope: 0
        tangentMode: 0
      - time: .450000167
        value: 1
        inSlope: 0
        outSlope: 0
        tangentMode: 0
      - time: .466666847
        value: 1
        inSlope: 0
        outSlope: 0
        tangentMode: 0
      - time: .483333528
        value: 1
        inSlope: 0
        outSlope: 0
        tangentMode: 0
      - time: .500000179
        value: 1
        inSlope: 0
        outSlope: 0
        tangentMode: 0
      - time: .51666683
        value: 1
        inSlope: 0
        outSlope: 0
        tangentMode: 0
      - time: .53333348
        value: 1
        inSlope: 0
        outSlope: 0
        tangentMode: 0
      - time: .550000131
        value: 1
        inSlope: 0
        outSlope: 0
        tangentMode: 0
      - time: .566666782
        value: 1
        inSlope: 0
        outSlope: 0
        tangentMode: 0
      - time: .583333433
        value: 1
        inSlope: 0
        outSlope: 0
        tangentMode: 0
      - time: .600000083
        value: 1
        inSlope: 0
        outSlope: 0
        tangentMode: 0
      - time: .616666734
        value: 1
        inSlope: 0
        outSlope: 0
        tangentMode: 0
      - time: .633333385
        value: 1
        inSlope: 0
        outSlope: 0
        tangentMode: 0
      - time: .650000036
        value: 1
        inSlope: 0
        outSlope: 0
        tangentMode: 0
      - time: .666666687
        value: 1
        inSlope: 0
        outSlope: 0
        tangentMode: 0
      - time: .683333337
        value: 1
        inSlope: 0
        outSlope: 0
        tangentMode: 0
      - time: .699999988
        value: 1
        inSlope: 0
        outSlope: 0
        tangentMode: 0
      - time: .716666639
        value: 1
        inSlope: 0
        outSlope: 0
        tangentMode: 0
      - time: .73333329
        value: 1
        inSlope: 0
        outSlope: 0
        tangentMode: 0
      - time: .74999994
        value: 1
        inSlope: 0
        outSlope: 0
        tangentMode: 0
      - time: .766666591
        value: 1
        inSlope: 0
        outSlope: 0
        tangentMode: 0
      - time: .783333242
        value: 1
        inSlope: 0
        outSlope: 0
        tangentMode: 0
      - time: .799999893
        value: 1
        inSlope: 0
        outSlope: 0
        tangentMode: 0
      - time: .816666543
        value: 1
        inSlope: 0
        outSlope: 0
        tangentMode: 0
      - time: .833333194
        value: 1
        inSlope: 0
        outSlope: 0
        tangentMode: 0
      - time: .849999845
        value: 1
        inSlope: 0
        outSlope: 0
        tangentMode: 0
      - time: .866666496
        value: 1
        inSlope: 0
        outSlope: 0
        tangentMode: 0
      - time: .883333147
        value: 1
        inSlope: 0
        outSlope: 0
        tangentMode: 0
      - time: .899999797
        value: 1
        inSlope: 0
        outSlope: 0
        tangentMode: 0
      - time: .916666448
        value: 1
        inSlope: 0
        outSlope: 0
        tangentMode: 0
      - time: .933333099
        value: 1
        inSlope: 0
        outSlope: 0
        tangentMode: 0
      - time: .94999975
        value: 1
        inSlope: 0
        outSlope: 0
        tangentMode: 0
      - time: .9666664
        value: 1
        inSlope: 0
        outSlope: 0
        tangentMode: 0
      - time: .983333051
        value: 1
        inSlope: 0
        outSlope: 0
        tangentMode: 0
      - time: .999999702
        value: 1
        inSlope: 0
        outSlope: 0
        tangentMode: 0
      - time: 1.01666641
        value: 1
        inSlope: 0
        outSlope: 0
        tangentMode: 0
      - time: 1.03333306
        value: 1
        inSlope: 0
        outSlope: 0
        tangentMode: 0
      - time: 1.04999971
        value: 1
        inSlope: 0
        outSlope: 0
        tangentMode: 0
      - time: 1.06666636
        value: 1
        inSlope: 0
        outSlope: 0
        tangentMode: 0
      - time: 1.08333302
        value: 1
        inSlope: 0
        outSlope: 0
        tangentMode: 0
      - time: 1.09999967
        value: 1
        inSlope: 0
        outSlope: 0
        tangentMode: 0
      - time: 1.11666632
        value: 1
        inSlope: 0
        outSlope: 0
        tangentMode: 0
      - time: 1.13333297
        value: 1
        inSlope: 0
        outSlope: 0
        tangentMode: 0
      - time: 1.14999962
        value: 1
        inSlope: 0
        outSlope: 0
        tangentMode: 0
      - time: 1.16666627
        value: 1
        inSlope: 0
        outSlope: 0
        tangentMode: 0
      - time: 1.18333292
        value: 1
        inSlope: 0
        outSlope: 0
        tangentMode: 0
      - time: 1.19999957
        value: 1
        inSlope: 0
        outSlope: 0
        tangentMode: 0
      - time: 1.21666622
        value: 1
        inSlope: 0
        outSlope: 0
        tangentMode: 0
      - time: 1.23333287
        value: 1
        inSlope: 0
        outSlope: 0
        tangentMode: 0
      - time: 1.24999952
        value: 1
        inSlope: 0
        outSlope: 0
        tangentMode: 0
      - time: 1.26666617
        value: 1
        inSlope: 0
        outSlope: 0
        tangentMode: 0
      - time: 1.28333282
        value: 1
        inSlope: 0
        outSlope: 0
        tangentMode: 0
      - time: 1.29999948
        value: 1
        inSlope: 0
        outSlope: 0
        tangentMode: 0
      - time: 1.31666613
        value: 1
        inSlope: 0
        outSlope: 0
        tangentMode: 0
      - time: 1.33333278
        value: 1
        inSlope: 0
        outSlope: 0
        tangentMode: 0
      - time: 1.34999943
        value: 1
        inSlope: 0
        outSlope: 0
        tangentMode: 0
      - time: 1.36666608
        value: 1
        inSlope: 0
        outSlope: 0
        tangentMode: 0
      - time: 1.38333273
        value: 1
        inSlope: 0
        outSlope: 0
        tangentMode: 0
      - time: 1.39999938
        value: 1
        inSlope: 0
        outSlope: 0
        tangentMode: 0
      - time: 1.41666603
        value: 1
        inSlope: 0
        outSlope: 0
        tangentMode: 0
      - time: 1.43333268
        value: 1
        inSlope: 0
        outSlope: 0
        tangentMode: 0
      - time: 1.44999933
        value: 1
        inSlope: 0
        outSlope: 0
        tangentMode: 0
      - time: 1.46666598
        value: 1
        inSlope: 0
        outSlope: 0
        tangentMode: 0
      - time: 1.48333263
        value: 1
        inSlope: 0
        outSlope: 0
        tangentMode: 0
      - time: 1.49999928
        value: 1
        inSlope: 0
        outSlope: 0
        tangentMode: 0
      - time: 1.51666594
        value: 1
        inSlope: 0
        outSlope: 0
        tangentMode: 0
      - time: 1.53333259
        value: 1
        inSlope: 0
        outSlope: 0
        tangentMode: 0
      - time: 1.54999924
        value: 1
        inSlope: 0
        outSlope: 0
        tangentMode: 0
      - time: 1.56666589
        value: 1
        inSlope: 0
        outSlope: 0
        tangentMode: 0
      - time: 1.58333254
        value: 1
        inSlope: 0
        outSlope: 0
        tangentMode: 0
      - time: 1.59999919
        value: 1
        inSlope: 0
        outSlope: 0
        tangentMode: 0
      - time: 1.61666584
        value: 1
        inSlope: 0
        outSlope: 0
        tangentMode: 0
      - time: 1.63333249
        value: 1
        inSlope: 0
        outSlope: 0
        tangentMode: 0
      - time: 1.64999914
        value: 1
        inSlope: 0
        outSlope: 0
        tangentMode: 0
      - time: 1.66666579
        value: 1
        inSlope: 0
        outSlope: 0
        tangentMode: 0
      - time: 1.68333244
        value: 1
        inSlope: 0
        outSlope: 0
        tangentMode: 0
      - time: 1.69999909
        value: 1
        inSlope: 0
        outSlope: 0
        tangentMode: 0
      - time: 1.71666574
        value: 1
        inSlope: 0
        outSlope: 0
        tangentMode: 0
      - time: 1.7333324
        value: 1
        inSlope: 0
        outSlope: 0
        tangentMode: 0
      - time: 1.74999905
        value: 1
        inSlope: 0
        outSlope: 0
        tangentMode: 0
      - time: 1.7666657
        value: 1
        inSlope: 0
        outSlope: 0
        tangentMode: 0
      - time: 1.78333235
        value: 1
        inSlope: 0
        outSlope: 0
        tangentMode: 0
      - time: 1.799999
        value: 1
        inSlope: 0
        outSlope: 0
        tangentMode: 0
      - time: 1.81666565
        value: 1
        inSlope: 0
        outSlope: 0
        tangentMode: 0
      - time: 1.8333323
        value: 1
        inSlope: 0
        outSlope: 0
        tangentMode: 0
      - time: 1.84999895
        value: 1
        inSlope: 0
        outSlope: 0
        tangentMode: 0
      - time: 1.8666656
        value: 1
        inSlope: 0
        outSlope: 0
        tangentMode: 0
      - time: 1.88333225
        value: 1
        inSlope: 0
        outSlope: 0
        tangentMode: 0
      - time: 1.8999989
        value: 1
        inSlope: 0
        outSlope: 0
        tangentMode: 0
      - time: 1.91666663
        value: 1
        inSlope: 0
        outSlope: 0
        tangentMode: 0
      m_PreInfinity: 2
      m_PostInfinity: 2
    attribute: m_LocalRotation.y
    path: 
    classID: 4
    script: {fileID: 0}
  - curve:
      serializedVersion: 2
      m_Curve:
      - time: 0
        value: 0
        inSlope: 0
        outSlope: 0
        tangentMode: 0
      - time: .0166666675
        value: 0
        inSlope: 0
        outSlope: 0
        tangentMode: 0
      - time: .0333333351
        value: 0
        inSlope: 0
        outSlope: 0
        tangentMode: 0
      - time: .0500000045
        value: 0
        inSlope: 0
        outSlope: 0
        tangentMode: 0
      - time: .0666666701
        value: 0
        inSlope: 0
        outSlope: 0
        tangentMode: 0
      - time: .0833333358
        value: 0
        inSlope: 0
        outSlope: 0
        tangentMode: 0
      - time: .100000001
        value: 0
        inSlope: 0
        outSlope: 0
        tangentMode: 0
      - time: .116666667
        value: 0
        inSlope: 0
        outSlope: 0
        tangentMode: 0
      - time: .13333334
        value: 0
        inSlope: 0
        outSlope: 0
        tangentMode: 0
      - time: .150000006
        value: 0
        inSlope: 0
        outSlope: 0
        tangentMode: 0
      - time: .166666672
        value: 0
        inSlope: 0
        outSlope: 0
        tangentMode: 0
      - time: .183333337
        value: 0
        inSlope: 0
        outSlope: 0
        tangentMode: 0
      - time: .200000003
        value: 0
        inSlope: 0
        outSlope: 0
        tangentMode: 0
      - time: .216666669
        value: 0
        inSlope: 0
        outSlope: 0
        tangentMode: 0
      - time: .233333334
        value: 0
        inSlope: 0
        outSlope: 0
        tangentMode: 0
      - time: .25
        value: 0
        inSlope: 0
        outSlope: 0
        tangentMode: 0
      - time: .266666681
        value: 0
        inSlope: 0
        outSlope: 0
        tangentMode: 0
      - time: .283333361
        value: 0
        inSlope: 0
        outSlope: 0
        tangentMode: 0
      - time: .300000042
        value: 0
        inSlope: 0
        outSlope: 0
        tangentMode: 0
      - time: .316666722
        value: 0
        inSlope: 0
        outSlope: 0
        tangentMode: 0
      - time: .333333403
        value: 0
        inSlope: 0
        outSlope: 0
        tangentMode: 0
      - time: .350000083
        value: 0
        inSlope: 0
        outSlope: 0
        tangentMode: 0
      - time: .366666764
        value: 0
        inSlope: 0
        outSlope: 0
        tangentMode: 0
      - time: .383333445
        value: 0
        inSlope: 0
        outSlope: 0
        tangentMode: 0
      - time: .400000125
        value: 0
        inSlope: 0
        outSlope: 0
        tangentMode: 0
      - time: .416666806
        value: 0
        inSlope: 0
        outSlope: 0
        tangentMode: 0
      - time: .433333486
        value: 0
        inSlope: 0
        outSlope: 0
        tangentMode: 0
      - time: .450000167
        value: 0
        inSlope: 0
        outSlope: 0
        tangentMode: 0
      - time: .466666847
        value: 0
        inSlope: 0
        outSlope: 0
        tangentMode: 0
      - time: .483333528
        value: 0
        inSlope: 0
        outSlope: 0
        tangentMode: 0
      - time: .500000179
        value: 0
        inSlope: 0
        outSlope: 0
        tangentMode: 0
      - time: .51666683
        value: 0
        inSlope: 0
        outSlope: 0
        tangentMode: 0
      - time: .53333348
        value: 0
        inSlope: 0
        outSlope: 0
        tangentMode: 0
      - time: .550000131
        value: 0
        inSlope: 0
        outSlope: 0
        tangentMode: 0
      - time: .566666782
        value: 0
        inSlope: 0
        outSlope: 0
        tangentMode: 0
      - time: .583333433
        value: 0
        inSlope: 0
        outSlope: 0
        tangentMode: 0
      - time: .600000083
        value: 0
        inSlope: 0
        outSlope: 0
        tangentMode: 0
      - time: .616666734
        value: 0
        inSlope: 0
        outSlope: 0
        tangentMode: 0
      - time: .633333385
        value: 0
        inSlope: 0
        outSlope: 0
        tangentMode: 0
      - time: .650000036
        value: 0
        inSlope: 0
        outSlope: 0
        tangentMode: 0
      - time: .666666687
        value: 0
        inSlope: 0
        outSlope: 0
        tangentMode: 0
      - time: .683333337
        value: 0
        inSlope: 0
        outSlope: 0
        tangentMode: 0
      - time: .699999988
        value: 0
        inSlope: 0
        outSlope: 0
        tangentMode: 0
      - time: .716666639
        value: 0
        inSlope: 0
        outSlope: 0
        tangentMode: 0
      - time: .73333329
        value: 0
        inSlope: 0
        outSlope: 0
        tangentMode: 0
      - time: .74999994
        value: 0
        inSlope: 0
        outSlope: 0
        tangentMode: 0
      - time: .766666591
        value: 0
        inSlope: 0
        outSlope: 0
        tangentMode: 0
      - time: .783333242
        value: 0
        inSlope: 0
        outSlope: 0
        tangentMode: 0
      - time: .799999893
        value: 0
        inSlope: 0
        outSlope: 0
        tangentMode: 0
      - time: .816666543
        value: 0
        inSlope: 0
        outSlope: 0
        tangentMode: 0
      - time: .833333194
        value: 0
        inSlope: 0
        outSlope: 0
        tangentMode: 0
      - time: .849999845
        value: 0
        inSlope: 0
        outSlope: 0
        tangentMode: 0
      - time: .866666496
        value: 0
        inSlope: 0
        outSlope: 0
        tangentMode: 0
      - time: .883333147
        value: 0
        inSlope: 0
        outSlope: 0
        tangentMode: 0
      - time: .899999797
        value: 0
        inSlope: 0
        outSlope: 0
        tangentMode: 0
      - time: .916666448
        value: 0
        inSlope: 0
        outSlope: 0
        tangentMode: 0
      - time: .933333099
        value: 0
        inSlope: 0
        outSlope: 0
        tangentMode: 0
      - time: .94999975
        value: 0
        inSlope: 0
        outSlope: 0
        tangentMode: 0
      - time: .9666664
        value: 0
        inSlope: 0
        outSlope: 0
        tangentMode: 0
      - time: .983333051
        value: 0
        inSlope: 0
        outSlope: 0
        tangentMode: 0
      - time: .999999702
        value: 0
        inSlope: 0
        outSlope: 0
        tangentMode: 0
      - time: 1.01666641
        value: 0
        inSlope: 0
        outSlope: 0
        tangentMode: 0
      - time: 1.03333306
        value: 0
        inSlope: 0
        outSlope: 0
        tangentMode: 0
      - time: 1.04999971
        value: 0
        inSlope: 0
        outSlope: 0
        tangentMode: 0
      - time: 1.06666636
        value: 0
        inSlope: 0
        outSlope: 0
        tangentMode: 0
      - time: 1.08333302
        value: 0
        inSlope: 0
        outSlope: 0
        tangentMode: 0
      - time: 1.09999967
        value: 0
        inSlope: 0
        outSlope: 0
        tangentMode: 0
      - time: 1.11666632
        value: 0
        inSlope: 0
        outSlope: 0
        tangentMode: 0
      - time: 1.13333297
        value: 0
        inSlope: 0
        outSlope: 0
        tangentMode: 0
      - time: 1.14999962
        value: 0
        inSlope: 0
        outSlope: 0
        tangentMode: 0
      - time: 1.16666627
        value: 0
        inSlope: 0
        outSlope: 0
        tangentMode: 0
      - time: 1.18333292
        value: 0
        inSlope: 0
        outSlope: 0
        tangentMode: 0
      - time: 1.19999957
        value: 0
        inSlope: 0
        outSlope: 0
        tangentMode: 0
      - time: 1.21666622
        value: 0
        inSlope: 0
        outSlope: 0
        tangentMode: 0
      - time: 1.23333287
        value: 0
        inSlope: 0
        outSlope: 0
        tangentMode: 0
      - time: 1.24999952
        value: 0
        inSlope: 0
        outSlope: 0
        tangentMode: 0
      - time: 1.26666617
        value: 0
        inSlope: 0
        outSlope: 0
        tangentMode: 0
      - time: 1.28333282
        value: 0
        inSlope: 0
        outSlope: 0
        tangentMode: 0
      - time: 1.29999948
        value: 0
        inSlope: 0
        outSlope: 0
        tangentMode: 0
      - time: 1.31666613
        value: 0
        inSlope: 0
        outSlope: 0
        tangentMode: 0
      - time: 1.33333278
        value: 0
        inSlope: 0
        outSlope: 0
        tangentMode: 0
      - time: 1.34999943
        value: 0
        inSlope: 0
        outSlope: 0
        tangentMode: 0
      - time: 1.36666608
        value: 0
        inSlope: 0
        outSlope: 0
        tangentMode: 0
      - time: 1.38333273
        value: 0
        inSlope: 0
        outSlope: 0
        tangentMode: 0
      - time: 1.39999938
        value: 0
        inSlope: 0
        outSlope: 0
        tangentMode: 0
      - time: 1.41666603
        value: 0
        inSlope: 0
        outSlope: 0
        tangentMode: 0
      - time: 1.43333268
        value: 0
        inSlope: 0
        outSlope: 0
        tangentMode: 0
      - time: 1.44999933
        value: 0
        inSlope: 0
        outSlope: 0
        tangentMode: 0
      - time: 1.46666598
        value: 0
        inSlope: 0
        outSlope: 0
        tangentMode: 0
      - time: 1.48333263
        value: 0
        inSlope: 0
        outSlope: 0
        tangentMode: 0
      - time: 1.49999928
        value: 0
        inSlope: 0
        outSlope: 0
        tangentMode: 0
      - time: 1.51666594
        value: 0
        inSlope: 0
        outSlope: 0
        tangentMode: 0
      - time: 1.53333259
        value: 0
        inSlope: 0
        outSlope: 0
        tangentMode: 0
      - time: 1.54999924
        value: 0
        inSlope: 0
        outSlope: 0
        tangentMode: 0
      - time: 1.56666589
        value: 0
        inSlope: 0
        outSlope: 0
        tangentMode: 0
      - time: 1.58333254
        value: 0
        inSlope: 0
        outSlope: 0
        tangentMode: 0
      - time: 1.59999919
        value: 0
        inSlope: 0
        outSlope: 0
        tangentMode: 0
      - time: 1.61666584
        value: 0
        inSlope: 0
        outSlope: 0
        tangentMode: 0
      - time: 1.63333249
        value: 0
        inSlope: 0
        outSlope: 0
        tangentMode: 0
      - time: 1.64999914
        value: 0
        inSlope: 0
        outSlope: 0
        tangentMode: 0
      - time: 1.66666579
        value: 0
        inSlope: 0
        outSlope: 0
        tangentMode: 0
      - time: 1.68333244
        value: 0
        inSlope: 0
        outSlope: 0
        tangentMode: 0
      - time: 1.69999909
        value: 0
        inSlope: 0
        outSlope: 0
        tangentMode: 0
      - time: 1.71666574
        value: 0
        inSlope: 0
        outSlope: 0
        tangentMode: 0
      - time: 1.7333324
        value: 0
        inSlope: 0
        outSlope: 0
        tangentMode: 0
      - time: 1.74999905
        value: 0
        inSlope: 0
        outSlope: 0
        tangentMode: 0
      - time: 1.7666657
        value: 0
        inSlope: 0
        outSlope: 0
        tangentMode: 0
      - time: 1.78333235
        value: 0
        inSlope: 0
        outSlope: 0
        tangentMode: 0
      - time: 1.799999
        value: 0
        inSlope: 0
        outSlope: 0
        tangentMode: 0
      - time: 1.81666565
        value: 0
        inSlope: 0
        outSlope: 0
        tangentMode: 0
      - time: 1.8333323
        value: 0
        inSlope: 0
        outSlope: 0
        tangentMode: 0
      - time: 1.84999895
        value: 0
        inSlope: 0
        outSlope: 0
        tangentMode: 0
      - time: 1.8666656
        value: 0
        inSlope: 0
        outSlope: 0
        tangentMode: 0
      - time: 1.88333225
        value: 0
        inSlope: 0
        outSlope: 0
        tangentMode: 0
      - time: 1.8999989
        value: 0
        inSlope: 0
        outSlope: 0
        tangentMode: 0
      - time: 1.91666663
        value: 0
        inSlope: 0
        outSlope: 0
        tangentMode: 0
      m_PreInfinity: 2
      m_PostInfinity: 2
    attribute: m_LocalRotation.z
    path: 
    classID: 4
    script: {fileID: 0}
  - curve:
      serializedVersion: 2
      m_Curve:
      - time: 0
        value: -1.62920685e-07
        inSlope: 0
        outSlope: 0
        tangentMode: 0
      - time: .0166666675
        value: -1.62920685e-07
        inSlope: 0
        outSlope: 0
        tangentMode: 0
      - time: .0333333351
        value: -1.62920685e-07
        inSlope: 0
        outSlope: 0
        tangentMode: 0
      - time: .0500000045
        value: -1.62920685e-07
        inSlope: 0
        outSlope: 0
        tangentMode: 0
      - time: .0666666701
        value: -1.62920685e-07
        inSlope: 0
        outSlope: 0
        tangentMode: 0
      - time: .0833333358
        value: -1.62920685e-07
        inSlope: 0
        outSlope: 0
        tangentMode: 0
      - time: .100000001
        value: -1.62920685e-07
        inSlope: 0
        outSlope: 0
        tangentMode: 0
      - time: .116666667
        value: -1.62920685e-07
        inSlope: 0
        outSlope: 0
        tangentMode: 0
      - time: .13333334
        value: -1.62920685e-07
        inSlope: 0
        outSlope: 0
        tangentMode: 0
      - time: .150000006
        value: -1.62920685e-07
        inSlope: 0
        outSlope: 0
        tangentMode: 0
      - time: .166666672
        value: -1.62920685e-07
        inSlope: 0
        outSlope: 0
        tangentMode: 0
      - time: .183333337
        value: -1.62920685e-07
        inSlope: 0
        outSlope: 0
        tangentMode: 0
      - time: .200000003
        value: -1.62920685e-07
        inSlope: 0
        outSlope: 0
        tangentMode: 0
      - time: .216666669
        value: -1.62920685e-07
        inSlope: 0
        outSlope: 0
        tangentMode: 0
      - time: .233333334
        value: -1.62920685e-07
        inSlope: 0
        outSlope: 0
        tangentMode: 0
      - time: .25
        value: -1.62920685e-07
        inSlope: 0
        outSlope: 0
        tangentMode: 0
      - time: .266666681
        value: -1.62920685e-07
        inSlope: 0
        outSlope: 0
        tangentMode: 0
      - time: .283333361
        value: -1.62920685e-07
        inSlope: 0
        outSlope: 0
        tangentMode: 0
      - time: .300000042
        value: -1.62920685e-07
        inSlope: 0
        outSlope: 0
        tangentMode: 0
      - time: .316666722
        value: -1.62920685e-07
        inSlope: 0
        outSlope: 0
        tangentMode: 0
      - time: .333333403
        value: -1.62920685e-07
        inSlope: 0
        outSlope: 0
        tangentMode: 0
      - time: .350000083
        value: -1.62920685e-07
        inSlope: 0
        outSlope: 0
        tangentMode: 0
      - time: .366666764
        value: -1.62920685e-07
        inSlope: 0
        outSlope: 0
        tangentMode: 0
      - time: .383333445
        value: -1.62920685e-07
        inSlope: 0
        outSlope: 0
        tangentMode: 0
      - time: .400000125
        value: -1.62920685e-07
        inSlope: 0
        outSlope: 0
        tangentMode: 0
      - time: .416666806
        value: -1.62920685e-07
        inSlope: 0
        outSlope: 0
        tangentMode: 0
      - time: .433333486
        value: -1.62920685e-07
        inSlope: 0
        outSlope: 0
        tangentMode: 0
      - time: .450000167
        value: -1.62920685e-07
        inSlope: 0
        outSlope: 0
        tangentMode: 0
      - time: .466666847
        value: -1.62920685e-07
        inSlope: 0
        outSlope: 0
        tangentMode: 0
      - time: .483333528
        value: -1.62920685e-07
        inSlope: 0
        outSlope: 0
        tangentMode: 0
      - time: .500000179
        value: -1.62920685e-07
        inSlope: 0
        outSlope: 0
        tangentMode: 0
      - time: .51666683
        value: -1.62920685e-07
        inSlope: 0
        outSlope: 0
        tangentMode: 0
      - time: .53333348
        value: -1.62920685e-07
        inSlope: 0
        outSlope: 0
        tangentMode: 0
      - time: .550000131
        value: -1.62920685e-07
        inSlope: 0
        outSlope: 0
        tangentMode: 0
      - time: .566666782
        value: -1.62920685e-07
        inSlope: 0
        outSlope: 0
        tangentMode: 0
      - time: .583333433
        value: -1.62920685e-07
        inSlope: 0
        outSlope: 0
        tangentMode: 0
      - time: .600000083
        value: -1.62920685e-07
        inSlope: 0
        outSlope: 0
        tangentMode: 0
      - time: .616666734
        value: -1.62920685e-07
        inSlope: 0
        outSlope: 0
        tangentMode: 0
      - time: .633333385
        value: -1.62920685e-07
        inSlope: 0
        outSlope: 0
        tangentMode: 0
      - time: .650000036
        value: -1.62920685e-07
        inSlope: 0
        outSlope: 0
        tangentMode: 0
      - time: .666666687
        value: -1.62920685e-07
        inSlope: 0
        outSlope: 0
        tangentMode: 0
      - time: .683333337
        value: -1.62920685e-07
        inSlope: 0
        outSlope: 0
        tangentMode: 0
      - time: .699999988
        value: -1.62920685e-07
        inSlope: 0
        outSlope: 0
        tangentMode: 0
      - time: .716666639
        value: -1.62920685e-07
        inSlope: 0
        outSlope: 0
        tangentMode: 0
      - time: .73333329
        value: -1.62920685e-07
        inSlope: 0
        outSlope: 0
        tangentMode: 0
      - time: .74999994
        value: -1.62920685e-07
        inSlope: 0
        outSlope: 0
        tangentMode: 0
      - time: .766666591
        value: -1.62920685e-07
        inSlope: 0
        outSlope: 0
        tangentMode: 0
      - time: .783333242
        value: -1.62920685e-07
        inSlope: 0
        outSlope: 0
        tangentMode: 0
      - time: .799999893
        value: -1.62920685e-07
        inSlope: 0
        outSlope: 0
        tangentMode: 0
      - time: .816666543
        value: -1.62920685e-07
        inSlope: 0
        outSlope: 0
        tangentMode: 0
      - time: .833333194
        value: -1.62920685e-07
        inSlope: 0
        outSlope: 0
        tangentMode: 0
      - time: .849999845
        value: -1.62920685e-07
        inSlope: 0
        outSlope: 0
        tangentMode: 0
      - time: .866666496
        value: -1.62920685e-07
        inSlope: 0
        outSlope: 0
        tangentMode: 0
      - time: .883333147
        value: -1.62920685e-07
        inSlope: 0
        outSlope: 0
        tangentMode: 0
      - time: .899999797
        value: -1.62920685e-07
        inSlope: 0
        outSlope: 0
        tangentMode: 0
      - time: .916666448
        value: -1.62920685e-07
        inSlope: 0
        outSlope: 0
        tangentMode: 0
      - time: .933333099
        value: -1.62920685e-07
        inSlope: 0
        outSlope: 0
        tangentMode: 0
      - time: .94999975
        value: -1.62920685e-07
        inSlope: 0
        outSlope: 0
        tangentMode: 0
      - time: .9666664
        value: -1.62920685e-07
        inSlope: 0
        outSlope: 0
        tangentMode: 0
      - time: .983333051
        value: -1.62920685e-07
        inSlope: 0
        outSlope: 0
        tangentMode: 0
      - time: .999999702
        value: -1.62920685e-07
        inSlope: 0
        outSlope: 0
        tangentMode: 0
      - time: 1.01666641
        value: -1.62920685e-07
        inSlope: 0
        outSlope: 0
        tangentMode: 0
      - time: 1.03333306
        value: -1.62920685e-07
        inSlope: 0
        outSlope: 0
        tangentMode: 0
      - time: 1.04999971
        value: -1.62920685e-07
        inSlope: 0
        outSlope: 0
        tangentMode: 0
      - time: 1.06666636
        value: -1.62920685e-07
        inSlope: 0
        outSlope: 0
        tangentMode: 0
      - time: 1.08333302
        value: -1.62920685e-07
        inSlope: 0
        outSlope: 0
        tangentMode: 0
      - time: 1.09999967
        value: -1.62920685e-07
        inSlope: 0
        outSlope: 0
        tangentMode: 0
      - time: 1.11666632
        value: -1.62920685e-07
        inSlope: 0
        outSlope: 0
        tangentMode: 0
      - time: 1.13333297
        value: -1.62920685e-07
        inSlope: 0
        outSlope: 0
        tangentMode: 0
      - time: 1.14999962
        value: -1.62920685e-07
        inSlope: 0
        outSlope: 0
        tangentMode: 0
      - time: 1.16666627
        value: -1.62920685e-07
        inSlope: 0
        outSlope: 0
        tangentMode: 0
      - time: 1.18333292
        value: -1.62920685e-07
        inSlope: 0
        outSlope: 0
        tangentMode: 0
      - time: 1.19999957
        value: -1.62920685e-07
        inSlope: 0
        outSlope: 0
        tangentMode: 0
      - time: 1.21666622
        value: -1.62920685e-07
        inSlope: 0
        outSlope: 0
        tangentMode: 0
      - time: 1.23333287
        value: -1.62920685e-07
        inSlope: 0
        outSlope: 0
        tangentMode: 0
      - time: 1.24999952
        value: -1.62920685e-07
        inSlope: 0
        outSlope: 0
        tangentMode: 0
      - time: 1.26666617
        value: -1.62920685e-07
        inSlope: 0
        outSlope: 0
        tangentMode: 0
      - time: 1.28333282
        value: -1.62920685e-07
        inSlope: 0
        outSlope: 0
        tangentMode: 0
      - time: 1.29999948
        value: -1.62920685e-07
        inSlope: 0
        outSlope: 0
        tangentMode: 0
      - time: 1.31666613
        value: -1.62920685e-07
        inSlope: 0
        outSlope: 0
        tangentMode: 0
      - time: 1.33333278
        value: -1.62920685e-07
        inSlope: 0
        outSlope: 0
        tangentMode: 0
      - time: 1.34999943
        value: -1.62920685e-07
        inSlope: 0
        outSlope: 0
        tangentMode: 0
      - time: 1.36666608
        value: -1.62920685e-07
        inSlope: 0
        outSlope: 0
        tangentMode: 0
      - time: 1.38333273
        value: -1.62920685e-07
        inSlope: 0
        outSlope: 0
        tangentMode: 0
      - time: 1.39999938
        value: -1.62920685e-07
        inSlope: 0
        outSlope: 0
        tangentMode: 0
      - time: 1.41666603
        value: -1.62920685e-07
        inSlope: 0
        outSlope: 0
        tangentMode: 0
      - time: 1.43333268
        value: -1.62920685e-07
        inSlope: 0
        outSlope: 0
        tangentMode: 0
      - time: 1.44999933
        value: -1.62920685e-07
        inSlope: 0
        outSlope: 0
        tangentMode: 0
      - time: 1.46666598
        value: -1.62920685e-07
        inSlope: 0
        outSlope: 0
        tangentMode: 0
      - time: 1.48333263
        value: -1.62920685e-07
        inSlope: 0
        outSlope: 0
        tangentMode: 0
      - time: 1.49999928
        value: -1.62920685e-07
        inSlope: 0
        outSlope: 0
        tangentMode: 0
      - time: 1.51666594
        value: -1.62920685e-07
        inSlope: 0
        outSlope: 0
        tangentMode: 0
      - time: 1.53333259
        value: -1.62920685e-07
        inSlope: 0
        outSlope: 0
        tangentMode: 0
      - time: 1.54999924
        value: -1.62920685e-07
        inSlope: 0
        outSlope: 0
        tangentMode: 0
      - time: 1.56666589
        value: -1.62920685e-07
        inSlope: 0
        outSlope: 0
        tangentMode: 0
      - time: 1.58333254
        value: -1.62920685e-07
        inSlope: 0
        outSlope: 0
        tangentMode: 0
      - time: 1.59999919
        value: -1.62920685e-07
        inSlope: 0
        outSlope: 0
        tangentMode: 0
      - time: 1.61666584
        value: -1.62920685e-07
        inSlope: 0
        outSlope: 0
        tangentMode: 0
      - time: 1.63333249
        value: -1.62920685e-07
        inSlope: 0
        outSlope: 0
        tangentMode: 0
      - time: 1.64999914
        value: -1.62920685e-07
        inSlope: 0
        outSlope: 0
        tangentMode: 0
      - time: 1.66666579
        value: -1.62920685e-07
        inSlope: 0
        outSlope: 0
        tangentMode: 0
      - time: 1.68333244
        value: -1.62920685e-07
        inSlope: 0
        outSlope: 0
        tangentMode: 0
      - time: 1.69999909
        value: -1.62920685e-07
        inSlope: 0
        outSlope: 0
        tangentMode: 0
      - time: 1.71666574
        value: -1.62920685e-07
        inSlope: 0
        outSlope: 0
        tangentMode: 0
      - time: 1.7333324
        value: -1.62920685e-07
        inSlope: 0
        outSlope: 0
        tangentMode: 0
      - time: 1.74999905
        value: -1.62920685e-07
        inSlope: 0
        outSlope: 0
        tangentMode: 0
      - time: 1.7666657
        value: -1.62920685e-07
        inSlope: 0
        outSlope: 0
        tangentMode: 0
      - time: 1.78333235
        value: -1.62920685e-07
        inSlope: 0
        outSlope: 0
        tangentMode: 0
      - time: 1.799999
        value: -1.62920685e-07
        inSlope: 0
        outSlope: 0
        tangentMode: 0
      - time: 1.81666565
        value: -1.62920685e-07
        inSlope: 0
        outSlope: 0
        tangentMode: 0
      - time: 1.8333323
        value: -1.62920685e-07
        inSlope: 0
        outSlope: 0
        tangentMode: 0
      - time: 1.84999895
        value: -1.62920685e-07
        inSlope: 0
        outSlope: 0
        tangentMode: 0
      - time: 1.8666656
        value: -1.62920685e-07
        inSlope: 0
        outSlope: 0
        tangentMode: 0
      - time: 1.88333225
        value: -1.62920685e-07
        inSlope: 0
        outSlope: 0
        tangentMode: 0
      - time: 1.8999989
        value: -1.62920685e-07
        inSlope: 0
        outSlope: 0
        tangentMode: 0
      - time: 1.91666663
        value: -1.62920685e-07
        inSlope: 0
        outSlope: 0
        tangentMode: 0
      m_PreInfinity: 2
      m_PostInfinity: 2
    attribute: m_LocalRotation.w
    path: 
    classID: 4
    script: {fileID: 0}
  m_EulerEditorCurves:
  - curve:
      serializedVersion: 2
      m_Curve:
      - time: 0
        value: 0
        inSlope: 0
        outSlope: 0
        tangentMode: 10
      - time: 1.91666663
        value: 0
        inSlope: 0
        outSlope: 0
        tangentMode: 10
      m_PreInfinity: 2
      m_PostInfinity: 2
    attribute: localEulerAnglesBaked.x
    path: 
    classID: 4
    script: {fileID: 0}
  - curve:
      serializedVersion: 2
      m_Curve:
      - time: 0
        value: 180
        inSlope: 0
        outSlope: 0
        tangentMode: 1
      - time: 1.91666663
        value: 180
        inSlope: 0
        outSlope: 0
        tangentMode: 10
      m_PreInfinity: 2
      m_PostInfinity: 2
    attribute: localEulerAnglesBaked.y
    path: 
    classID: 4
    script: {fileID: 0}
  - curve:
      serializedVersion: 2
      m_Curve:
      - time: 0
        value: 0
        inSlope: 0
        outSlope: 0
        tangentMode: 10
      - time: 1.91666663
        value: 0
        inSlope: 0
        outSlope: 0
        tangentMode: 10
      m_PreInfinity: 2
      m_PostInfinity: 2
    attribute: localEulerAnglesBaked.z
    path: 
    classID: 4
    script: {fileID: 0}
  m_HasGenericRootTransform: 1
  m_HasMotionFloatCurves: 0
  m_GenerateMotionCurves: 0
  m_Events: []
